Difference between calculated and output C Frames for dataset b
Frame 1

 -0.09 0.19 0.30 -0.18 0.37 -0.41 -0.18 -0.18 0.10 0.10 0.12 0.42 0.21 0.22 -0.11 -0.09 0.32 -0.07 0.30 0.48 -0.02 -0.38 -0.16 -0.29 0.20 -0.20 -0.29
 -0.25 -0.39 -0.49 0.30 -0.32 -0.39 -0.38 0.50 -0.24 0.07 0.36 0.39 0.02 -0.26 -0.34 0.26 0.48 0.42 -0.29 0.11 0.39 -0.20 0.22 0.45 0.07 -0.12 0.31
 0.25 0.22 0.15 -0.29 -0.17 0.33 0.30 0.01 -0.19 0.49 -0.13 0.13 0.42 0.28 -0.45 0.34 0.20 -0.20 0.01 -0.48 -0.23 0.06 0.34 -0.15 -0.13 0.26 -0.45

Frame 2

 0.07 -0.19 -0.45 0.01 -0.41 -0.45 -0.10 -0.00 0.30 0.34 0.02 -0.43 -0.43 0.36 0.37 0.02 -0.26 0.08 -0.49 -0.37 0.07 0.22 -0.09 0.37 -0.08 0.48 -0.02
 0.24 -0.45 -0.01 -0.19 -0.48 -0.20 -0.40 -0.40 0.43 0.39 0.35 0.00 0.17 -0.11 0.19 -0.31 -0.40 0.42 -0.19 -0.38 -0.39 0.38 -0.02 -0.28 0.08 0.09 0.02
 -0.17 0.29 0.43 -0.32 -0.12 -0.08 -0.02 -0.31 0.29 0.02 0.45 0.43 0.00 0.19 -0.35 0.10 0.48 0.37 0.42 -0.13 -0.30 -0.31 -0.11 -0.46 -0.17 -0.12 0.09

Frame 3

 -0.07 0.40 0.31 -0.36 0.46 -0.32 0.09 0.20 -0.37 0.13 0.39 0.42 0.49 -0.23 -0.43 -0.12 0.37 0.03 -0.42 -0.48 0.46 -0.24 -0.35 0.05 0.45 0.29 -0.08
 -0.18 0.45 0.14 0.14 0.06 0.43 -0.01 -0.34 -0.19 0.18 0.07 0.21 -0.13 -0.30 0.09 -0.05 0.26 -0.43 0.34 0.06 -0.08 -0.45 0.02 -0.20 0.47 -0.25 0.49
 -0.23 0.38 0.13 -0.09 0.15 0.23 -0.17 -0.17 -0.11 -0.48 0.30 -0.34 0.24 0.32 -0.29 0.32 0.24 0.12 0.24 0.03 -0.22 -0.03 0.17 -0.05 0.28 -0.29 0.41

Frame 4

 0.02 -0.27 -0.21 0.00 0.44 -0.02 -0.38 -0.30 -0.49 0.11 0.22 -0.17 -0.40 0.18 -0.16 -0.38 -0.17 0.47 0.28 -0.08 -0.16 0.42 0.31 0.36 0.17 -0.28 -0.48
 0.48 0.34 -0.01 0.40 0.29 -0.03 -0.39 0.42 -0.30 0.04 -0.32 -0.35 0.43 0.30 0.40 -0.00 -0.00 -0.33 0.17 0.28 -0.09 -0.42 -0.11 0.25 -0.24 -0.26 -0.13
 0.15 0.13 -0.41 0.37 -0.47 -0.05 0.30 0.13 -0.17 0.05 0.37 0.25 0.33 -0.46 -0.43 0.47 0.16 0.38 -0.09 0.11 -0.28 0.43 0.29 -0.32 -0.24 -0.07 0.17

Frame 5

 -0.22 -0.12 -0.35 0.12 -0.33 0.21 -0.34 -0.37 -0.11 -0.44 0.06 0.40 0.49 -0.17 -0.37 0.31 -0.40 0.24 -0.11 -0.36 0.05 -0.43 0.32 0.36 0.35 0.09 0.30
 0.22 -0.06 0.49 -0.18 0.28 0.01 0.16 -0.19 0.36 -0.23 0.04 0.07 0.41 0.14 -0.14 0.45 -0.44 0.04 0.42 -0.17 0.22 -0.32 0.14 -0.50 -0.01 0.44 0.17
 -0.34 0.00 -0.44 -0.08 0.42 0.11 -0.22 -0.08 0.49 0.41 0.27 -0.04 -0.25 -0.13 0.38 -0.14 0.38 -0.33 -0.24 0.46 -0.25 0.28 0.32 0.32 0.05 0.25 -0.49

Frame 6

 0.05 0.12 -0.30 -0.26 0.09 0.25 0.23 0.10 -0.02 0.23 0.40 -0.25 -0.36 -0.04 0.22 -0.39 0.00 0.01 0.11 -0.29 -0.16 0.40 0.29 0.12 -0.25 0.35 0.32
 -0.20 -0.11 0.46 0.16 -0.36 -0.17 0.04 -0.21 0.06 0.22 0.02 -0.37 -0.14 0.33 -0.17 -0.18 -0.18 0.36 0.41 -0.40 -0.04 0.08 -0.30 0.03 -0.50 0.15 -0.10
 0.07 0.38 -0.36 -0.01 0.31 0.25 0.42 0.21 -0.01 -0.10 0.18 0.30 -0.20 0.04 -0.36 0.35 0.14 -0.32 0.27 -0.37 -0.16 -0.28 0.12 0.04 0.26 0.07 -0.37

Frame 7

 0.20 0.26 0.49 0.17 -0.06 0.08 0.07 -0.13 -0.38 -0.06 0.07 0.26 -0.35 0.26 -0.38 0.17 -0.28 0.38 0.50 0.22 -0.17 -0.32 -0.08 0.19 0.16 0.41 0.05
 -0.26 0.21 0.45 0.43 0.48 -0.44 0.09 0.37 0.37 0.30 -0.18 -0.37 0.10 0.44 0.26 -0.39 0.30 0.10 0.02 -0.22 -0.10 0.41 -0.46 0.42 -0.17 0.00 0.37
 0.22 0.45 -0.08 -0.36 -0.26 0.30 -0.47 0.38 -0.32 0.42 -0.15 0.08 -0.40 -0.47 0.14 -0.04 -0.06 0.24 -0.15 -0.02 -0.21 -0.46 -0.32 -0.43 0.04 0.09 -0.05

Frame 8

 -0.33 0.25 0.41 -0.03 -0.24 -0.25 0.21 0.22 0.40 0.46 -0.45 0.03 0.26 -0.19 0.49 -0.01 0.07 -0.40 0.11 0.30 0.38 0.48 0.14 0.04 -0.10 -0.28 0.10
 -0.10 -0.41 0.31 -0.49 0.05 -0.05 0.27 -0.02 -0.15 0.45 0.10 -0.18 0.11 0.12 -0.20 -0.29 0.41 0.24 0.31 -0.45 -0.43 -0.30 0.37 0.33 -0.01 -0.03 -0.49
 -0.36 -0.11 -0.10 -0.45 0.21 0.19 0.08 0.36 -0.14 -0.48 -0.35 -0.35 -0.12 -0.40 0.07 -0.21 -0.34 -0.09 0.07 0.05 -0.41 0.30 0.37 0.27 -0.20 -0.06 -0.38

Frame 9

 0.03 -0.50 -0.41 0.42 -0.41 0.07 -0.15 -0.14 -0.49 0.35 0.47 -0.36 -0.03 0.09 0.06 -0.35 0.47 -0.15 -0.34 0.04 -0.39 0.45 -0.22 -0.44 0.49 0.17 0.39
 -0.13 -0.18 0.13 0.33 0.32 -0.47 -0.11 0.41 0.05 -0.27 0.23 0.40 -0.33 -0.07 0.46 -0.06 -0.38 -0.26 -0.24 0.21 -0.24 0.05 -0.35 -0.12 0.17 -0.37 -0.48
 -0.14 -0.07 0.04 -0.07 0.12 -0.09 0.14 -0.18 0.01 0.23 0.49 0.20 -0.03 0.19 -0.05 0.30 -0.48 -0.10 0.31 -0.48 0.04 -0.08 0.48 0.06 0.05 0.30 -0.33

Frame 10

 0.22 -0.10 0.26 0.49 0.26 0.04 0.44 -0.21 0.15 -0.07 0.27 0.02 0.41 0.50 -0.18 0.07 0.42 0.37 -0.48 0.37 -0.30 0.38 -0.32 0.11 0.22 -0.31 -0.44
 -0.36 0.36 -0.49 -0.36 0.11 -0.43 -0.29 0.17 0.11 0.27 -0.37 0.15 0.35 0.16 0.13 -0.06 -0.23 -0.46 0.33 0.08 -0.43 0.35 -0.39 0.42 0.47 0.03 0.33
 -0.28 -0.34 0.30 -0.13 0.24 -0.36 0.08 0.37 0.40 0.44 -0.45 0.31 0.07 -0.12 0.39 -0.45 0.41 -0.08 -0.38 -0.35 -0.28 0.49 -0.20 -0.09 -0.47 -0.28 0.10

Frame 11

 0.17 0.50 -0.47 0.04 0.04 0.22 -0.43 -0.48 -0.39 -0.01 -0.32 0.13 0.44 0.24 0.18 0.31 0.21 -0.38 -0.44 -0.40 -0.36 0.14 -0.32 -0.48 0.05 0.25 0.12
 0.40 -0.17 -0.49 0.26 -0.04 -0.09 0.18 -0.27 0.08 -0.46 0.14 0.01 0.48 -0.39 -0.24 0.21 -0.15 0.10 -0.38 -0.10 -0.39 0.16 -0.03 0.24 0.32 -0.22 0.43
 -0.34 0.31 0.38 0.27 -0.47 0.04 0.31 0.42 0.28 -0.24 -0.03 0.19 -0.18 -0.05 0.47 0.20 -0.36 0.27 0.29 -0.46 0.50 0.41 0.17 0.11 0.30 0.04 0.30

Frame 12

 -0.13 -0.10 0.08 0.23 -0.12 -0.00 0.15 -0.25 0.17 -0.36 -0.28 0.04 0.19 0.27 0.10 0.42 0.03 0.26 -0.09 0.23 -0.06 0.30 0.10 0.06 -0.09 0.01 -0.05
 0.45 0.02 -0.06 0.42 0.30 0.17 -0.23 -0.45 -0.40 -0.48 0.47 0.16 -0.11 0.08 0.15 -0.32 -0.20 0.10 -0.26 -0.34 0.09 0.02 0.14 0.17 -0.41 -0.26 0.04
 0.41 0.24 0.32 -0.41 0.36 -0.32 -0.45 0.21 0.28 -0.33 -0.11 0.30 -0.14 0.17 -0.06 0.29 0.45 -0.21 0.33 -0.49 -0.24 0.35 -0.21 0.13 0.42 -0.22 0.03

Frame 13

 -0.35 -0.31 -0.02 -0.47 0.16 -0.06 0.40 -0.34 0.11 0.21 0.13 0.34 0.47 -0.24 -0.05 -0.17 0.38 -0.23 -0.16 0.37 -0.22 -0.25 -0.49 -0.32 0.36 -0.03 -0.16
 -0.25 -0.35 0.22 -0.03 -0.47 -0.26 -0.25 0.27 0.14 -0.14 -0.43 -0.10 0.08 0.18 -0.14 0.18 0.30 -0.33 -0.44 -0.15 -0.20 -0.38 -0.47 0.05 0.39 -0.04 0.46
 0.42 0.01 0.31 -0.44 -0.18 0.21 0.13 -0.12 0.19 0.23 -0.31 0.09 0.10 0.17 -0.43 -0.43 0.31 -0.18 0.36 0.26 -0.34 -0.50 0.23 -0.02 -0.21 -0.05 0.20

Frame 14

 -0.24 -0.38 -0.13 0.46 0.23 0.19 0.34 -0.21 -0.12 -0.32 0.40 0.08 0.33 -0.19 0.18 0.21 -0.26 0.11 -0.40 -0.22 -0.11 0.46 0.01 -0.12 0.08 0.46 -0.33
 0.04 -0.17 0.26 -0.46 -0.48 0.40 -0.46 0.37 -0.23 -0.02 0.29 -0.47 -0.20 -0.30 -0.26 -0.18 0.37 0.15 -0.22 0.48 -0.15 0.29 0.05 -0.15 0.07 0.16 0.11
 0.34 0.15 0.39 0.15 0.40 -0.04 -0.14 0.42 0.00 0.12 -0.37 -0.14 -0.50 -0.36 -0.40 -0.01 -0.08 0.28 -0.49 -0.44 0.20 -0.04 0.20 -0.14 0.21 0.05 -0.07

Frame 15

 -0.16 -0.03 -0.27 0.18 -0.15 -0.08 0.01 0.27 0.15 0.21 -0.06 0.03 -0.28 -0.11 -0.42 0.15 0.44 0.27 0.08 0.20 -0.15 0.47 -0.34 0.09 -0.43 0.41 -0.43
 -0.30 -0.17 0.32 -0.22 0.44 -0.12 -0.43 -0.19 -0.09 -0.35 0.46 0.22 0.48 0.28 0.18 0.38 -0.25 0.49 -0.47 -0.11 0.11 -0.44 -0.18 0.20 0.05 0.46 0.23
 0.35 -0.01 -0.05 0.32 -0.27 0.28 -0.39 0.01 -0.05 -0.43 0.26 -0.18 -0.06 -0.44 -0.34 0.23 0.12 -0.34 -0.35 -0.39 -0.22 -0.39 0.03 -0.33 0.46 0.33 -0.00

Frame 16

 0.48 0.16 0.18 0.26 -0.44 0.32 0.14 -0.32 0.09 -0.11 0.15 0.01 0.03 -0.22 -0.48 -0.09 0.02 -0.46 0.12 -0.30 -0.41 0.22 0.07 -0.19 -0.17 0.45 0.03
 0.45 0.41 -0.28 0.23 -0.47 -0.14 0.19 -0.41 -0.34 0.26 0.28 -0.08 -0.18 -0.36 -0.09 -0.20 0.47 0.36 -0.14 0.29 0.41 -0.01 -0.05 0.32 -0.10 0.49 -0.08
 -0.18 -0.21 -0.41 -0.03 0.04 0.36 0.48 -0.09 -0.02 -0.04 0.07 -0.12 0.14 0.36 -0.00 0.15 0.31 -0.34 0.41 0.25 -0.45 0.02 0.13 0.10 -0.13 0.25 0.27

Frame 17

 0.45 0.02 0.46 0.30 0.12 0.33 -0.17 -0.44 -0.37 -0.21 -0.23 -0.02 -0.07 -0.20 0.16 -0.16 0.22 -0.34 0.06 0.41 0.15 -0.42 -0.10 0.12 -0.14 0.23 0.05
 0.17 0.22 0.47 0.21 -0.40 -0.11 -0.00 -0.08 0.22 0.36 -0.22 0.30 -0.18 0.13 -0.02 -0.49 0.19 0.49 -0.23 -0.50 -0.18 0.49 0.12 0.45 -0.19 -0.36 0.20
 -0.50 0.01 -0.46 0.45 0.04 -0.05 0.28 0.30 -0.32 -0.23 -0.43 0.19 0.21 -0.34 0.18 -0.13 -0.40 0.22 0.48 -0.05 0.07 0.35 -0.08 -0.30 0.13 -0.22 -0.36

Frame 18

 0.05 0.24 0.42 -0.05 0.35 -0.16 -0.07 0.22 -0.39 -0.03 0.28 -0.20 0.30 0.17 0.13 0.02 0.19 -0.16 0.20 0.01 0.37 0.44 -0.23 0.32 -0.08 -0.08 0.00
 0.41 0.06 -0.25 -0.44 -0.33 -0.42 -0.41 -0.27 0.08 -0.19 0.05 0.24 0.15 0.39 0.10 -0.10 -0.23 -0.14 0.28 -0.07 -0.12 0.43 -0.07 -0.20 0.23 0.01 0.49
 -0.16 0.01 0.38 -0.15 0.28 0.08 0.49 -0.29 -0.14 -0.50 -0.46 0.29 -0.46 -0.28 0.49 -0.44 -0.14 -0.44 -0.38 0.23 0.28 -0.50 -0.50 -0.12 -0.30 -0.19 0.04

Frame 19

 -0.46 0.27 -0.47 -0.17 -0.05 -0.19 0.05 0.11 0.25 -0.45 -0.30 -0.38 -0.34 0.07 -0.29 -0.32 0.33 0.31 -0.24 -0.11 0.01 0.36 -0.14 0.41 0.34 -0.33 0.22
 0.12 -0.40 -0.38 0.01 -0.22 0.21 0.06 0.26 -0.16 0.05 -0.47 0.00 -0.05 -0.48 0.09 0.20 -0.05 0.20 -0.01 -0.25 -0.02 -0.24 -0.35 -0.07 0.09 0.16 -0.46
 0.02 -0.29 -0.35 0.47 0.30 0.27 0.40 -0.23 -0.02 -0.03 0.08 0.40 -0.43 0.25 -0.50 0.49 0.14 0.14 -0.49 0.47 -0.10 -0.23 0.18 0.14 -0.45 0.39 -0.49

Frame 20

 -0.25 -0.49 -0.30 -0.49 -0.21 0.24 -0.06 0.29 -0.14 -0.07 0.27 0.31 0.49 0.16 0.48 -0.17 -0.32 -0.47 -0.10 0.30 0.44 -0.31 -0.11 0.09 -0.08 -0.26 -0.23
 0.41 0.24 0.05 0.25 -0.40 0.10 -0.10 0.04 0.05 -0.08 0.37 -0.07 -0.34 -0.16 -0.23 -0.03 -0.32 0.26 -0.15 0.04 -0.17 0.31 0.01 0.19 -0.50 0.26 0.19
 0.21 -0.33 -0.43 -0.46 -0.04 0.42 0.13 0.04 0.05 0.29 -0.29 0.48 -0.48 -0.50 -0.04 0.20 -0.31 0.44 0.03 0.28 0.19 0.46 -0.20 -0.07 0.16 -0.17 0.38

Frame 21

 -0.31 0.20 0.07 -0.45 -0.24 0.38 0.29 0.18 0.03 0.03 0.06 0.09 -0.14 -0.21 -0.27 0.08 -0.15 -0.34 0.00 0.06 0.32 -0.33 -0.31 -0.22 0.21 -0.18 -0.07
 0.16 -0.15 0.49 0.00 -0.18 0.49 -0.15 -0.15 -0.17 0.15 0.01 -0.36 0.05 -0.16 -0.17 -0.16 -0.32 -0.14 0.15 0.15 -0.15 -0.12 -0.25 -0.39 -0.43 0.13 0.06
 -0.33 0.02 0.03 -0.50 -0.09 0.49 -0.06 0.19 0.38 0.31 -0.03 -0.10 0.12 -0.02 -0.22 -0.10 -0.31 0.19 0.27 -0.09 -0.30 -0.38 -0.28 0.37 0.34 0.46 -0.28

Frame 22

 0.43 -0.14 -0.35 -0.12 -0.13 -0.34 0.30 -0.33 0.37 0.46 -0.15 0.49 -0.13 -0.34 -0.05 -0.48 0.20 -0.21 -0.34 -0.34 -0.30 0.47 0.45 -0.26 -0.18 0.06 -0.27
 0.34 0.45 -0.12 -0.44 0.24 0.16 -0.05 0.12 0.15 -0.47 -0.25 0.06 -0.37 0.09 -0.31 -0.17 0.36 0.12 0.22 -0.34 0.35 0.01 -0.18 0.44 0.16 -0.45 -0.19
 -0.39 0.18 0.48 0.32 0.46 -0.13 0.02 -0.45 -0.42 0.00 0.35 0.28 -0.34 -0.41 -0.46 0.22 0.27 -0.28 -0.01 0.39 -0.37 -0.34 0.18 0.04 0.16 -0.14 -0.02

Frame 23

 0.02 -0.38 -0.30 0.26 0.09 0.37 0.31 -0.06 -0.44 -0.14 -0.49 0.28 -0.03 -0.10 0.19 -0.28 -0.22 0.06 0.15 -0.27 -0.40 0.14 -0.50 -0.13 -0.48 0.10 -0.42
 0.03 -0.36 -0.01 -0.26 -0.11 0.30 0.39 -0.41 0.48 -0.24 0.18 -0.17 0.01 -0.38 0.26 -0.30 -0.02 0.09 -0.49 -0.44 0.41 -0.15 -0.33 -0.32 -0.27 0.06 0.23
 -0.04 0.49 0.45 -0.34 0.04 -0.41 -0.29 0.17 0.05 -0.24 0.48 0.11 0.19 -0.01 -0.20 0.00 -0.42 0.36 -0.09 -0.46 -0.23 -0.24 -0.46 -0.01 -0.11 -0.33 0.34

Frame 24

 0.07 -0.40 0.46 -0.08 -0.16 -0.24 0.39 0.03 -0.28 -0.17 0.16 0.26 0.37 -0.43 -0.03 0.40 0.45 0.47 -0.16 0.34 -0.46 0.04 0.01 -0.05 0.45 0.50 0.03
 0.15 -0.28 -0.09 -0.26 -0.38 -0.11 0.30 -0.48 0.23 -0.33 -0.03 0.25 0.32 -0.44 0.43 -0.03 -0.02 -0.47 -0.28 0.29 0.41 0.46 0.46 -0.38 -0.40 -0.44 0.39
 0.09 0.10 -0.37 -0.16 -0.35 -0.46 0.36 0.50 0.14 0.11 0.45 0.28 -0.18 -0.19 0.29 -0.45 -0.43 0.31 0.04 0.10 -0.28 0.44 0.22 -0.24 0.23 0.14 -0.34

Frame 25

 -0.35 0.33 -0.18 0.28 -0.25 -0.25 -0.15 0.11 -0.40 0.01 -0.27 -0.48 0.07 -0.27 -0.28 -0.14 0.01 -0.34 -0.04 -0.15 0.02 -0.43 -0.21 -0.48 0.45 -0.02 0.19
 -0.29 -0.35 -0.07 -0.42 -0.32 -0.42 -0.16 0.21 0.39 0.33 -0.02 0.42 0.01 -0.48 -0.17 0.24 0.27 0.26 -0.14 0.46 0.05 -0.34 -0.30 0.09 0.36 -0.27 -0.01
 0.44 0.18 -0.20 -0.41 -0.27 0.44 -0.25 -0.24 -0.42 -0.26 -0.35 0.10 0.37 -0.20 -0.05 -0.34 0.35 -0.35 0.01 0.22 -0.04 -0.03 -0.48 0.21 -0.33 0.06 -0.06

Frame 26

 0.42 0.26 -0.05 0.12 -0.24 -0.03 0.15 0.22 -0.16 0.07 -0.07 -0.40 -0.34 -0.50 -0.49 0.45 0.02 0.08 -0.35 -0.27 0.13 -0.29 -0.43 0.12 0.11 -0.31 0.47
 -0.35 0.25 -0.21 -0.07 0.12 -0.06 -0.04 -0.14 -0.14 0.13 0.08 -0.20 0.06 0.21 -0.32 -0.17 -0.01 0.39 -0.41 -0.14 -0.36 -0.37 -0.42 0.47 0.23 0.22 -0.07
 -0.28 0.14 0.42 0.01 -0.07 -0.40 0.07 -0.34 0.39 -0.11 0.10 -0.10 -0.21 -0.31 -0.49 -0.21 -0.37 0.27 -0.12 0.50 -0.36 0.00 0.10 0.30 0.40 -0.11 0.18

Frame 27

 0.08 0.43 0.44 0.04 -0.24 0.49 0.41 0.19 0.42 0.04 -0.40 -0.06 0.27 0.10 -0.01 0.03 0.34 0.15 0.37 -0.04 0.47 -0.02 -0.30 -0.17 -0.28 0.35 0.37
 -0.27 -0.29 0.30 -0.27 -0.34 -0.06 0.35 -0.17 0.45 -0.00 0.38 0.10 0.01 0.17 0.29 0.21 0.36 0.11 0.26 0.02 -0.01 -0.33 0.38 0.29 0.30 0.17 0.43
 0.23 -0.08 -0.23 -0.34 0.36 0.38 -0.50 -0.02 -0.14 0.13 0.28 0.19 -0.46 0.10 0.09 -0.10 0.09 0.00 0.23 0.46 -0.22 -0.20 0.28 0.18 0.33 0.21 0.44

Frame 28

 0.22 -0.29 -0.21 -0.37 0.10 0.48 -0.48 0.05 0.37 -0.06 -0.33 -0.46 0.06 0.06 -0.08 -0.01 0.33 -0.14 -0.36 0.36 -0.29 0.11 -0.18 -0.03 -0.47 0.48 0.25
 0.23 -0.28 -0.29 -0.32 -0.28 0.24 0.37 -0.05 -0.15 -0.14 -0.42 -0.23 0.11 0.08 0.02 0.32 -0.23 0.22 0.06 -0.02 0.24 -0.16 0.26 -0.14 0.50 0.02 0.16
 0.22 -0.38 -0.11 -0.02 -0.47 -0.45 0.40 0.39 0.21 0.25 0.23 0.26 0.40 -0.21 -0.38 -0.21 0.28 -0.31 0.35 0.32 -0.25 -0.13 -0.31 -0.43 0.45 0.49 -0.02

Frame 29

 -0.12 -0.10 -0.07 0.28 0.39 -0.18 -0.44 -0.09 -0.40 -0.03 -0.01 0.18 0.14 0.31 -0.42 -0.42 -0.29 -0.05 0.07 0.33 0.42 -0.48 0.49 -0.40 -0.47 -0.12 -0.48
 0.40 0.18 -0.26 -0.37 0.43 0.29 0.04 0.32 0.26 0.00 -0.24 0.01 0.44 -0.32 0.42 0.22 0.18 -0.38 -0.23 0.35 0.31 0.19 -0.23 0.15 0.44 -0.00 -0.33
 -0.47 0.03 0.09 -0.28 -0.29 0.11 -0.39 0.13 0.13 -0.11 0.16 -0.04 -0.26 -0.06 0.28 0.06 -0.08 0.35 -0.13 -0.26 0.39 0.03 0.33 0.13 0.09 0.27 -0.37

Frame 30

 0.35 -0.29 -0.30 -0.14 -0.47 -0.40 0.27 -0.17 0.30 0.46 -0.26 -0.40 -0.10 -0.17 0.35 0.36 0.07 -0.46 -0.10 -0.45 0.42 -0.29 0.02 0.44 -0.26 -0.36 -0.26
 -0.00 0.15 -0.48 0.26 0.10 0.35 0.48 -0.16 -0.16 -0.19 0.13 0.05 0.05 0.23 0.18 -0.24 0.27 0.04 0.05 0.44 0.01 0.44 0.03 0.22 0.03 -0.24 -0.37
 -0.03 0.39 -0.04 -0.46 -0.36 -0.14 0.36 0.32 0.06 -0.19 -0.12 -0.33 0.02 0.26 -0.24 0.24 -0.14 -0.45 -0.06 -0.06 0.47 -0.17 0.19 -0.14 -0.17 0.04 -0.18

Frame 31

 0.16 -0.18 0.20 0.23 -0.48 -0.40 0.41 0.03 0.44 0.32 -0.33 -0.45 0.19 -0.25 0.18 -0.17 -0.38 -0.22 -0.34 0.35 -0.29 0.08 0.25 -0.08 -0.20 0.33 -0.23
 -0.04 -0.48 -0.05 0.42 0.29 0.44 -0.31 -0.12 0.43 -0.07 0.09 0.49 0.23 0.00 0.11 0.45 -0.04 -0.27 0.33 -0.24 0.30 0.10 -0.37 -0.10 0.48 0.12 0.05
 0.27 -0.43 0.49 -0.39 -0.17 0.39 0.01 0.25 -0.46 -0.45 -0.24 0.48 -0.36 -0.08 0.25 -0.35 0.03 -0.34 -0.13 -0.23 0.39 -0.39 -0.45 0.44 -0.04 -0.13 0.41

Frame 32

 0.02 -0.37 0.38 0.03 -0.06 0.23 0.25 -0.21 -0.22 0.30 0.43 0.35 -0.28 0.43 0.19 -0.49 0.49 0.28 -0.39 0.41 -0.28 0.05 0.24 -0.13 0.31 0.03 -0.03
 0.18 0.21 0.20 -0.44 -0.37 -0.47 0.44 -0.37 0.04 -0.40 -0.12 0.03 0.23 -0.38 0.41 -0.36 0.09 0.22 -0.40 0.40 -0.02 0.39 -0.33 -0.06 0.10 -0.35 0.19
 -0.12 0.13 0.19 -0.08 -0.18 0.09 0.00 0.13 -0.42 -0.45 0.45 0.05 0.11 -0.22 0.28 -0.06 0.49 0.14 0.31 -0.48 -0.11 0.04 -0.01 0.15 0.45 0.13 -0.06

Frame 33

 -0.49 0.33 -0.27 0.07 0.12 -0.27 0.30 0.03 -0.08 -0.02 -0.14 0.14 -0.09 -0.34 0.35 0.37 0.05 0.42 0.14 0.26 -0.12 0.34 0.37 -0.34 0.07 0.29 -0.16
 0.35 -0.29 -0.31 -0.25 0.32 -0.28 -0.47 0.18 -0.22 0.26 -0.32 0.13 0.47 -0.01 0.27 -0.19 0.32 -0.38 0.16 0.27 0.38 -0.14 0.25 0.50 0.19 0.22 0.41
 -0.42 0.29 0.04 -0.35 -0.20 0.26 0.42 -0.48 0.34 0.46 0.16 0.44 0.46 -0.03 -0.48 0.21 0.36 -0.34 -0.31 -0.32 0.09 -0.40 -0.24 0.14 0.05 0.38 0.28

Frame 34

 -0.47 0.49 -0.04 0.06 0.45 -0.34 -0.32 -0.24 0.44 -0.37 -0.35 0.20 0.29 -0.44 0.16 -0.28 0.02 -0.32 -0.26 -0.13 0.22 0.23 -0.10 0.45 0.23 -0.19 0.09
 0.48 -0.30 -0.05 0.22 0.50 0.02 -0.48 -0.10 0.37 -0.13 -0.21 0.30 -0.40 -0.20 -0.48 -0.16 -0.26 -0.37 -0.40 0.30 -0.23 -0.43 0.13 -0.47 -0.02 -0.25 -0.16
 0.07 0.23 -0.03 0.27 -0.35 0.42 0.03 -0.41 0.03 0.22 -0.09 -0.20 0.47 0.16 -0.02 0.09 0.28 -0.00 -0.44 0.14 -0.08 0.45 -0.29 -0.07 0.32 0.26 -0.07

Frame 35

 -0.39 -0.24 -0.29 -0.39 -0.13 0.43 0.15 0.35 -0.30 -0.08 0.50 -0.03 0.26 -0.33 -0.34 -0.26 0.06 -0.21 -0.37 -0.04 0.05 -0.45 -0.00 0.35 0.20 0.14 0.35
 -0.04 -0.08 -0.06 0.07 0.02 0.41 -0.19 0.17 -0.19 0.47 0.22 0.11 0.34 0.29 -0.35 -0.48 -0.35 0.17 -0.21 0.30 -0.03 -0.01 -0.26 0.25 -0.02 -0.26 0.40
 -0.00 -0.02 -0.19 0.46 -0.28 -0.35 -0.05 0.42 -0.27 -0.06 -0.38 0.27 0.16 0.15 0.24 -0.12 0.33 0.11 0.47 -0.46 -0.45 0.33 0.34 0.37 -0.26 -0.21 0.47

Frame 36

 0.01 0.45 -0.20 -0.43 -0.45 -0.20 -0.19 -0.03 0.24 -0.46 -0.45 -0.32 0.02 0.27 0.42 0.06 0.02 0.34 0.33 -0.44 0.44 0.19 -0.30 0.18 0.01 -0.17 -0.08
 -0.21 0.47 -0.01 0.24 -0.16 -0.36 0.13 -0.14 -0.32 0.35 0.21 -0.15 0.45 -0.07 0.35 0.48 0.27 0.02 -0.30 0.40 -0.01 0.40 -0.01 -0.19 -0.11 0.18 0.20
 0.15 -0.45 0.19 -0.17 -0.22 0.37 -0.41 0.47 -0.34 -0.32 -0.32 -0.45 0.14 -0.48 0.32 0.41 0.15 0.25 0.21 0.23 -0.00 0.02 -0.49 0.14 -0.20 -0.41 0.30

Frame 37

 0.03 -0.04 -0.32 -0.06 0.39 -0.04 -0.25 -0.38 -0.37 -0.14 0.35 -0.30 -0.25 0.48 0.13 0.43 0.47 0.47 0.05 -0.24 -0.32 -0.49 0.33 0.50 -0.34 0.28 0.01
 0.26 -0.07 0.31 0.22 -0.23 -0.07 0.04 0.45 0.05 -0.44 -0.36 -0.24 -0.14 0.03 -0.36 0.20 -0.21 -0.01 0.08 -0.27 0.32 -0.29 -0.00 -0.31 0.08 0.40 0.33
 0.18 -0.28 -0.34 0.05 0.40 -0.09 0.10 0.23 -0.36 -0.02 -0.48 -0.39 -0.39 -0.32 -0.11 0.01 0.49 -0.08 0.01 0.40 0.27 0.14 0.25 -0.48 0.01 -0.42 -0.14

Frame 38

 -0.34 0.15 0.17 0.49 0.11 -0.41 0.08 0.15 0.29 0.04 0.26 -0.22 -0.33 0.15 -0.39 0.25 -0.26 -0.02 0.49 -0.34 0.21 0.15 0.19 -0.17 -0.37 -0.33 -0.14
 0.36 0.09 0.48 -0.16 -0.12 0.36 -0.03 0.06 -0.23 0.28 -0.28 0.35 0.20 0.44 0.24 -0.36 -0.16 -0.23 0.09 -0.12 0.23 0.41 -0.11 -0.00 0.02 0.31 -0.41
 -0.45 0.21 -0.42 -0.18 -0.00 0.02 -0.31 0.03 -0.41 0.48 0.38 -0.20 0.05 -0.48 -0.20 0.49 0.04 -0.13 -0.08 -0.41 -0.07 0.13 -0.05 -0.02 -0.49 -0.15 -0.09

Frame 39

 0.03 0.49 -0.00 -0.29 -0.14 0.28 -0.39 -0.37 -0.37 0.35 -0.12 0.40 -0.48 0.25 -0.05 -0.26 0.25 -0.38 0.25 -0.45 0.45 0.16 -0.28 0.39 -0.14 -0.48 -0.37
 -0.19 -0.03 0.40 -0.07 0.40 0.17 0.36 0.04 -0.03 -0.46 0.10 -0.01 0.18 0.32 -0.34 0.32 -0.07 0.48 -0.27 -0.24 0.28 0.38 0.39 0.09 0.22 0.28 -0.48
 0.26 0.08 0.39 0.17 0.27 -0.04 -0.03 -0.46 -0.24 0.12 -0.29 0.50 0.00 0.27 -0.20 -0.13 -0.39 -0.19 0.33 0.46 -0.40 -0.31 0.17 -0.15 -0.09 -0.26 -0.10

Frame 40

 -0.24 0.15 -0.09 -0.35 0.00 0.12 0.04 -0.49 -0.09 -0.26 -0.43 0.47 0.49 0.07 -0.19 0.29 0.41 -0.09 -0.39 -0.05 0.06 0.01 -0.02 0.12 0.24 0.31 -0.49
 -0.42 0.31 -0.20 0.11 0.47 0.02 -0.42 0.24 0.26 0.21 0.46 0.46 -0.40 0.31 -0.20 -0.24 0.31 -0.18 -0.49 -0.12 0.46 -0.06 -0.37 0.10 0.43 0.41 -0.40
 -0.13 0.15 -0.11 -0.12 -0.01 -0.20 0.21 0.37 0.19 -0.09 -0.43 0.27 0.20 -0.22 0.50 0.07 0.22 -0.42 -0.29 0.14 0.28 0.27 -0.27 -0.19 -0.39 0.26 -0.31

Frame 41

 -0.31 0.47 -0.14 0.41 0.07 -0.48 0.04 0.00 0.26 -0.47 0.07 0.37 -0.24 0.35 0.14 0.06 -0.07 -0.21 -0.18 -0.15 0.25 -0.27 -0.22 -0.35 -0.32 0.26 -0.37
 -0.24 -0.36 -0.09 -0.23 -0.29 -0.45 -0.41 -0.44 -0.49 -0.26 0.32 0.03 0.43 0.27 0.21 -0.23 -0.25 0.31 -0.36 -0.36 -0.02 0.30 -0.05 0.34 0.07 -0.24 -0.48
 0.19 0.43 -0.29 0.07 0.15 -0.36 -0.20 0.18 -0.39 -0.35 -0.43 -0.40 0.42 -0.30 0.43 -0.38 0.44 -0.10 0.17 0.15 0.16 -0.40 -0.30 0.23 -0.32 -0.38 0.03

Frame 42

 0.43 -0.32 -0.38 -0.02 -0.35 0.40 -0.15 -0.36 -0.01 0.25 0.09 -0.20 -0.10 0.15 0.30 -0.22 0.06 -0.35 -0.28 -0.08 0.47 0.45 -0.47 -0.16 0.45 0.20 0.26
 0.32 -0.48 0.42 -0.09 0.38 0.06 -0.17 -0.37 0.30 -0.41 0.22 -0.00 -0.08 -0.14 0.26 -0.44 -0.40 0.15 -0.50 -0.37 -0.32 -0.47 -0.36 -0.00 -0.47 0.33 -0.08
 -0.16 0.45 0.26 0.32 0.20 -0.00 -0.24 0.03 -0.17 0.20 0.40 0.14 -0.34 -0.06 -0.32 0.15 0.31 -0.32 0.07 -0.43 0.19 -0.31 -0.04 -0.38 -0.19 0.13 -0.31

Frame 43

 0.01 -0.44 -0.02 -0.13 -0.01 0.40 -0.02 0.26 -0.32 -0.23 0.07 0.14 -0.03 0.19 -0.48 -0.45 0.13 -0.26 0.34 -0.43 0.33 -0.20 0.17 0.03 -0.43 -0.24 0.28
 -0.47 -0.27 -0.37 0.49 0.15 0.46 0.27 -0.00 -0.43 -0.38 -0.19 -0.40 -0.48 0.37 0.19 0.02 0.41 0.48 0.23 0.08 -0.03 -0.33 -0.01 -0.08 0.46 0.25 -0.04
 -0.02 -0.38 -0.21 -0.39 -0.13 -0.27 -0.20 -0.42 -0.37 -0.20 0.48 0.20 -0.15 0.32 -0.09 0.33 -0.01 -0.23 -0.10 0.45 0.26 0.02 0.37 -0.17 -0.23 0.19 -0.48

Frame 44

 -0.30 0.35 -0.45 0.01 0.21 0.45 0.39 0.22 0.43 -0.00 -0.08 -0.48 0.12 0.36 -0.17 -0.18 -0.44 0.06 0.32 -0.20 0.44 -0.45 -0.19 0.30 0.32 0.50 -0.14
 -0.10 -0.34 0.20 -0.48 -0.48 -0.03 0.19 -0.35 0.09 0.34 0.25 0.36 -0.48 0.26 -0.15 -0.33 -0.42 0.26 0.34 0.42 0.33 -0.12 -0.30 0.03 0.46 0.39 0.21
 -0.43 -0.05 0.22 -0.23 -0.43 0.05 -0.02 0.20 0.30 0.28 -0.18 -0.17 0.35 -0.25 0.18 -0.45 0.06 -0.05 0.05 0.23 -0.43 0.26 -0.45 0.07 0.06 0.15 -0.19

Frame 45

 -0.43 -0.49 -0.24 -0.20 0.28 0.50 0.04 -0.13 0.33 -0.45 -0.31 -0.36 0.41 0.12 0.36 0.37 0.06 -0.50 0.47 0.47 0.28 0.34 -0.16 0.20 -0.04 -0.46 0.09
 -0.26 -0.02 -0.43 0.04 -0.13 -0.42 -0.18 0.25 -0.40 0.31 0.20 -0.45 -0.24 -0.26 -0.32 0.20 0.40 0.38 -0.20 0.21 -0.41 -0.27 0.40 -0.07 0.32 0.43 -0.48
 -0.14 -0.16 0.47 0.39 -0.37 -0.34 0.06 -0.41 -0.02 0.40 -0.08 -0.05 -0.22 0.15 0.05 -0.46 -0.41 -0.18 0.42 0.24 0.15 -0.13 -0.43 0.22 -0.46 -0.25 0.49

Frame 46

 0.18 -0.21 0.25 -0.01 -0.23 -0.47 -0.47 0.49 0.27 -0.47 0.36 0.24 -0.05 -0.19 -0.13 -0.05 0.25 0.19 0.17 0.22 -0.06 0.15 0.07 0.02 -0.45 -0.33 0.35
 0.35 0.28 0.05 0.47 -0.32 0.37 -0.36 -0.18 -0.44 -0.32 0.28 0.14 -0.07 -0.36 0.30 -0.50 -0.17 -0.20 0.20 -0.49 0.34 -0.02 -0.15 0.27 0.15 0.03 -0.03
 0.28 -0.36 -0.39 -0.32 -0.40 0.02 -0.44 0.27 0.41 0.22 -0.18 0.30 0.07 -0.21 0.20 -0.21 -0.50 0.30 -0.21 0.07 -0.02 -0.15 0.39 -0.48 0.02 0.20 0.09

Frame 47

 0.40 0.05 0.14 -0.43 0.19 -0.36 0.01 -0.11 0.47 0.48 -0.18 0.35 -0.32 -0.27 -0.05 0.14 0.31 -0.39 0.34 0.46 0.33 0.12 0.05 -0.34 -0.38 -0.33 0.26
 0.27 -0.25 -0.15 -0.46 -0.19 0.13 -0.39 -0.35 0.41 0.04 0.44 0.12 -0.13 -0.35 0.44 -0.22 0.37 0.02 0.35 0.15 -0.36 -0.08 0.13 -0.24 -0.10 -0.44 0.11
 0.42 -0.22 -0.40 0.05 0.22 -0.46 0.01 0.21 -0.41 0.49 -0.19 -0.26 -0.21 -0.02 -0.02 0.20 0.18 0.33 -0.15 -0.48 -0.07 -0.33 -0.31 -0.38 0.41 0.33 0.16

Frame 48

 -0.43 0.19 0.35 -0.07 0.24 0.19 0.08 0.18 -0.19 -0.50 0.07 -0.09 0.39 0.45 -0.32 -0.09 0.10 -0.37 -0.48 -0.10 -0.19 0.29 0.06 -0.09 0.23 0.28 -0.03
 0.09 0.37 0.27 -0.44 0.47 0.09 0.40 -0.42 0.26 0.29 -0.34 -0.16 0.21 -0.38 -0.08 0.21 -0.15 0.09 -0.13 -0.20 0.10 0.16 0.26 0.38 -0.00 -0.49 -0.27
 0.37 -0.43 -0.10 0.25 -0.23 -0.26 -0.12 -0.26 -0.02 -0.41 0.44 -0.28 -0.43 -0.48 0.14 0.24 -0.23 0.10 -0.14 -0.17 -0.00 -0.38 -0.30 -0.20 0.10 -0.20 0.05

Frame 49

 -0.15 -0.35 0.48 0.29 0.02 0.16 0.46 0.22 0.45 0.25 0.20 -0.48 -0.20 -0.33 -0.26 0.15 -0.49 -0.42 -0.18 0.26 0.13 0.44 -0.09 0.22 0.46 0.31 0.40
 -0.36 0.18 0.39 -0.06 -0.04 0.13 -0.29 0.11 0.25 -0.35 0.22 0.03 -0.26 -0.31 -0.49 0.00 0.37 0.16 0.41 -0.04 -0.22 -0.41 -0.08 0.14 -0.31 -0.24 -0.47
 -0.21 0.20 -0.15 -0.24 0.10 -0.24 -0.04 -0.45 -0.16 0.02 -0.07 0.35 0.11 -0.07 -0.13 -0.38 0.47 -0.08 -0.24 -0.23 -0.30 0.37 0.48 0.48 0.23 0.04 -0.05

Frame 50

 -0.29 0.13 0.18 0.30 -0.02 -0.29 0.26 0.48 0.43 0.48 -0.15 -0.11 0.07 -0.50 -0.05 0.29 0.49 0.18 0.19 -0.06 0.11 0.28 0.48 -0.49 -0.06 -0.38 0.26
 0.20 0.00 0.19 -0.26 -0.23 -0.13 0.05 -0.24 0.10 0.17 0.35 -0.32 -0.40 -0.13 -0.38 0.14 0.06 -0.15 0.22 0.27 -0.23 -0.21 -0.08 -0.41 -0.30 -0.18 0.48
 -0.29 -0.32 -0.30 0.28 0.01 -0.06 -0.50 0.19 -0.37 0.37 0.03 0.07 -0.07 -0.31 0.50 -0.23 -0.03 -0.15 0.02 0.34 -0.14 0.15 -0.37 0.25 0.31 -0.11 -0.25

Frame 51

 -0.04 0.36 0.03 0.01 -0.13 0.24 -0.28 -0.21 -0.12 0.12 0.15 0.14 0.05 0.34 0.16 0.08 0.32 0.43 -0.12 0.12 0.42 -0.43 -0.46 -0.09 -0.47 -0.38 -0.12
 0.27 0.14 0.13 -0.02 -0.46 0.38 0.44 0.14 -0.10 -0.26 -0.36 -0.24 -0.48 -0.31 -0.04 0.15 0.19 0.30 -0.45 -0.09 0.31 -0.30 -0.01 0.06 0.09 0.07 0.45
 -0.29 -0.01 0.04 -0.32 0.18 0.13 -0.14 -0.05 0.02 -0.41 -0.15 -0.49 0.07 0.49 -0.31 -0.28 0.34 0.07 0.25 0.18 -0.05 -0.32 -0.21 -0.27 0.45 -0.44 -0.38

Frame 52

 0.28 0.01 -0.41 -0.01 -0.20 -0.18 0.12 -0.24 -0.09 -0.48 -0.15 -0.07 -0.27 0.03 -0.48 -0.11 -0.37 -0.49 0.02 -0.06 0.36 0.04 0.42 -0.40 0.44 0.12 0.28
 -0.45 -0.46 -0.02 0.19 -0.03 0.16 -0.46 0.26 0.14 -0.45 -0.23 0.17 0.17 0.01 -0.25 0.26 -0.40 -0.44 -0.14 -0.04 -0.16 -0.07 -0.08 -0.29 -0.24 0.06 -0.46
 -0.25 -0.27 -0.18 -0.09 -0.09 0.32 -0.23 0.41 -0.22 0.27 0.20 0.10 -0.48 0.17 -0.25 -0.07 -0.36 -0.05 0.24 -0.49 0.42 -0.46 -0.06 0.41 0.04 0.38 -0.15

Frame 53

 0.13 0.12 -0.46 0.08 0.49 -0.33 0.17 -0.37 -0.28 0.24 0.35 0.06 -0.09 0.31 0.07 -0.45 -0.07 -0.17 0.29 0.05 -0.47 -0.47 -0.21 0.23 -0.33 0.10 -0.03
 0.20 0.14 -0.17 -0.34 0.16 -0.04 -0.13 0.31 0.39 -0.06 0.18 -0.07 0.06 0.07 0.11 0.06 0.26 -0.36 0.06 -0.12 -0.37 -0.38 0.40 0.23 0.13 0.45 -0.29
 -0.15 0.05 0.25 0.39 -0.16 -0.50 0.37 -0.28 0.25 0.11 0.14 0.07 0.46 0.15 0.45 0.31 -0.10 0.12 -0.38 -0.28 0.02 -0.18 -0.22 -0.12 0.06 -0.34 0.13

Frame 54

 -0.10 0.08 -0.23 0.16 0.08 0.05 0.36 0.13 0.07 0.14 0.16 0.40 -0.00 -0.35 0.06 0.30 0.27 0.32 -0.36 -0.18 0.28 0.06 -0.03 -0.30 0.21 0.31 0.29
 0.28 -0.00 0.44 0.41 -0.40 -0.05 -0.20 0.40 0.49 0.18 0.24 -0.11 0.01 0.18 0.41 -0.46 -0.30 -0.40 -0.32 0.12 -0.00 -0.49 -0.38 0.11 -0.17 0.20 -0.20
 0.29 -0.31 -0.42 -0.08 -0.49 -0.34 -0.22 -0.21 0.10 0.38 -0.44 -0.08 0.09 -0.44 0.43 -0.45 -0.07 0.38 0.28 0.39 -0.33 0.03 0.04 -0.01 -0.48 -0.00 -0.34

Frame 55

 0.50 -0.06 -0.42 0.18 0.38 0.18 -0.36 0.04 0.24 0.14 -0.37 -0.15 -0.10 -0.17 -0.28 0.06 -0.48 -0.06 0.03 -0.32 0.08 0.26 0.09 -0.44 0.31 -0.43 0.48
 -0.12 -0.21 -0.08 0.37 -0.14 0.02 0.05 0.10 -0.14 0.14 -0.45 0.40 0.38 -0.05 -0.29 0.26 -0.07 0.38 -0.03 -0.01 -0.10 -0.18 0.50 -0.34 0.04 0.04 0.05
 0.20 -0.46 -0.21 0.25 0.43 -0.43 -0.18 -0.19 -0.22 0.27 -0.34 -0.23 -0.19 0.34 0.31 0.37 -0.13 -0.09 -0.34 -0.05 -0.45 0.43 -0.39 -0.23 0.13 0.34 0.17

Frame 56

 0.29 0.37 -0.30 -0.47 0.46 -0.07 0.47 0.46 -0.21 0.14 -0.33 0.12 0.48 -0.06 0.48 0.33 0.21 -0.09 -0.09 -0.38 -0.16 -0.01 -0.23 0.33 -0.40 0.01 -0.32
 0.05 0.33 -0.25 0.11 -0.37 -0.14 -0.05 0.40 -0.29 -0.06 -0.01 -0.27 -0.08 0.39 0.08 -0.38 0.21 0.29 -0.07 0.07 0.10 0.47 0.22 -0.10 -0.07 0.35 0.17
 -0.29 0.40 0.20 0.05 -0.37 0.38 0.34 -0.04 -0.35 -0.16 0.27 -0.15 0.29 0.08 -0.22 -0.07 0.21 -0.25 0.12 -0.29 -0.46 0.23 -0.07 0.41 -0.01 0.16 0.06

Frame 57

 -0.36 0.47 -0.40 0.02 0.00 -0.19 0.49 -0.41 0.07 0.11 0.44 -0.40 -0.34 0.49 0.16 0.34 0.23 0.15 0.21 -0.29 0.29 0.09 0.19 -0.19 0.15 -0.07 0.09
 -0.29 0.17 0.42 0.33 0.44 0.43 0.24 0.25 0.25 0.23 0.03 0.07 -0.24 0.21 0.03 -0.08 0.17 0.33 -0.25 0.23 -0.41 -0.08 -0.49 -0.21 -0.25 0.38 -0.07
 -0.35 0.16 0.06 -0.02 0.39 -0.07 -0.17 0.33 0.34 0.41 0.25 0.10 -0.37 -0.27 -0.27 0.30 -0.28 0.43 0.15 -0.41 0.26 -0.05 0.15 0.16 -0.31 0.41 0.02

Frame 58

 -0.15 -0.46 -0.04 -0.08 0.34 -0.33 0.16 -0.03 0.46 -0.21 0.41 -0.24 0.16 -0.44 -0.01 -0.07 0.38 0.05 -0.02 -0.32 -0.24 0.08 -0.37 -0.00 -0.12 -0.36 0.19
 -0.50 -0.02 0.27 -0.33 -0.07 -0.06 0.03 0.19 -0.46 -0.41 -0.21 -0.28 -0.09 -0.33 -0.11 -0.44 0.04 -0.10 0.19 -0.39 -0.39 -0.37 -0.06 -0.10 0.31 0.14 0.25
 -0.12 -0.50 0.07 0.46 -0.13 0.37 0.32 0.16 0.34 0.44 -0.24 -0.50 -0.05 -0.38 0.10 -0.40 -0.36 0.32 -0.32 -0.17 0.03 -0.07 0.26 0.30 0.09 -0.43 0.20

Frame 59

 0.02 0.35 0.40 -0.14 0.33 -0.21 -0.15 0.08 0.14 -0.46 0.48 -0.00 0.11 -0.24 -0.03 0.46 -0.09 -0.32 -0.48 0.45 0.20 0.11 0.06 -0.25 -0.33 0.21 0.10
 -0.07 0.35 0.13 -0.07 0.49 0.15 0.14 0.44 -0.35 -0.35 0.16 -0.34 0.14 0.40 0.18 0.03 -0.44 -0.30 -0.37 -0.43 -0.49 0.15 -0.42 0.48 -0.22 0.13 -0.47
 -0.21 -0.48 0.26 -0.26 -0.05 0.14 -0.03 0.17 0.43 0.47 -0.32 0.10 0.44 -0.31 0.11 0.39 0.03 -0.36 0.44 -0.14 0.22 0.26 -0.11 0.35 -0.10 0.17 -0.37

Frame 60

 -0.33 -0.49 0.09 -0.11 -0.23 -0.17 0.33 0.39 -0.08 0.50 -0.11 0.12 -0.18 -0.49 -0.42 -0.38 -0.17 -0.07 0.25 0.49 -0.33 0.02 0.18 -0.31 -0.11 -0.09 0.20
 -0.44 0.27 -0.24 -0.06 -0.33 -0.49 -0.22 0.37 -0.40 -0.20 0.04 -0.14 -0.38 -0.37 0.05 -0.22 -0.30 0.04 -0.31 0.03 -0.01 -0.26 -0.18 0.19 0.32 -0.03 0.48
 0.15 -0.01 0.47 -0.30 -0.10 -0.02 -0.39 -0.38 -0.36 0.14 0.44 0.45 -0.31 -0.02 -0.22 0.05 0.18 0.16 -0.36 -0.09 0.07 0.43 0.27 -0.16 0.01 -0.02 -0.41

Frame 61

 0.49 -0.48 -0.24 -0.03 -0.14 0.36 0.35 0.07 0.32 -0.31 0.41 -0.24 -0.31 0.44 0.22 0.36 -0.27 -0.11 -0.45 -0.47 0.08 0.18 0.24 0.08 -0.02 -0.33 -0.05
 0.47 -0.47 -0.33 0.07 -0.45 -0.33 -0.40 0.08 0.35 -0.10 0.50 -0.42 0.26 0.37 0.36 -0.25 0.17 -0.40 0.40 -0.15 0.48 -0.40 -0.23 0.44 -0.38 -0.02 0.03
 0.02 -0.33 -0.21 0.38 -0.24 0.12 -0.46 0.20 0.46 0.09 0.12 0.02 -0.43 0.21 0.48 -0.45 0.36 0.33 -0.15 0.06 0.28 -0.16 0.05 -0.30 -0.01 -0.07 0.01

Frame 62

 0.16 0.14 -0.40 0.20 -0.25 -0.12 -0.13 0.23 0.35 -0.15 -0.35 0.39 0.01 -0.34 -0.02 0.14 -0.01 0.10 0.33 0.01 0.14 0.12 0.49 0.04 -0.31 0.45 -0.25
 0.21 0.22 -0.42 -0.24 -0.40 -0.30 0.24 -0.19 -0.18 0.39 -0.43 -0.03 -0.36 0.19 0.47 0.40 -0.22 0.34 -0.19 -0.48 -0.10 0.49 0.30 -0.17 -0.29 0.28 -0.48
 -0.45 -0.36 0.09 -0.36 0.39 0.11 -0.29 0.37 0.40 -0.30 -0.49 -0.29 0.08 0.37 0.35 0.11 -0.04 0.44 -0.14 0.15 0.14 0.09 -0.14 0.05 -0.06 -0.17 -0.48

Frame 63

 0.34 0.11 -0.09 -0.04 -0.45 0.36 -0.33 -0.32 -0.03 0.37 -0.24 -0.25 0.39 0.10 0.09 0.21 0.44 -0.17 0.41 0.11 0.29 -0.06 -0.16 -0.00 -0.21 0.50 0.16
 -0.38 -0.35 0.02 -0.27 -0.19 -0.48 -0.40 0.09 -0.03 0.32 -0.00 0.43 -0.42 -0.29 0.23 0.48 0.12 0.15 -0.10 0.36 0.28 0.09 0.17 0.45 0.05 0.00 0.49
 0.42 0.07 0.18 -0.06 0.45 0.06 -0.35 0.09 0.23 -0.38 0.15 0.18 -0.47 -0.10 0.35 -0.10 -0.16 0.11 0.33 -0.42 0.50 -0.36 0.29 0.16 0.07 0.34 0.46

Frame 64

 0.34 -0.27 0.32 -0.20 0.43 0.49 -0.18 0.47 -0.02 0.28 -0.11 0.02 -0.27 0.08 0.26 0.30 0.47 -0.50 0.07 0.36 0.18 -0.16 -0.34 0.31 -0.47 -0.25 -0.31
 0.01 0.02 -0.15 0.23 0.07 -0.20 -0.32 -0.15 -0.07 -0.32 0.42 -0.48 0.20 0.29 0.18 -0.49 -0.43 -0.39 -0.15 0.21 0.35 -0.45 0.09 0.02 0.04 0.01 0.02
 -0.33 0.36 -0.45 -0.10 0.47 0.47 0.39 0.13 0.49 -0.46 0.44 -0.22 0.41 -0.48 0.37 0.21 0.15 0.22 0.49 -0.04 0.27 0.13 0.36 0.50 0.21 -0.31 0.48

Frame 65

 0.41 -0.28 -0.30 0.06 -0.03 -0.12 -0.22 -0.04 0.24 0.15 0.43 -0.21 -0.06 0.15 0.19 -0.37 -0.15 0.27 -0.00 0.15 0.44 -0.33 0.09 -0.29 0.44 0.35 -0.42
 0.06 -0.32 0.41 -0.37 -0.16 0.01 -0.10 0.15 -0.31 0.49 0.31 0.02 0.09 0.23 0.22 -0.38 0.02 0.34 0.07 0.19 -0.04 -0.12 0.35 0.22 -0.04 0.19 0.00
 -0.45 -0.22 -0.10 0.30 0.04 -0.37 -0.18 0.40 0.04 0.08 -0.01 0.15 -0.00 0.00 0.50 -0.13 -0.08 -0.31 -0.09 0.48 0.17 -0.20 -0.06 0.23 -0.19 -0.41 0.02

Frame 66

 -0.13 0.01 0.22 -0.22 -0.02 -0.15 -0.22 -0.46 0.15 -0.01 0.09 -0.29 0.37 0.38 -0.04 0.32 -0.05 -0.43 0.40 -0.06 -0.39 0.10 0.39 0.41 0.21 -0.39 -0.50
 -0.02 -0.43 -0.24 -0.46 0.15 -0.25 -0.19 -0.20 -0.13 -0.25 -0.43 0.50 0.29 0.41 -0.04 0.43 -0.29 0.20 0.04 0.22 0.47 0.11 -0.25 -0.16 -0.03 -0.41 0.30
 -0.32 0.22 -0.42 0.24 0.39 0.30 -0.49 -0.40 -0.14 0.49 0.25 -0.36 0.22 -0.02 0.24 0.31 -0.02 -0.33 -0.05 0.33 0.15 0.38 0.22 0.43 -0.30 -0.23 -0.48

Frame 67

 0.20 -0.13 -0.22 -0.35 -0.31 -0.26 -0.36 -0.30 0.32 0.29 -0.44 -0.12 -0.09 -0.09 0.36 0.15 0.35 0.02 0.50 0.40 -0.37 -0.07 -0.14 0.33 0.03 0.13 0.21
 0.35 -0.04 -0.21 0.44 0.50 -0.38 -0.26 0.31 -0.40 -0.36 0.07 0.13 -0.41 0.04 0.44 0.13 -0.23 0.11 -0.11 -0.31 -0.10 0.31 0.50 0.30 -0.11 -0.17 -0.25
 0.49 -0.13 -0.09 -0.25 -0.09 -0.19 -0.10 -0.09 0.08 -0.29 -0.09 -0.16 -0.16 0.09 0.48 0.07 -0.20 -0.06 0.19 0.33 -0.15 0.12 0.23 -0.34 0.08 -0.49 0.26

Frame 68

 -0.34 0.12 -0.45 -0.08 0.08 -0.20 -0.23 -0.31 -0.02 -0.23 -0.31 0.46 0.16 0.45 -0.40 -0.35 0.38 -0.28 0.13 0.25 -0.33 0.49 0.24 0.16 -0.27 0.46 -0.32
 0.36 -0.39 -0.05 -0.32 0.32 0.45 -0.01 -0.40 -0.37 -0.13 0.37 -0.08 0.35 -0.27 -0.47 0.12 -0.43 -0.26 0.20 0.01 0.39 -0.44 0.43 0.33 -0.25 -0.21 0.50
 -0.04 -0.06 0.26 -0.17 0.42 -0.02 0.48 -0.38 -0.44 -0.40 -0.30 0.39 0.26 0.21 -0.38 0.08 -0.25 -0.34 0.21 0.44 0.41 -0.48 -0.27 -0.02 -0.12 -0.40 -0.48

Frame 69

 0.44 0.45 0.39 -0.32 -0.24 -0.26 0.41 -0.27 0.11 -0.19 0.39 0.01 0.14 0.11 0.13 0.37 0.47 -0.33 -0.19 0.14 -0.12 -0.42 -0.39 -0.15 0.44 -0.03 0.46
 0.03 -0.39 0.14 -0.20 -0.12 0.02 -0.42 0.12 -0.07 0.10 -0.09 -0.44 0.37 -0.16 0.24 -0.47 -0.30 -0.39 -0.19 -0.39 0.02 0.25 -0.29 0.11 0.21 -0.46 0.06
 -0.11 -0.29 -0.20 -0.45 0.49 -0.11 0.26 0.03 0.06 -0.38 -0.09 -0.41 0.30 0.44 0.38 -0.25 0.47 -0.16 0.33 0.21 0.09 -0.41 -0.31 -0.36 0.15 0.05 -0.35

Frame 70

 0.33 -0.13 -0.35 -0.23 -0.07 0.50 -0.02 0.37 0.11 -0.04 0.41 -0.44 -0.32 -0.35 -0.29 0.46 -0.24 0.42 -0.28 -0.07 0.39 -0.09 0.10 0.40 -0.31 -0.27 0.05
 0.08 -0.18 -0.33 0.19 0.15 -0.06 0.33 -0.00 0.15 0.15 0.42 -0.38 -0.48 -0.32 -0.34 -0.33 -0.26 -0.12 -0.29 0.44 0.49 0.24 -0.47 0.01 -0.43 0.10 0.28
 -0.36 -0.28 0.46 0.41 0.41 -0.06 0.03 -0.05 -0.15 0.16 -0.19 0.34 -0.49 0.31 -0.28 -0.08 -0.41 -0.14 0.24 -0.07 -0.06 -0.24 0.18 0.04 -0.45 0.40 0.35

Frame 71

 -0.08 0.39 -0.34 -0.11 0.40 -0.23 0.48 -0.07 -0.43 -0.27 0.46 0.44 -0.39 -0.44 -0.03 -0.20 -0.39 0.39 -0.44 -0.19 -0.04 -0.42 0.21 -0.50 -0.23 0.42 -0.19
 0.40 0.39 -0.10 -0.50 -0.38 0.29 -0.26 0.00 0.01 0.06 -0.23 0.32 -0.09 -0.22 -0.44 -0.37 0.18 -0.49 0.16 0.44 -0.04 0.38 0.17 -0.36 0.47 -0.26 0.12
 0.17 -0.21 -0.37 -0.00 0.20 -0.20 0.04 0.34 -0.49 -0.06 0.31 0.20 -0.07 0.38 -0.27 -0.29 0.34 0.29 0.23 -0.38 -0.10 -0.43 0.00 0.06 -0.36 0.31 0.33

Frame 72

 -0.47 0.12 0.17 -0.01 -0.15 0.13 0.00 0.37 0.48 0.11 0.42 -0.18 0.20 0.12 0.14 0.49 0.45 -0.47 0.43 0.01 -0.46 0.21 -0.04 0.23 -0.46 0.09 0.06
 0.07 0.45 0.37 0.22 -0.34 -0.10 -0.10 0.09 -0.42 -0.28 0.29 -0.46 -0.07 -0.24 -0.34 -0.07 -0.19 -0.27 -0.25 0.36 -0.42 0.19 0.19 -0.50 0.26 0.21 0.29
 -0.42 -0.40 0.08 0.08 -0.11 0.17 0.04 0.28 0.34 -0.07 0.48 0.33 -0.33 0.05 -0.12 0.11 0.46 0.29 -0.05 0.45 -0.08 -0.49 -0.11 0.35 -0.24 0.34 0.50

Frame 73

 -0.08 -0.40 -0.14 0.29 -0.48 0.46 -0.02 -0.32 -0.29 0.12 0.13 0.03 0.33 -0.21 -0.32 0.24 -0.26 -0.28 -0.40 -0.03 -0.15 -0.45 0.36 0.35 0.28 -0.01 -0.11
 0.25 -0.28 0.03 -0.28 0.33 0.19 -0.47 0.17 -0.39 -0.17 -0.29 -0.40 0.27 -0.14 0.31 -0.00 -0.41 0.25 0.24 0.17 -0.39 -0.24 -0.13 -0.09 -0.43 -0.27 0.39
 0.37 -0.36 -0.06 -0.16 0.11 -0.42 -0.19 0.00 -0.07 -0.42 -0.39 0.46 -0.37 0.42 0.28 -0.16 0.01 0.43 0.23 0.31 0.44 0.46 0.42 0.42 -0.11 -0.36 0.27

Frame 74

 0.40 0.33 -0.08 0.08 0.08 -0.23 0.45 0.20 -0.30 -0.09 -0.01 -0.06 0.22 0.23 0.20 -0.06 -0.10 -0.46 0.21 -0.25 0.11 0.27 0.04 -0.19 0.46 0.02 -0.28
 0.10 0.48 -0.19 0.04 -0.12 -0.02 -0.41 -0.13 0.20 0.11 -0.33 -0.45 -0.41 0.05 -0.29 0.30 0.26 0.12 -0.16 0.17 0.15 0.28 -0.42 -0.38 -0.38 -0.49 -0.06
 -0.34 -0.37 0.14 0.10 0.26 -0.39 0.04 -0.32 0.06 -0.40 0.03 0.12 0.10 0.26 0.39 -0.41 -0.28 -0.25 -0.30 -0.49 0.47 0.36 -0.48 0.22 0.28 -0.19 -0.19

Frame 75

 0.41 0.50 -0.27 0.17 -0.37 -0.30 0.35 -0.22 -0.02 0.30 -0.45 0.13 -0.42 0.35 -0.16 0.10 -0.12 0.24 -0.31 -0.17 0.22 0.08 -0.14 0.36 0.50 0.31 -0.02
 0.26 -0.37 -0.42 -0.27 0.15 0.26 0.17 -0.47 -0.17 -0.45 0.40 0.34 -0.39 -0.24 -0.08 -0.08 0.38 -0.43 -0.40 -0.19 0.35 -0.32 -0.22 0.23 -0.39 -0.28 -0.25
 0.06 -0.45 0.45 0.47 0.23 0.12 0.31 -0.37 -0.29 -0.27 0.10 0.14 0.38 -0.49 0.03 -0.48 -0.30 -0.39 0.00 0.32 -0.34 0.15 -0.05 0.37 -0.41 0.35 -0.12

Frame 76

 0.26 0.33 -0.25 -0.43 0.29 -0.47 0.10 0.29 0.46 -0.45 -0.09 -0.39 -0.25 -0.19 0.40 0.42 0.13 -0.13 -0.05 0.24 0.25 -0.35 -0.47 -0.49 -0.36 -0.29 0.40
 -0.38 0.45 0.28 0.42 0.21 0.33 0.42 -0.01 0.30 0.45 0.48 -0.32 0.24 -0.01 0.15 0.37 -0.24 0.44 0.08 0.21 0.38 -0.26 -0.37 0.47 -0.36 0.49 -0.39
 -0.39 -0.27 -0.28 -0.36 -0.13 -0.25 -0.02 -0.19 -0.08 -0.48 0.28 0.17 0.24 -0.29 0.26 -0.23 0.32 -0.32 -0.38 -0.44 -0.45 -0.21 0.49 -0.19 -0.20 0.45 -0.01

Frame 77

 -0.24 0.17 -0.22 0.37 0.33 -0.42 0.43 -0.13 0.22 -0.25 -0.33 -0.27 -0.15 -0.20 -0.43 -0.14 0.32 0.07 -0.25 0.42 -0.10 0.11 0.28 -0.06 0.48 0.33 -0.05
 0.21 0.05 -0.49 -0.31 0.10 -0.42 0.41 -0.42 0.05 -0.38 0.19 -0.12 0.40 -0.39 0.26 -0.05 0.33 -0.44 -0.01 0.49 -0.03 -0.14 0.05 -0.31 -0.28 -0.25 -0.43
 -0.41 0.20 0.31 -0.18 0.43 -0.24 0.10 0.24 -0.14 -0.27 -0.06 0.41 0.38 -0.35 -0.01 0.32 0.39 -0.47 -0.49 0.33 -0.37 -0.19 -0.17 0.34 -0.22 -0.17 -0.03

Frame 78

 0.16 0.34 -0.20 0.15 -0.34 0.38 -0.22 0.24 0.21 0.27 0.46 -0.40 0.36 0.45 -0.04 -0.27 -0.45 0.38 0.19 0.04 0.25 -0.05 0.35 0.21 -0.03 -0.31 -0.33
 0.15 0.18 0.07 0.25 -0.41 -0.49 0.42 0.11 0.17 0.48 0.03 0.45 0.13 -0.26 -0.28 -0.36 0.50 0.25 -0.16 0.26 -0.13 0.29 0.19 -0.14 0.30 0.05 0.26
 -0.09 0.13 0.46 0.25 0.02 -0.44 0.11 0.29 -0.11 -0.22 0.34 -0.45 0.10 -0.27 0.34 0.04 0.38 -0.13 0.09 0.36 -0.14 0.35 -0.40 0.39 0.34 0.08 0.28

Frame 79

 -0.12 0.19 0.47 0.33 0.01 -0.31 0.14 -0.14 -0.10 0.23 0.45 0.32 0.33 0.45 0.38 0.30 0.42 0.20 0.05 0.04 0.20 0.02 0.10 0.35 0.12 -0.49 -0.31
 0.35 -0.32 -0.01 -0.30 -0.08 -0.50 0.46 0.05 0.07 -0.06 -0.32 0.29 0.44 0.23 -0.03 -0.33 0.02 -0.25 0.43 0.36 -0.11 0.13 0.00 -0.01 -0.09 0.25 -0.20
 0.24 -0.12 -0.12 -0.23 -0.22 0.33 0.26 0.46 0.31 -0.11 0.28 0.05 -0.09 -0.17 0.34 -0.28 -0.42 -0.17 -0.49 -0.28 -0.50 0.29 -0.49 0.47 0.10 -0.43 0.09

Frame 80

 0.50 0.30 0.45 -0.49 0.49 0.45 -0.10 -0.11 0.17 0.15 -0.43 -0.02 -0.42 0.35 -0.13 0.37 0.38 0.12 0.32 0.45 0.03 0.37 -0.35 -0.05 0.44 0.32 -0.10
 -0.26 -0.10 0.30 -0.32 -0.14 -0.24 0.02 0.22 -0.44 -0.04 -0.22 0.35 0.47 0.32 0.04 0.40 -0.10 -0.09 -0.41 -0.33 0.34 0.44 0.22 -0.38 0.26 0.16 0.42
 0.37 -0.33 -0.21 0.44 -0.48 0.39 0.36 -0.29 -0.45 -0.42 -0.17 -0.28 -0.34 0.35 0.22 0.19 -0.12 0.32 0.48 -0.41 -0.24 0.12 0.22 0.23 0.20 0.38 0.27

Frame 81

 -0.19 -0.11 -0.42 -0.37 -0.30 0.15 -0.17 -0.05 0.37 -0.04 0.09 0.22 -0.38 0.01 -0.31 -0.49 -0.32 0.20 -0.27 0.41 -0.29 0.22 -0.36 -0.46 -0.28 -0.38 -0.14
 0.26 0.22 -0.26 -0.24 -0.33 0.16 -0.20 0.29 -0.21 0.04 0.23 -0.24 -0.15 0.06 0.29 -0.27 0.28 0.33 0.26 0.11 0.20 -0.30 -0.47 -0.47 0.44 0.10 -0.47
 0.43 0.35 0.34 0.06 0.09 0.47 0.42 -0.22 -0.42 -0.46 0.38 0.42 0.06 0.36 0.33 0.10 0.09 0.02 -0.41 -0.15 -0.49 0.03 -0.47 0.13 -0.11 -0.36 0.43

Frame 82

 0.46 -0.10 0.09 0.00 0.16 -0.02 -0.47 0.02 -0.41 -0.38 -0.28 0.25 0.49 0.10 0.28 0.10 0.44 0.36 0.34 -0.01 0.15 -0.44 0.17 -0.09 -0.46 -0.08 0.04
 0.07 0.38 -0.02 0.16 -0.32 0.35 0.09 -0.01 0.00 0.17 0.07 0.27 -0.40 -0.06 0.04 -0.25 -0.38 -0.33 -0.18 -0.26 0.10 -0.16 0.42 -0.22 -0.35 0.29 0.30
 0.35 -0.06 0.32 0.37 0.43 -0.31 -0.02 0.39 -0.03 0.26 -0.36 0.35 0.38 0.27 0.40 0.36 -0.08 -0.07 -0.15 0.49 -0.26 -0.01 -0.45 -0.03 -0.11 -0.15 -0.26

Frame 83

 0.40 0.31 0.03 0.10 0.11 -0.36 -0.34 -0.18 -0.30 -0.47 0.24 0.34 -0.39 -0.14 0.43 -0.02 0.08 -0.43 0.25 -0.32 -0.18 -0.12 -0.33 -0.09 -0.16 0.48 -0.10
 -0.37 0.40 -0.11 0.13 0.47 0.40 -0.22 -0.34 -0.42 0.49 -0.41 -0.36 0.46 0.09 -0.05 -0.34 0.32 -0.13 0.44 -0.27 0.08 -0.16 -0.15 -0.24 0.19 -0.33 0.22
 0.36 0.21 0.10 -0.49 -0.10 -0.09 0.43 -0.04 -0.18 -0.03 -0.28 -0.23 -0.33 0.38 0.20 0.25 0.36 0.35 -0.39 -0.09 0.43 -0.24 0.08 -0.11 -0.22 0.28 0.30

Frame 84

 -0.27 -0.10 -0.38 -0.19 -0.20 -0.23 -0.41 0.05 -0.47 -0.01 0.04 0.44 0.06 0.25 0.24 0.50 -0.39 0.28 0.16 0.01 -0.00 -0.46 -0.25 0.22 -0.37 0.48 0.45
 -0.47 0.15 -0.48 0.49 0.29 0.35 -0.48 -0.20 -0.17 -0.48 -0.27 0.45 -0.32 -0.00 0.31 0.43 0.15 0.08 0.27 0.16 0.22 0.21 0.33 0.38 0.01 0.20 0.33
 0.44 -0.13 0.40 0.02 0.18 0.13 -0.37 0.23 0.12 0.12 0.24 0.15 -0.49 -0.15 -0.02 0.48 -0.08 0.05 0.16 -0.23 0.30 -0.17 -0.20 0.17 0.01 0.23 0.14

Frame 85

 0.15 0.33 -0.02 0.22 -0.20 -0.00 -0.18 0.16 0.01 -0.38 -0.39 0.25 0.30 0.04 0.50 -0.05 0.21 0.16 0.39 -0.01 0.38 -0.35 -0.07 0.21 -0.07 -0.01 -0.48
 -0.45 0.48 0.35 0.38 -0.14 0.01 -0.14 -0.29 -0.23 -0.03 0.08 -0.33 -0.19 0.37 0.43 -0.23 0.26 -0.10 0.14 0.05 0.42 -0.38 0.50 0.16 -0.04 -0.35 -0.47
 0.29 0.12 0.13 -0.46 0.41 -0.19 0.04 0.36 -0.04 -0.34 0.02 0.08 -0.05 -0.36 0.06 -0.34 0.04 -0.48 0.49 -0.36 -0.37 -0.43 0.43 0.16 -0.33 0.45 -0.11

Frame 86

 0.12 0.01 -0.34 0.14 0.11 0.47 -0.41 0.40 0.44 -0.19 0.11 -0.02 0.42 0.03 0.22 0.40 0.02 -0.02 -0.44 0.16 -0.19 -0.14 0.29 -0.31 0.03 -0.06 0.23
 -0.09 0.43 -0.36 -0.23 -0.43 0.25 0.45 0.02 -0.02 0.35 0.46 0.25 0.14 0.09 -0.21 -0.05 -0.09 -0.43 0.15 -0.15 0.41 -0.27 0.27 -0.16 -0.37 -0.35 -0.02
 0.40 0.04 0.46 -0.16 0.41 0.41 -0.27 -0.41 0.28 -0.38 0.01 0.24 -0.30 0.36 0.03 0.22 0.26 0.43 0.09 0.37 -0.22 -0.39 -0.46 -0.02 0.39 0.12 -0.28

Frame 87

 -0.43 -0.29 -0.37 0.31 -0.03 0.25 0.11 0.13 -0.34 -0.40 -0.35 0.37 -0.17 -0.43 0.11 0.20 -0.10 -0.09 0.23 -0.20 0.49 -0.25 0.39 -0.17 0.06 0.28 -0.17
 -0.02 -0.49 -0.17 0.07 0.48 0.10 0.15 -0.24 0.31 0.40 0.31 0.13 0.36 -0.43 0.01 0.21 -0.06 -0.48 -0.31 -0.14 0.14 -0.30 -0.36 0.13 -0.17 -0.21 -0.35
 0.46 -0.25 0.07 -0.33 0.29 0.12 -0.24 -0.01 -0.11 -0.35 0.41 -0.26 0.13 -0.40 -0.39 0.05 0.11 -0.34 -0.10 -0.47 -0.05 0.43 -0.48 0.09 0.48 -0.06 -0.02

Frame 88

 -0.16 0.31 -0.14 0.02 0.09 0.16 0.38 -0.23 -0.30 -0.40 0.21 -0.33 -0.18 0.23 -0.38 0.15 0.01 0.11 0.30 -0.27 -0.40 -0.02 -0.14 0.43 0.20 -0.23 0.04
 0.03 -0.33 0.46 -0.09 0.03 0.12 -0.12 -0.44 0.24 0.20 0.16 0.40 0.04 0.22 -0.10 -0.38 -0.09 0.02 0.48 0.34 -0.41 0.33 0.05 0.39 0.02 0.05 -0.14
 0.42 0.09 0.01 -0.16 -0.06 0.03 0.29 -0.12 -0.12 -0.18 0.02 0.16 -0.20 -0.37 0.34 0.42 0.47 0.12 0.31 -0.20 -0.25 0.37 -0.09 0.46 0.41 0.19 -0.19

Frame 89

 -0.45 0.10 0.05 0.03 -0.35 0.04 -0.33 -0.47 0.44 -0.44 -0.50 -0.36 0.41 0.12 0.18 0.25 0.06 0.10 -0.05 -0.24 0.29 0.21 0.24 0.36 0.07 0.23 -0.43
 0.00 -0.07 -0.49 0.35 0.08 -0.07 0.19 0.26 -0.16 0.37 -0.27 0.24 0.41 -0.08 0.29 -0.38 0.44 -0.44 -0.15 -0.20 0.49 0.11 0.21 0.32 0.47 0.32 -0.36
 0.33 0.23 0.47 0.31 0.10 0.07 -0.14 -0.42 -0.01 0.18 -0.20 0.32 0.39 0.31 -0.23 -0.39 -0.33 0.13 -0.26 -0.49 -0.07 0.03 0.36 0.47 0.21 -0.49 0.30

Frame 90

 -0.05 0.42 -0.44 -0.49 -0.28 0.08 -0.30 -0.18 0.06 0.37 -0.41 0.28 -0.49 0.24 0.11 0.06 -0.21 -0.21 -0.15 0.15 0.05 -0.37 -0.24 -0.31 -0.10 0.27 -0.18
 -0.11 0.21 0.49 -0.08 -0.45 -0.01 -0.11 0.34 0.43 -0.44 0.23 0.06 -0.08 -0.43 0.33 -0.08 -0.00 0.20 0.24 0.36 -0.22 -0.02 -0.20 0.43 0.30 0.27 0.13
 -0.41 0.21 0.28 0.23 0.28 0.45 -0.35 -0.08 -0.29 -0.41 -0.48 -0.19 -0.18 0.18 -0.40 0.10 0.38 -0.29 -0.31 -0.40 0.28 -0.08 0.09 0.34 0.08 -0.15 0.50

Frame 91

 -0.24 0.07 0.07 0.01 -0.46 -0.44 0.47 -0.20 0.36 -0.31 -0.45 0.35 0.01 0.00 -0.09 -0.26 0.10 -0.27 0.04 -0.37 0.35 -0.03 0.03 0.30 -0.09 -0.43 0.23
 0.03 -0.22 -0.33 -0.08 -0.10 -0.11 -0.39 0.40 0.38 -0.36 0.38 -0.40 0.14 0.28 -0.14 0.14 -0.37 0.19 -0.14 -0.08 -0.08 -0.31 0.32 -0.40 -0.48 -0.17 -0.48
 -0.08 -0.27 -0.06 0.43 -0.07 0.10 -0.36 -0.07 -0.18 -0.33 0.10 0.41 0.40 0.33 -0.09 0.25 0.49 -0.07 0.43 0.48 0.50 0.26 0.26 -0.22 -0.23 -0.15 0.48

Frame 92

 -0.41 0.08 -0.17 -0.15 0.04 -0.13 0.14 0.40 0.03 0.29 -0.47 -0.15 0.21 -0.33 0.08 0.15 0.40 -0.31 0.19 0.30 0.20 0.02 0.04 0.33 -0.20 0.28 0.06
 0.17 -0.21 0.41 -0.50 -0.13 0.32 -0.39 -0.38 -0.26 0.08 0.48 0.24 -0.50 0.40 0.20 -0.09 -0.25 0.20 0.33 -0.00 -0.15 0.39 -0.32 -0.46 0.20 -0.27 -0.47
 -0.14 0.23 0.29 -0.30 -0.32 0.45 -0.33 0.00 0.43 0.43 0.19 -0.45 0.40 -0.07 -0.14 -0.26 0.10 0.15 0.49 -0.32 -0.32 0.14 -0.41 -0.02 -0.22 -0.04 0.31

Frame 93

 -0.29 -0.19 0.34 -0.31 0.31 0.07 0.24 0.04 0.20 0.26 -0.42 0.27 -0.14 -0.30 -0.26 -0.08 0.24 -0.09 0.16 0.26 0.21 0.43 -0.32 0.27 -0.37 -0.31 0.21
 0.15 -0.39 -0.03 0.47 0.14 -0.06 -0.06 0.01 -0.10 0.15 -0.14 -0.19 0.21 0.04 -0.09 -0.07 -0.32 -0.42 0.46 -0.40 -0.28 -0.20 0.18 0.11 0.34 -0.43 -0.06
 0.40 -0.26 0.04 0.44 -0.45 -0.45 0.20 -0.18 -0.25 0.39 -0.28 -0.35 0.06 0.28 0.50 0.20 0.24 0.11 0.36 -0.12 -0.10 -0.35 0.32 0.02 -0.24 0.10 -0.13

Frame 94

 -0.10 0.34 -0.01 0.49 0.38 0.42 -0.36 0.45 -0.23 0.40 0.39 0.20 -0.25 0.49 0.22 0.32 -0.24 -0.30 0.26 -0.06 -0.01 -0.06 -0.13 0.23 0.49 0.34 -0.10
 0.50 -0.42 -0.01 0.36 -0.05 0.02 -0.35 0.25 -0.14 -0.15 -0.47 -0.29 0.04 -0.35 -0.31 -0.16 -0.44 0.50 0.31 0.38 -0.20 -0.08 -0.07 0.41 0.21 -0.33 0.20
 -0.15 0.33 0.45 -0.28 -0.21 -0.39 -0.25 0.41 -0.42 -0.13 0.08 0.45 0.07 0.08 -0.20 0.03 0.20 0.06 0.39 0.01 -0.09 -0.14 -0.47 -0.20 0.41 0.42 -0.17

Frame 95

 -0.39 -0.34 -0.07 0.48 -0.32 0.05 -0.25 -0.36 -0.15 -0.24 0.18 -0.20 0.14 -0.33 0.34 -0.14 0.09 -0.06 0.27 0.35 -0.48 -0.25 0.49 -0.39 0.29 0.08 0.49
 -0.47 0.34 0.14 -0.10 -0.16 -0.21 -0.35 0.06 0.03 0.37 0.21 -0.46 -0.13 0.50 0.32 -0.23 0.37 -0.08 0.07 0.41 0.09 0.48 0.33 0.38 -0.23 -0.26 0.03
 -0.31 0.46 -0.42 -0.23 0.21 -0.19 -0.39 0.17 -0.35 0.08 -0.44 -0.17 0.27 0.42 0.48 0.20 -0.27 0.09 -0.32 -0.31 -0.17 -0.44 -0.29 0.30 -0.32 0.15 0.07

Frame 96

 0.18 0.03 -0.20 -0.00 -0.14 -0.50 -0.40 0.45 -0.10 -0.11 -0.28 0.39 -0.11 0.23 -0.04 -0.10 -0.36 0.15 0.17 -0.24 0.14 -0.09 -0.44 0.26 -0.39 0.42 -0.35
 0.40 0.07 -0.26 0.22 -0.31 -0.24 0.22 0.30 0.41 0.40 -0.07 -0.34 -0.42 0.30 0.33 0.09 -0.32 -0.43 0.18 0.05 0.46 -0.00 -0.39 -0.02 0.35 0.27 0.42
 -0.41 0.24 0.26 -0.32 -0.05 -0.11 0.01 0.46 -0.36 0.44 0.21 -0.18 -0.27 0.10 0.25 0.17 0.13 -0.41 -0.40 -0.49 0.26 0.08 -0.02 0.26 0.33 0.40 -0.28

Frame 97

 0.28 0.04 -0.15 -0.21 -0.49 -0.03 -0.24 0.08 -0.24 -0.17 -0.48 0.35 -0.01 0.22 0.33 0.23 -0.11 0.36 0.41 -0.45 -0.46 -0.34 -0.41 0.30 -0.02 0.24 -0.05
 0.07 0.01 0.02 -0.13 -0.09 -0.31 0.04 0.49 0.21 0.15 -0.23 0.26 0.12 -0.34 -0.23 0.21 0.17 -0.12 -0.13 0.38 -0.15 -0.27 0.14 0.20 -0.26 -0.46 -0.44
 0.35 0.29 -0.32 -0.23 -0.41 0.37 -0.47 0.43 0.10 -0.47 0.12 -0.01 -0.40 -0.09 -0.05 -0.43 0.19 -0.05 -0.10 0.45 0.09 -0.13 -0.49 0.01 -0.45 -0.07 0.01

Frame 98

 0.43 -0.37 -0.48 0.42 -0.42 -0.12 -0.17 0.39 0.15 -0.10 -0.48 -0.21 0.41 -0.13 0.14 0.48 0.45 -0.47 0.09 -0.43 -0.44 0.35 -0.36 -0.50 -0.18 0.10 0.20
 0.47 -0.34 0.14 -0.20 -0.45 -0.35 0.05 0.23 0.49 -0.16 -0.01 0.01 -0.38 0.50 -0.50 -0.21 0.01 -0.17 -0.34 -0.15 -0.26 0.07 0.00 0.03 -0.39 -0.05 -0.10
 -0.19 0.44 -0.25 0.34 -0.00 0.25 -0.36 0.46 -0.02 0.22 0.03 0.13 -0.40 0.10 -0.26 0.34 0.35 -0.42 -0.40 0.08 0.41 -0.04 0.25 -0.17 -0.32 -0.20 0.19

Frame 99

 0.33 0.04 -0.46 0.43 -0.40 -0.25 -0.40 0.07 -0.10 0.02 -0.48 0.14 -0.42 0.37 -0.29 0.24 -0.18 0.40 0.39 0.03 0.01 0.48 -0.05 0.11 0.06 0.35 -0.30
 0.29 0.07 -0.22 0.36 -0.13 0.21 -0.20 0.14 0.37 -0.45 0.34 0.42 0.24 -0.23 -0.06 0.01 -0.07 0.23 -0.11 -0.16 0.29 0.29 -0.41 -0.13 -0.26 0.19 0.16
 0.13 0.03 -0.46 -0.49 -0.24 -0.21 0.14 0.36 -0.02 -0.48 -0.10 -0.30 0.47 -0.32 -0.18 -0.42 -0.30 0.11 0.15 0.44 -0.28 -0.44 -0.48 -0.36 -0.19 -0.18 -0.31

Frame 100

 0.02 -0.30 0.18 0.24 -0.24 -0.23 0.08 0.06 -0.29 0.07 0.15 -0.05 0.07 -0.24 0.27 0.46 0.14 0.30 0.24 0.42 0.35 -0.31 0.26 0.08 0.03 -0.10 0.36
 -0.26 -0.22 -0.37 -0.38 0.42 0.00 -0.03 -0.29 0.31 -0.10 0.47 0.21 -0.42 0.08 0.34 -0.20 -0.22 0.13 -0.48 0.49 0.04 0.42 -0.38 -0.34 -0.07 0.06 -0.39
 0.37 -0.09 -0.48 0.29 -0.20 0.28 -0.17 -0.39 -0.14 0.24 0.23 0.24 0.38 -0.30 0.05 -0.10 -0.32 0.43 0.40 0.23 -0.03 0.40 -0.22 0.30 0.48 -0.19 0.30

Frame 101

 0.38 -0.27 -0.14 0.11 0.47 -0.49 0.13 -0.43 -0.33 -0.02 -0.10 -0.21 -0.06 -0.12 0.46 0.45 -0.07 -0.04 0.04 -0.45 -0.37 -0.01 -0.48 -0.28 0.35 0.07 0.29
 0.45 0.30 0.25 -0.34 -0.13 -0.12 -0.41 -0.10 -0.39 -0.33 0.12 -0.10 -0.44 -0.18 0.16 0.21 0.33 0.18 0.31 0.33 0.14 0.46 -0.31 0.45 -0.39 -0.19 -0.12
 0.24 -0.15 0.44 0.15 0.41 -0.35 -0.29 -0.44 0.23 -0.30 0.40 0.36 0.03 0.49 -0.28 0.01 0.29 -0.05 -0.19 -0.02 -0.05 -0.38 -0.20 0.17 -0.38 0.42 -0.30

Frame 102

 -0.45 0.07 0.46 -0.20 -0.25 0.18 -0.45 -0.27 0.01 -0.50 0.31 -0.33 -0.04 0.49 -0.32 0.44 0.16 -0.32 0.44 0.26 -0.28 0.38 -0.48 -0.31 0.24 0.22 -0.34
 -0.26 -0.39 -0.02 0.23 -0.41 -0.07 0.18 -0.46 -0.33 -0.27 0.26 0.26 -0.41 0.25 0.34 0.47 -0.18 0.26 -0.36 0.17 -0.03 -0.40 0.03 0.11 -0.18 0.30 0.23
 -0.31 0.32 -0.05 -0.07 -0.37 0.49 -0.09 -0.04 0.45 -0.42 -0.30 -0.34 -0.46 -0.02 0.36 -0.45 0.32 0.45 -0.40 0.03 0.23 0.42 -0.26 0.43 -0.23 0.08 -0.46

Frame 103

 -0.41 0.04 -0.04 0.42 -0.16 -0.49 -0.08 -0.47 0.46 -0.28 -0.16 0.37 0.50 0.34 0.04 0.50 0.24 -0.24 0.16 -0.05 -0.33 -0.06 -0.43 0.42 -0.30 -0.49 0.21
 -0.43 -0.24 0.34 -0.46 -0.46 -0.17 0.45 -0.18 0.27 -0.24 0.03 0.45 0.25 0.01 0.48 0.49 -0.08 -0.00 0.33 0.22 0.09 -0.21 -0.40 0.25 0.02 0.32 -0.27
 -0.23 -0.48 0.14 0.00 0.41 0.20 0.17 0.13 0.02 -0.22 0.23 0.46 0.29 0.33 -0.38 0.46 -0.09 0.08 -0.49 0.41 -0.01 -0.19 -0.29 -0.47 0.24 0.46 -0.25

Frame 104

 -0.26 -0.43 -0.48 -0.30 0.36 -0.43 -0.13 0.41 0.30 0.19 0.04 0.34 0.12 -0.22 -0.01 0.11 -0.40 -0.14 -0.06 0.42 -0.35 0.44 0.10 -0.18 -0.01 0.28 -0.29
 -0.43 -0.29 0.42 -0.26 -0.37 -0.45 0.24 0.10 0.44 -0.48 -0.04 -0.04 -0.01 0.12 -0.18 -0.25 -0.41 0.05 0.14 -0.30 0.16 -0.11 0.34 -0.25 -0.18 0.42 0.42
 -0.17 0.33 0.24 0.32 0.16 -0.41 -0.31 -0.31 0.44 0.24 0.35 0.45 0.18 -0.31 0.18 -0.17 -0.05 -0.35 -0.33 -0.40 -0.31 -0.25 -0.03 0.26 0.23 0.38 -0.07

Frame 105

 0.46 -0.19 -0.15 0.39 0.15 0.33 -0.45 0.31 0.30 0.21 -0.31 0.10 0.11 0.37 -0.17 -0.37 -0.37 0.50 0.47 -0.06 -0.10 0.31 -0.38 -0.22 -0.14 -0.29 -0.45
 0.00 0.49 0.42 -0.15 -0.33 -0.23 -0.24 -0.21 -0.29 0.37 -0.11 0.28 -0.49 0.01 -0.32 0.29 -0.08 0.33 -0.30 -0.04 -0.30 0.38 -0.34 -0.11 -0.00 0.17 0.12
 -0.02 0.41 -0.05 -0.19 -0.29 0.31 0.39 -0.32 0.34 0.32 0.17 0.45 -0.10 -0.07 0.09 -0.39 -0.19 0.43 -0.21 0.43 -0.39 -0.10 0.18 0.12 -0.28 -0.45 0.50

Frame 106

 -0.05 0.15 0.10 -0.41 0.35 0.28 -0.24 -0.28 0.35 0.02 -0.28 0.18 0.46 -0.08 0.01 0.07 -0.13 -0.07 -0.03 0.19 0.14 -0.29 0.15 -0.08 0.31 0.29 0.22
 0.19 0.42 0.01 -0.47 0.05 -0.23 0.40 0.29 -0.30 -0.38 -0.02 -0.10 -0.30 -0.35 0.36 -0.24 -0.23 -0.39 0.16 0.42 0.22 0.40 -0.37 -0.34 0.33 0.40 -0.35
 0.50 0.28 -0.30 0.26 -0.22 -0.41 0.02 -0.44 -0.42 -0.24 -0.45 -0.44 -0.48 0.06 -0.01 0.28 -0.24 -0.06 -0.48 0.00 0.37 0.35 0.13 -0.39 -0.43 0.07 0.27

Frame 107

 0.20 0.34 -0.50 0.02 0.10 0.16 0.01 0.06 -0.37 -0.40 0.12 0.18 0.00 -0.01 0.35 0.32 -0.26 0.22 -0.31 -0.16 0.42 -0.03 0.38 -0.03 0.43 -0.38 0.25
 -0.20 0.23 0.48 -0.18 -0.31 0.21 0.14 0.15 0.11 0.02 0.18 0.44 0.39 0.34 0.11 0.45 -0.24 -0.26 -0.39 -0.47 0.31 0.23 0.32 0.03 0.39 0.20 0.30
 -0.01 0.27 0.22 -0.21 0.41 -0.32 -0.36 -0.47 -0.28 0.14 0.00 0.49 -0.19 -0.24 -0.06 0.46 -0.06 0.10 -0.35 -0.05 0.35 -0.50 0.23 -0.20 -0.09 -0.37 0.35

Frame 108

 0.28 -0.23 0.06 -0.46 0.18 -0.15 0.44 0.09 -0.47 0.25 0.21 0.49 -0.05 0.01 -0.26 -0.12 -0.32 -0.09 -0.17 0.12 -0.50 -0.35 0.09 0.42 -0.24 -0.44 -0.21
 -0.14 0.32 0.11 -0.16 -0.43 0.08 0.31 -0.24 0.09 -0.21 0.49 0.02 -0.05 0.24 0.42 -0.40 0.19 0.19 -0.30 -0.07 0.16 -0.08 -0.45 0.23 0.35 -0.07 0.17
 -0.27 -0.09 0.03 -0.01 -0.40 0.35 0.36 -0.06 -0.01 -0.36 -0.37 -0.16 0.06 -0.44 0.33 -0.33 -0.36 0.07 0.25 -0.12 0.45 -0.29 0.41 0.17 0.32 -0.46 0.33

Frame 109

 -0.09 -0.32 0.28 0.27 0.47 0.29 0.45 -0.02 -0.34 -0.26 0.26 0.12 0.48 0.04 0.41 -0.24 0.28 -0.46 -0.42 0.34 -0.23 0.27 -0.46 0.36 0.32 0.16 -0.14
 0.30 -0.47 -0.02 0.48 -0.49 0.17 -0.41 -0.49 0.24 0.16 0.37 -0.18 0.44 -0.26 -0.50 -0.31 0.13 -0.01 -0.46 -0.29 -0.13 0.23 0.04 -0.13 0.04 -0.27 -0.27
 0.37 0.01 -0.41 -0.43 0.03 0.37 0.11 -0.38 0.20 -0.46 -0.34 0.19 0.37 0.42 0.08 -0.26 -0.19 -0.35 0.44 -0.14 -0.29 -0.50 -0.03 -0.50 0.32 0.16 0.13

Frame 110

 0.35 0.11 0.22 -0.15 0.18 -0.28 -0.49 0.14 -0.33 0.35 0.43 0.30 -0.26 -0.32 0.23 -0.14 0.23 0.47 0.15 -0.46 0.16 0.09 0.33 -0.01 0.41 -0.45 -0.18
 0.11 -0.27 -0.50 0.17 -0.41 0.27 -0.11 -0.41 -0.32 0.39 -0.01 -0.25 0.39 -0.26 0.38 0.34 0.29 -0.10 0.25 -0.02 0.27 -0.40 0.03 0.48 -0.21 0.10 0.08
 0.26 0.00 0.21 0.25 0.24 -0.18 0.28 -0.35 -0.49 -0.41 0.07 0.34 -0.30 0.06 0.08 -0.04 0.28 0.32 -0.26 -0.35 0.23 -0.48 0.49 -0.10 0.06 -0.44 0.00

Frame 111

 0.22 0.23 0.32 0.27 0.33 0.15 0.25 0.17 0.11 0.31 -0.34 -0.14 0.00 0.07 0.20 0.04 -0.33 0.45 -0.15 0.03 0.43 0.19 0.50 -0.42 0.14 0.27 -0.40
 -0.07 -0.23 0.45 0.42 -0.11 0.03 -0.28 -0.10 0.28 -0.16 0.43 -0.46 -0.31 -0.38 -0.06 0.38 0.25 0.44 0.31 -0.45 0.06 -0.09 0.28 0.16 0.08 0.11 -0.44
 0.32 -0.26 0.00 -0.23 0.40 -0.26 0.01 -0.49 -0.29 -0.06 0.27 0.22 -0.16 -0.05 -0.24 0.37 0.29 -0.19 -0.47 -0.20 -0.24 -0.35 -0.31 -0.07 -0.13 -0.22 -0.43

Frame 112

 0.22 0.38 -0.47 -0.46 0.23 0.45 -0.44 0.07 0.11 -0.07 -0.05 -0.21 -0.35 0.01 -0.12 -0.06 0.24 -0.06 -0.27 0.46 -0.43 0.20 0.12 -0.26 0.09 -0.34 -0.35
 -0.39 -0.35 -0.49 0.08 -0.10 -0.24 -0.17 -0.19 0.44 0.10 -0.46 -0.05 -0.04 -0.21 -0.42 -0.29 0.09 0.10 -0.49 -0.16 -0.32 0.43 0.04 -0.11 0.07 0.09 -0.39
 -0.23 0.11 0.34 0.22 -0.44 -0.07 0.46 0.03 -0.41 0.13 -0.12 0.20 0.29 0.26 0.04 -0.01 0.22 -0.23 0.15 -0.05 -0.05 -0.35 -0.45 0.05 -0.31 0.08 0.27

Frame 113

 0.06 0.40 0.06 -0.48 0.15 0.38 0.26 0.40 -0.21 -0.06 -0.20 0.05 -0.33 -0.04 0.46 0.02 0.05 -0.29 -0.30 -0.36 -0.49 -0.10 0.19 -0.20 0.22 0.28 -0.28
 -0.33 0.49 -0.05 0.32 -0.42 -0.09 0.07 0.01 0.05 -0.16 0.33 0.42 0.46 -0.27 0.25 -0.08 0.44 0.11 -0.06 -0.26 0.46 0.11 0.03 0.19 0.22 -0.47 0.15
 0.11 -0.17 -0.18 0.02 -0.41 0.25 -0.40 -0.07 0.15 -0.27 0.26 0.42 -0.09 -0.07 0.14 -0.31 0.31 -0.00 0.07 -0.41 -0.08 -0.26 -0.22 -0.09 0.17 -0.26 -0.39

Frame 114

 -0.05 0.27 0.11 -0.11 0.07 0.09 0.16 0.50 0.13 0.47 -0.34 -0.28 0.02 0.31 0.03 0.02 0.02 0.40 0.03 0.32 -0.12 -0.19 -0.49 0.20 0.03 -0.40 -0.48
 -0.31 0.31 -0.12 -0.13 0.10 0.09 0.05 -0.10 0.21 0.23 -0.45 0.13 0.48 -0.11 0.32 -0.44 0.24 0.05 0.29 0.08 -0.49 0.25 0.37 -0.40 -0.42 -0.38 0.01
 0.30 0.07 -0.39 -0.00 0.36 -0.31 -0.18 -0.23 -0.50 -0.42 0.27 0.34 0.00 -0.02 0.40 0.37 -0.49 -0.45 -0.15 -0.23 -0.11 0.26 0.42 -0.30 0.36 0.12 0.49

Frame 115

 -0.43 -0.07 -0.18 0.28 0.01 0.27 -0.48 -0.15 -0.10 0.05 0.40 -0.12 -0.08 0.23 -0.16 -0.51 0.01 0.45 -0.25 0.33 0.33 -0.03 0.34 -0.37 0.25 0.24 -0.28
 0.12 -0.13 -0.12 -0.05 -0.04 -0.19 0.11 -0.22 -0.04 0.42 -0.17 -0.39 -0.21 0.15 -0.27 -0.20 0.20 -0.31 -0.10 -0.24 -0.10 0.14 0.35 0.46 0.20 -0.41 0.49
 0.16 0.24 0.46 -0.42 -0.36 -0.00 -0.20 -0.15 -0.40 0.45 -0.34 0.25 -0.32 -0.42 0.03 0.32 0.21 -0.14 0.36 0.37 -0.28 0.14 0.40 0.19 0.34 -0.17 -0.21

Frame 116

 0.27 0.04 -0.11 0.26 0.05 0.10 -0.10 0.37 0.05 0.38 0.36 -0.33 -0.00 -0.29 -0.03 0.30 -0.19 0.06 -0.38 0.03 -0.37 0.00 -0.19 0.32 -0.29 -0.10 0.25
 0.27 0.22 0.00 0.38 -0.38 0.21 0.38 -0.42 -0.13 -0.35 -0.17 -0.15 0.41 0.31 0.49 0.48 0.36 0.47 0.47 0.14 0.09 -0.40 -0.25 -0.17 -0.43 -0.10 0.02
 0.13 0.02 0.25 0.49 0.18 0.06 -0.49 0.23 -0.07 0.02 -0.17 0.44 0.22 0.42 0.05 -0.32 0.32 -0.05 0.45 0.32 -0.45 -0.02 -0.44 -0.38 -0.27 -0.10 0.34

Frame 117

 0.43 0.09 0.17 -0.43 -0.11 -0.44 0.45 -0.01 0.13 0.01 -0.26 -0.35 -0.22 0.02 0.46 0.27 -0.21 0.09 0.32 0.08 0.33 -0.26 0.22 -0.45 -0.15 0.39 -0.01
 0.43 -0.34 -0.37 0.45 -0.48 -0.45 0.09 -0.17 -0.40 -0.38 -0.08 -0.11 -0.26 -0.04 -0.22 -0.40 -0.28 0.24 -0.04 0.30 -0.02 0.17 -0.46 0.25 0.06 0.43 -0.45
 -0.31 0.36 -0.49 -0.16 -0.25 -0.43 0.25 0.49 -0.40 0.06 -0.03 0.38 0.36 -0.41 -0.44 0.07 0.22 0.21 -0.29 -0.35 -0.43 -0.20 -0.46 -0.05 -0.48 0.28 0.12

Frame 118

 0.25 -0.43 0.16 0.28 -0.07 -0.15 -0.40 0.03 -0.06 -0.21 0.06 0.16 0.34 -0.44 0.16 0.49 -0.31 -0.33 0.21 -0.12 0.47 0.15 -0.37 -0.20 0.15 -0.45 -0.09
 0.07 0.09 0.02 0.49 0.21 -0.32 -0.41 0.37 0.05 -0.38 0.37 -0.30 0.00 0.28 0.03 -0.32 -0.43 -0.16 0.35 -0.44 -0.13 -0.18 -0.43 -0.13 0.10 0.30 -0.06
 -0.14 0.31 -0.26 0.35 -0.37 -0.13 0.06 0.29 -0.02 0.14 -0.01 -0.12 -0.35 -0.24 -0.46 -0.49 -0.10 0.44 -0.29 -0.15 -0.11 0.23 -0.30 0.01 0.33 0.16 0.09

Frame 119

 0.50 -0.29 0.23 -0.13 0.13 0.03 -0.07 -0.40 -0.21 0.02 -0.16 -0.27 0.41 -0.22 0.35 0.25 -0.00 -0.14 0.39 -0.48 -0.33 -0.06 -0.30 0.40 0.28 -0.16 -0.14
 -0.08 0.32 0.44 0.28 -0.44 0.05 0.21 -0.19 0.43 -0.11 0.12 0.30 -0.45 0.00 0.50 -0.49 -0.45 -0.48 -0.01 0.29 -0.03 -0.20 0.23 0.12 0.25 -0.06 0.12
 0.20 0.08 -0.46 -0.19 0.01 -0.22 0.38 -0.42 0.31 -0.23 -0.10 -0.33 -0.24 0.31 0.40 0.15 0.43 0.04 -0.36 -0.24 0.06 -0.29 0.01 0.02 -0.15 0.43 0.36

Frame 120

 -0.47 0.37 -0.17 -0.29 0.21 0.44 -0.20 0.17 -0.41 0.23 0.20 -0.27 -0.26 -0.43 -0.11 -0.12 -0.26 -0.02 0.03 -0.34 0.07 -0.32 -0.43 0.16 0.29 0.30 0.26
 0.20 -0.06 0.43 -0.15 -0.08 0.13 0.41 -0.27 -0.42 -0.11 0.35 0.21 0.44 0.42 0.16 0.16 -0.09 0.35 0.11 0.30 0.23 -0.35 -0.22 -0.01 0.02 0.46 0.42
 0.28 0.01 -0.33 -0.08 -0.45 0.46 -0.11 -0.20 -0.11 0.08 -0.39 0.45 0.17 -0.27 -0.19 -0.23 -0.20 -0.37 -0.28 -0.35 -0.47 -0.21 0.18 0.27 -0.13 0.21 -0.39

Frame 121

 0.30 -0.08 -0.16 0.08 0.50 -0.02 -0.15 -0.48 0.03 0.04 -0.01 -0.46 -0.13 0.44 -0.36 -0.25 -0.04 -0.06 0.08 0.36 -0.33 -0.01 -0.43 0.38 0.08 -0.02 -0.32
 0.05 -0.02 0.13 -0.30 -0.03 0.07 -0.24 0.48 -0.21 -0.03 -0.13 -0.42 -0.44 0.24 -0.19 -0.33 -0.36 0.34 0.28 0.48 -0.36 -0.25 0.01 -0.22 0.06 0.29 0.10
 -0.30 0.15 0.13 -0.13 0.29 -0.02 -0.13 0.00 0.09 -0.09 -0.00 -0.19 -0.24 -0.17 -0.12 -0.19 -0.09 -0.40 0.20 0.26 -0.10 0.19 0.43 -0.35 -0.00 -0.16 0.09

Frame 122

 0.20 -0.24 0.20 0.45 -0.20 0.01 -0.25 0.37 0.39 -0.02 0.41 0.16 -0.44 -0.07 0.28 0.31 -0.27 0.41 -0.08 -0.22 -0.45 -0.40 0.14 -0.21 0.07 -0.17 -0.46
 0.04 -0.36 -0.00 0.08 -0.19 0.34 -0.14 -0.28 -0.00 -0.07 0.48 0.26 0.06 -0.04 0.04 0.03 -0.37 -0.25 -0.38 0.30 0.35 -0.01 -0.21 -0.30 0.32 -0.19 -0.48
 -0.20 -0.10 -0.08 0.06 -0.09 -0.14 0.36 0.22 -0.11 0.06 0.06 0.23 0.29 0.01 -0.39 0.28 0.36 -0.37 -0.20 -0.20 -0.30 -0.01 0.08 0.22 0.33 0.10 0.02

Frame 123

 0.04 -0.23 -0.33 -0.50 -0.42 0.32 0.34 0.40 0.08 0.25 0.26 0.43 0.16 -0.13 0.20 0.34 -0.41 0.49 0.28 0.20 0.26 0.37 0.05 -0.42 0.00 0.28 -0.32
 -0.10 0.26 -0.31 0.47 -0.27 -0.04 0.33 -0.22 -0.24 -0.43 -0.15 0.04 -0.31 -0.19 0.09 0.21 -0.24 0.11 -0.09 0.46 0.29 0.35 0.38 0.04 -0.03 -0.28 0.16
 -0.45 0.29 0.11 -0.25 0.49 -0.48 0.01 -0.15 0.46 -0.41 0.21 0.35 0.42 0.28 0.48 0.41 -0.03 -0.02 -0.05 0.17 -0.09 -0.02 -0.10 0.42 -0.05 -0.01 -0.17

Frame 124

 0.22 0.29 -0.04 -0.14 0.08 -0.33 -0.09 -0.38 0.47 -0.04 -0.17 -0.40 -0.16 0.34 0.38 0.01 -0.35 0.21 -0.11 0.41 0.35 -0.36 -0.19 -0.10 -0.21 -0.25 0.09
 0.01 0.27 0.00 -0.10 0.17 0.36 -0.13 -0.31 -0.31 0.14 0.08 0.31 0.16 -0.00 -0.29 0.15 0.03 0.18 -0.22 -0.16 0.47 -0.03 0.18 -0.28 -0.05 0.35 0.37
 -0.07 0.39 -0.19 0.35 -0.32 -0.20 -0.05 0.41 0.30 0.28 0.18 0.40 -0.33 0.09 -0.04 0.26 -0.12 0.30 0.16 -0.23 -0.39 -0.47 0.03 -0.00 -0.41 -0.48 0.02

Frame 125

 0.22 -0.38 0.49 0.30 -0.50 -0.14 0.02 -0.09 0.46 -0.27 -0.20 0.21 -0.05 -0.29 0.37 0.29 -0.23 -0.30 0.34 0.20 -0.19 0.29 0.06 0.06 0.33 -0.05 -0.36
 -0.20 -0.27 0.47 0.07 0.15 0.43 0.18 0.40 0.31 -0.26 -0.25 0.37 0.15 0.22 0.12 -0.36 0.15 -0.11 -0.32 -0.37 0.29 -0.25 -0.39 0.32 -0.48 0.18 0.02
 0.43 -0.11 0.44 -0.08 0.04 0.24 0.27 0.50 -0.23 0.13 -0.48 -0.49 0.44 -0.39 0.05 -0.23 0.44 -0.24 0.41 -0.24 0.05 0.35 -0.03 0.15 -0.08 0.14 0.30

EM post vector after distortion correction for dataset b

 191.34
 209.74
 190.48

Difference between undistorted and distorted EM post vectors for dataset b

 0.15
 0.15
 0.14

