Difference between calculated and output C Frames for dataset d
Frame 1

 -0.00 0.00 -0.01 0.00 -0.00 0.00 -0.00 0.00 -0.00 -0.00 0.00 -0.00 0.00 -0.00 0.00 0.00 0.00 -0.00 -0.00 0.00 -0.00 0.01 -0.00 0.00 0.00 0.01 -0.00
 0.00 0.00 0.00 0.00 0.00 0.00 -0.00 0.01 0.01 -0.00 -0.00 -0.00 0.01 0.00 0.00 0.00 0.00 0.00 0.00 0.00 0.00 -0.00 -0.00 -0.00 -0.00 0.01 0.01
 -0.00 -0.00 0.00 -0.00 -0.00 0.00 -0.00 -0.00 0.00 0.00 -0.00 -0.00 -0.01 -0.00 -0.00 -0.01 -0.00 -0.00 -0.00 0.00 -0.00 -0.00 0.00 -0.00 -0.00 -0.01 -0.00

Frame 2

 -0.00 -0.00 -0.01 -0.00 -0.00 -0.01 0.00 -0.00 -0.01 -0.00 -0.01 -0.00 -0.00 -0.01 -0.00 -0.00 -0.01 -0.00 -0.01 -0.00 -0.00 -0.01 0.00 -0.00 -0.01 0.00 -0.00
 -0.00 0.00 -0.00 0.00 -0.00 0.01 -0.00 0.00 0.00 -0.00 0.01 0.00 0.00 0.00 -0.00 0.00 -0.00 0.01 0.00 -0.00 0.01 -0.00 0.01 0.00 0.00 0.00 -0.00
 0.00 0.00 -0.00 -0.00 -0.00 0.00 -0.00 0.00 -0.00 0.00 -0.00 0.00 -0.00 0.00 -0.00 0.00 -0.00 0.00 -0.00 0.00 -0.00 0.00 -0.00 0.00 -0.00 0.00 -0.00

Frame 3

 0.00 0.00 0.00 0.00 0.00 -0.01 -0.01 -0.01 -0.01 -0.00 -0.00 -0.00 -0.00 -0.00 -0.00 0.00 0.00 0.00 0.00 0.00 -0.01 0.00 -0.01 -0.01 -0.00 -0.00 -0.00
 0.00 0.01 0.00 0.00 0.01 0.00 -0.00 0.00 0.00 0.01 0.00 0.00 0.01 0.00 0.01 0.00 0.00 0.01 0.00 -0.00 0.01 0.00 0.01 0.00 -0.00 0.01 0.00
 0.00 -0.00 0.00 -0.00 -0.00 0.00 -0.00 0.00 -0.00 0.00 -0.00 0.00 -0.00 0.00 -0.00 0.00 -0.00 0.00 -0.00 0.00 -0.00 0.01 0.00 0.01 0.00 0.01 0.00

Frame 4

 -0.00 0.00 0.00 0.00 0.01 0.01 0.01 0.01 0.01 0.00 0.01 0.01 0.01 0.01 0.01 0.00 0.01 0.01 0.01 0.01 0.02 0.00 0.01 0.01 0.01 0.01 0.01
 -0.00 -0.00 -0.00 -0.00 0.00 0.00 0.00 0.00 0.00 0.00 -0.00 -0.00 -0.00 -0.00 -0.00 -0.00 0.00 0.00 0.00 0.00 -0.01 0.00 -0.00 -0.00 0.01 -0.00 -0.00
 0.00 -0.00 0.01 -0.00 0.00 -0.00 -0.00 0.01 0.00 -0.01 -0.00 -0.00 -0.00 0.00 0.00 -0.00 -0.00 0.00 -0.01 -0.01 -0.00 -0.00 -0.01 0.00 -0.01 -0.00 -0.01

Frame 5

 -0.00 -0.00 -0.01 -0.00 -0.00 -0.01 0.00 -0.00 -0.01 -0.00 -0.01 -0.00 -0.00 -0.01 -0.01 -0.00 -0.01 -0.01 -0.01 -0.00 -0.00 -0.01 -0.01 -0.00 -0.01 -0.01 -0.01
 0.01 0.01 0.02 0.01 0.02 0.02 0.01 0.01 0.01 0.01 0.02 0.02 0.01 0.02 0.02 0.01 0.01 0.02 0.02 0.02 0.02 0.01 0.01 0.02 0.02 0.02 0.02
 -0.00 -0.00 0.00 -0.00 -0.01 -0.01 -0.01 -0.01 -0.01 -0.00 -0.00 0.00 -0.00 -0.01 -0.01 -0.01 -0.01 -0.01 0.01 -0.00 0.00 -0.00 0.00 -0.01 -0.01 -0.01 -0.00

Frame 6

 0.00 0.01 -0.00 0.00 -0.00 0.00 0.01 -0.00 0.00 0.00 0.00 -0.00 0.00 -0.00 -0.00 0.00 -0.00 -0.00 -0.00 0.00 -0.01 -0.00 0.00 -0.00 0.00 -0.01 -0.00
 0.01 0.01 0.01 0.00 0.00 0.00 -0.00 -0.00 0.00 -0.00 0.00 0.00 -0.00 -0.00 0.01 -0.01 0.00 0.01 0.00 0.01 0.01 0.00 0.00 0.00 -0.00 -0.00 -0.00
 -0.00 -0.00 -0.01 -0.01 -0.00 -0.00 -0.01 -0.01 -0.01 -0.00 -0.00 0.00 -0.01 -0.00 -0.00 -0.01 -0.01 -0.01 -0.00 0.00 0.00 -0.00 -0.00 -0.00 -0.01 -0.01 -0.01

Frame 7

 0.00 0.01 0.01 0.00 0.01 0.01 0.00 0.01 0.01 0.00 0.00 0.01 0.00 0.00 0.01 0.01 0.01 0.01 0.01 0.00 0.00 0.01 0.01 0.01 0.01 0.01 0.01
 0.00 0.00 0.00 0.01 0.00 0.00 0.01 0.01 0.01 0.00 0.00 0.00 0.00 0.00 0.00 0.00 0.00 0.00 -0.00 -0.00 -0.00 0.00 0.00 0.00 0.00 0.00 0.00
 -0.00 -0.01 -0.00 -0.01 -0.00 -0.01 -0.01 -0.00 -0.00 -0.01 -0.00 -0.01 -0.01 -0.01 -0.00 -0.00 -0.01 -0.00 -0.01 -0.01 -0.00 -0.00 -0.01 -0.01 -0.01 -0.00 -0.01

Frame 8

 -0.00 -0.00 -0.01 0.00 -0.00 -0.00 -0.00 0.00 -0.00 -0.00 -0.00 0.00 0.00 -0.00 -0.00 0.00 0.00 -0.00 -0.00 0.00 0.00 0.00 -0.00 0.00 0.00 0.00 -0.00
 0.00 -0.01 -0.00 -0.00 -0.00 0.00 0.00 0.00 -0.00 -0.00 0.00 -0.01 0.00 -0.00 -0.00 0.00 0.00 0.00 -0.00 -0.00 -0.01 0.00 -0.01 -0.00 -0.00 -0.00 0.00
 -0.01 -0.00 -0.00 -0.00 0.00 -0.00 0.00 -0.00 0.00 -0.00 -0.01 -0.00 0.00 -0.00 0.00 -0.01 0.00 0.01 -0.00 -0.00 0.00 -0.01 0.00 -0.00 -0.00 0.00 0.00

Frame 9

 -0.00 0.00 -0.00 0.00 0.00 -0.00 0.00 0.00 -0.00 -0.00 -0.01 0.00 -0.00 0.00 -0.00 0.01 0.00 -0.00 -0.00 -0.01 -0.01 -0.00 0.00 0.00 0.01 0.00 0.00
 0.01 0.01 0.01 0.00 0.01 0.01 0.01 0.00 0.01 0.00 0.01 0.00 0.00 0.01 0.01 0.01 0.00 0.01 0.00 0.01 0.00 -0.00 0.00 0.01 0.00 -0.00 0.00
 0.00 -0.00 -0.01 -0.00 -0.01 0.00 0.00 -0.00 -0.00 -0.00 0.00 -0.00 0.00 -0.00 0.00 -0.00 0.00 -0.00 -0.00 -0.00 0.00 0.01 0.00 -0.00 0.00 -0.00 0.00

Frame 10

 0.01 0.02 0.01 0.01 0.01 0.01 0.01 0.01 0.01 0.02 0.01 0.01 0.01 0.01 0.02 0.01 0.01 0.01 0.01 0.01 0.02 0.01 0.02 0.01 0.01 0.01 0.02
 -0.01 -0.00 -0.01 -0.01 -0.00 -0.01 -0.01 -0.00 -0.01 -0.01 -0.00 -0.01 -0.01 -0.00 -0.01 -0.01 -0.00 -0.01 -0.01 -0.01 -0.01 0.00 -0.01 -0.01 0.00 -0.01 -0.01
 0.01 0.01 0.01 0.01 0.01 0.01 0.02 0.01 0.01 0.00 0.01 0.01 0.01 0.01 0.01 0.02 0.01 0.02 0.00 0.01 0.01 0.01 0.02 0.01 0.02 0.01 0.02

Frame 11

 -0.00 -0.00 0.00 0.00 -0.00 0.01 0.00 0.00 0.00 0.00 0.00 -0.00 -0.00 0.00 0.00 -0.00 0.01 0.01 -0.00 0.01 0.00 -0.00 -0.00 0.01 0.00 0.00 0.00
 0.00 0.00 0.00 0.00 0.01 0.01 0.01 0.01 0.01 0.00 0.00 0.00 0.00 0.00 0.01 0.01 0.01 0.01 0.00 0.00 0.00 0.00 0.00 0.01 0.01 0.01 -0.00
 -0.00 0.00 -0.01 0.00 -0.01 -0.00 -0.01 -0.00 -0.00 -0.01 -0.01 -0.00 -0.01 -0.00 -0.00 -0.01 -0.00 -0.01 -0.01 -0.00 -0.00 -0.01 -0.00 -0.01 -0.00 -0.01 -0.01

Frame 12

 -0.01 -0.01 -0.01 0.00 -0.01 -0.01 -0.00 -0.00 -0.01 -0.00 -0.00 -0.00 -0.01 -0.01 -0.00 -0.01 -0.01 -0.01 -0.01 -0.01 -0.01 -0.00 -0.01 -0.01 -0.00 -0.00 -0.01
 0.00 -0.00 -0.00 -0.01 0.00 0.00 -0.01 -0.01 -0.01 -0.00 -0.00 -0.00 0.00 -0.00 -0.00 -0.01 0.00 0.00 -0.00 -0.00 0.01 -0.00 -0.00 -0.00 0.00 0.00 -0.00
 0.00 -0.00 -0.01 -0.00 -0.01 -0.00 -0.00 -0.01 -0.01 -0.01 -0.00 -0.01 -0.00 -0.01 -0.00 -0.00 -0.01 -0.01 -0.01 0.00 -0.00 -0.00 -0.01 -0.00 -0.00 -0.01 -0.01

Frame 13

 -0.00 -0.01 -0.01 0.00 0.00 -0.00 -0.00 -0.00 -0.00 -0.00 -0.00 -0.01 -0.01 -0.01 0.00 0.00 -0.00 -0.00 -0.00 -0.00 -0.01 -0.01 -0.01 -0.01 0.00 -0.00 -0.00
 0.00 -0.00 0.00 -0.00 0.01 0.00 0.01 0.00 -0.00 0.00 -0.00 0.00 -0.00 0.00 0.00 0.01 0.00 -0.00 0.00 -0.00 0.00 -0.00 0.00 0.00 0.01 0.00 -0.00
 -0.00 -0.00 -0.01 -0.01 -0.00 0.00 0.00 -0.01 -0.00 0.00 -0.01 -0.00 -0.00 0.00 -0.01 -0.00 -0.00 0.00 -0.00 -0.00 0.00 0.00 -0.00 -0.00 0.00 0.00 -0.00

Frame 14

 -0.00 0.00 -0.01 0.01 0.00 0.00 0.01 0.00 0.01 -0.00 0.00 -0.01 -0.00 0.00 0.01 0.01 0.00 0.01 -0.00 0.00 -0.01 -0.00 0.00 -0.00 0.00 0.00 0.01
 -0.00 0.00 -0.00 -0.00 -0.00 -0.01 0.00 -0.00 0.00 -0.01 -0.00 -0.01 0.00 -0.01 -0.00 -0.00 -0.01 -0.00 -0.00 -0.01 -0.00 -0.00 -0.01 -0.01 -0.01 -0.00 -0.01
 0.00 0.01 -0.00 0.00 0.00 -0.00 -0.00 0.00 0.01 0.00 0.01 -0.00 0.00 0.00 0.01 -0.00 0.00 0.01 0.00 0.01 0.01 0.00 0.00 0.01 0.01 0.00 0.00

Frame 15

 -0.01 -0.00 -0.00 0.00 -0.01 -0.00 -0.00 -0.01 -0.01 0.00 0.00 -0.00 -0.00 0.00 -0.01 -0.00 -0.00 -0.01 -0.00 0.00 0.00 -0.00 -0.00 0.00 -0.01 -0.00 -0.00
 0.00 0.01 0.00 0.00 -0.00 0.01 0.01 0.00 0.01 0.01 0.00 0.01 0.01 0.01 0.00 0.00 0.01 0.00 0.00 0.01 0.00 0.00 0.01 0.01 0.01 0.00 0.01
 -0.00 -0.01 -0.00 0.00 -0.00 0.00 0.00 -0.00 0.00 -0.00 -0.01 -0.00 0.00 -0.00 0.00 -0.01 -0.00 -0.01 -0.00 -0.01 -0.00 0.00 -0.00 0.00 -0.01 -0.00 -0.01

Frame 16

 -0.00 -0.00 -0.00 -0.01 -0.01 -0.01 -0.01 0.00 0.00 -0.00 -0.00 -0.00 -0.00 -0.00 -0.00 -0.01 -0.01 -0.01 -0.01 0.00 0.00 -0.00 -0.00 -0.00 -0.00 -0.00 -0.00
 0.00 -0.00 -0.00 -0.01 -0.01 -0.01 -0.01 -0.01 -0.01 -0.01 -0.01 -0.01 -0.00 -0.01 -0.01 -0.00 -0.00 -0.01 -0.00 -0.00 -0.01 -0.00 -0.00 -0.00 0.00 -0.00 -0.00
 0.00 0.00 -0.00 -0.00 -0.00 0.01 0.01 0.01 0.00 -0.00 -0.00 -0.00 0.01 0.01 0.00 0.00 0.00 0.00 -0.00 0.01 0.00 0.00 0.00 0.00 0.00 -0.00 -0.00

Frame 17

 -0.00 -0.00 -0.00 -0.00 -0.00 -0.00 0.00 -0.00 -0.00 -0.00 -0.00 -0.01 -0.00 -0.00 -0.01 -0.00 -0.00 -0.01 0.00 0.00 0.00 0.00 0.00 0.00 0.00 0.00 0.00
 -0.00 -0.00 -0.00 0.00 -0.00 -0.00 0.00 0.00 -0.00 0.00 -0.00 -0.00 0.00 0.00 -0.00 0.00 0.00 0.00 0.00 0.00 -0.00 0.00 0.00 0.00 0.00 0.00 0.00
 -0.00 0.01 0.00 0.00 0.01 0.01 0.01 0.01 0.01 0.00 0.01 0.01 0.00 0.01 0.01 0.01 0.01 0.01 0.00 0.01 0.01 0.01 0.01 0.01 0.01 0.02 0.01

Frame 18

 -0.00 -0.01 -0.00 0.00 -0.00 -0.01 -0.00 -0.01 -0.00 -0.00 -0.01 -0.01 0.00 -0.00 -0.01 -0.00 -0.01 -0.00 -0.00 -0.01 -0.01 -0.01 -0.00 -0.01 -0.00 -0.01 -0.01
 -0.02 -0.01 -0.01 -0.01 -0.01 -0.02 -0.01 -0.01 -0.02 -0.01 -0.01 -0.02 -0.01 -0.02 -0.01 -0.01 -0.02 -0.01 -0.01 -0.02 -0.01 -0.02 -0.02 -0.01 -0.02 -0.01 -0.01
 -0.00 0.00 -0.00 0.00 -0.00 -0.00 0.00 -0.00 -0.01 0.00 -0.00 0.00 0.01 0.00 -0.01 -0.00 0.00 -0.00 0.01 0.00 0.01 0.00 0.00 -0.00 0.00 -0.00 0.00

Frame 19

 -0.00 -0.00 -0.00 -0.00 -0.01 -0.01 -0.01 -0.01 -0.01 -0.00 -0.00 -0.00 -0.00 -0.00 -0.00 -0.01 -0.01 -0.01 0.00 0.00 -0.01 -0.00 -0.00 -0.01 -0.00 -0.00 -0.01
 -0.00 -0.00 0.00 0.00 0.00 -0.00 -0.00 -0.00 0.00 -0.00 0.00 0.00 0.00 0.01 -0.00 0.00 0.00 0.00 0.00 0.00 0.01 0.01 -0.00 0.00 0.00 0.00 0.01
 -0.01 -0.01 -0.00 -0.01 -0.01 -0.01 -0.00 -0.00 -0.01 -0.00 -0.00 -0.01 -0.00 -0.00 -0.00 -0.01 -0.01 -0.01 0.00 0.00 0.00 -0.00 -0.00 -0.01 -0.00 -0.00 -0.00

Frame 20

 -0.00 -0.01 -0.00 -0.00 -0.01 -0.00 -0.00 -0.01 0.00 -0.01 -0.00 -0.01 -0.01 -0.00 -0.00 -0.01 0.00 -0.00 -0.01 -0.00 -0.01 0.00 -0.00 -0.01 0.00 -0.00 -0.01
 0.01 0.00 0.00 0.00 -0.00 -0.00 -0.00 -0.01 -0.01 0.00 0.00 -0.00 -0.00 -0.00 0.00 0.00 0.00 -0.00 -0.00 -0.00 0.01 0.00 0.00 0.00 -0.00 -0.00 -0.00
 -0.01 -0.01 -0.01 -0.01 -0.01 -0.01 -0.01 -0.01 -0.01 -0.01 -0.01 -0.01 -0.01 -0.01 -0.02 -0.01 -0.01 -0.02 -0.01 -0.01 -0.01 -0.01 -0.01 -0.01 -0.01 -0.01 -0.01

Frame 21

 0.00 0.01 0.01 0.00 0.00 0.01 0.01 0.00 0.01 0.01 0.01 0.01 0.01 0.01 0.01 0.01 0.01 0.01 0.01 0.01 0.01 0.01 0.01 0.02 0.01 0.01 0.02
 0.02 0.01 0.01 0.01 0.01 0.02 0.02 0.01 0.01 0.01 0.02 0.01 0.01 0.01 0.01 0.02 0.02 0.01 0.01 0.01 0.01 0.01 0.01 0.01 0.02 0.02 0.02
 -0.00 0.00 0.00 -0.00 0.00 0.01 0.01 0.01 0.01 -0.00 0.01 0.01 0.01 0.01 0.01 0.00 0.01 0.01 0.00 0.01 0.01 0.00 0.00 0.01 0.00 0.00 0.00

Frame 22

 0.00 0.01 0.00 0.01 0.00 0.01 0.01 0.01 0.00 0.00 -0.00 0.01 -0.00 0.01 0.00 0.01 0.00 0.01 -0.00 0.00 -0.00 0.00 -0.00 0.00 0.01 0.00 -0.00
 0.01 -0.00 0.00 -0.00 -0.00 0.00 -0.00 -0.00 0.00 0.00 0.01 0.00 0.00 -0.00 0.00 0.00 -0.00 0.00 -0.00 0.00 -0.00 -0.00 0.00 -0.00 -0.00 -0.01 -0.00
 -0.01 -0.01 -0.01 -0.01 -0.01 -0.01 -0.01 -0.01 -0.02 -0.00 -0.00 -0.01 -0.01 -0.01 -0.01 -0.02 -0.02 -0.01 -0.01 -0.01 -0.01 -0.01 -0.01 -0.01 -0.01 -0.01 -0.01

Frame 23

 0.01 0.01 0.01 0.02 0.01 0.01 0.02 0.01 0.01 0.01 0.01 0.01 0.01 0.02 0.01 0.02 0.01 0.01 0.02 0.01 0.01 0.02 0.01 0.01 0.02 0.02 0.01
 0.01 0.01 0.01 0.01 0.01 0.02 0.01 0.02 0.02 0.00 0.01 0.01 0.01 0.01 0.01 0.01 0.01 0.02 0.00 0.00 0.01 0.00 0.01 0.01 0.01 0.01 0.01
 -0.01 -0.00 0.00 -0.00 -0.01 -0.00 -0.01 -0.01 -0.01 -0.01 -0.00 0.00 -0.00 0.00 -0.00 -0.01 -0.00 -0.00 0.00 -0.00 0.00 -0.00 0.00 -0.00 0.00 -0.00 -0.00

Frame 24

 0.01 0.02 0.02 0.02 0.02 0.02 0.02 0.02 0.03 0.01 0.02 0.02 0.02 0.02 0.02 0.02 0.02 0.02 0.01 0.02 0.02 0.02 0.02 0.01 0.02 0.01 0.02
 -0.00 -0.00 -0.01 -0.01 -0.01 -0.01 -0.01 -0.01 -0.01 -0.01 -0.01 -0.01 -0.01 -0.01 -0.01 -0.01 -0.01 -0.01 -0.00 -0.00 -0.00 -0.01 -0.01 -0.01 -0.01 -0.01 -0.01
 0.01 -0.00 -0.00 -0.00 -0.00 -0.00 0.00 0.00 0.00 -0.00 -0.00 -0.00 -0.00 -0.00 -0.00 0.00 0.00 -0.01 -0.00 -0.00 -0.00 0.00 0.00 -0.00 -0.01 -0.01 -0.01

Frame 25

 -0.00 -0.00 -0.01 -0.01 -0.01 0.00 -0.01 -0.00 -0.00 -0.01 -0.01 0.00 -0.01 -0.00 -0.00 -0.01 -0.01 -0.01 -0.01 -0.01 -0.00 -0.02 -0.01 -0.01 -0.01 -0.01 -0.01
 -0.02 -0.02 -0.02 -0.02 -0.02 -0.02 -0.02 -0.02 -0.02 -0.01 -0.01 -0.01 -0.02 -0.02 -0.03 -0.03 -0.03 -0.03 -0.01 -0.02 -0.02 -0.02 -0.02 -0.02 -0.02 -0.02 -0.02
 -0.02 -0.02 -0.03 -0.01 -0.02 -0.02 -0.01 -0.02 -0.02 -0.02 -0.02 -0.03 -0.01 -0.02 -0.02 -0.01 -0.02 -0.02 -0.02 -0.02 -0.03 -0.01 -0.02 -0.02 -0.01 -0.02 -0.02

Frame 26

 0.00 -0.00 -0.00 0.00 -0.00 -0.01 -0.00 -0.00 -0.01 0.00 0.00 -0.00 0.00 0.00 -0.00 0.00 0.00 -0.00 0.01 0.01 0.00 0.01 0.01 0.00 0.01 0.00 0.00
 -0.01 -0.00 0.00 -0.00 0.00 -0.00 0.00 0.01 0.00 -0.00 -0.01 -0.00 0.00 -0.00 0.00 0.01 0.00 0.01 -0.01 -0.00 0.00 -0.00 0.00 0.01 0.00 0.01 0.01
 0.00 0.00 0.00 -0.00 -0.00 -0.00 -0.01 -0.01 -0.01 0.00 0.00 0.00 -0.00 -0.00 -0.00 -0.01 -0.01 -0.01 -0.01 0.00 0.00 -0.00 -0.00 0.00 -0.01 -0.01 -0.00

Frame 27

 0.00 0.00 0.00 -0.01 -0.01 -0.01 -0.01 -0.01 -0.01 0.00 0.00 0.00 -0.01 -0.01 -0.01 -0.01 -0.01 -0.01 0.00 0.00 0.00 -0.01 -0.01 -0.01 -0.01 -0.01 -0.01
 0.00 -0.01 -0.01 0.00 -0.01 -0.01 -0.00 -0.01 -0.01 0.00 -0.00 -0.00 0.00 -0.00 -0.00 0.00 -0.01 -0.00 0.01 -0.00 0.00 0.01 -0.00 0.00 0.01 -0.00 0.00
 -0.00 -0.00 0.00 0.00 0.00 0.00 0.00 0.01 0.01 0.00 0.00 -0.01 0.00 0.01 -0.00 0.01 0.01 0.00 -0.00 -0.00 -0.00 -0.00 0.00 0.00 0.00 0.00 0.01

Frame 28

 -0.00 0.00 -0.00 0.00 -0.00 -0.00 -0.01 -0.00 -0.01 0.00 -0.00 0.00 -0.00 0.00 -0.00 -0.00 -0.01 -0.00 0.00 0.00 -0.00 0.00 -0.00 0.00 -0.00 -0.00 -0.01
 0.01 0.00 -0.00 -0.00 0.00 -0.00 -0.00 0.00 0.00 0.01 0.00 0.01 0.01 0.00 0.00 -0.00 0.01 0.00 0.01 0.00 0.01 0.01 0.01 0.01 0.01 0.01 0.00
 0.00 -0.00 0.00 0.00 0.00 -0.00 -0.00 -0.00 0.00 -0.00 0.01 0.00 0.00 -0.00 0.01 -0.00 0.00 0.00 0.01 0.00 0.00 0.00 -0.00 0.00 0.00 0.00 -0.00

Frame 29

 -0.00 -0.00 -0.00 0.00 0.00 0.00 -0.00 -0.00 -0.00 -0.00 -0.01 -0.01 0.00 -0.00 -0.00 -0.00 -0.01 -0.01 -0.01 -0.01 -0.01 -0.00 -0.00 -0.00 -0.01 -0.01 -0.01
 -0.01 -0.01 -0.01 -0.01 -0.01 -0.01 -0.01 -0.01 -0.02 -0.01 -0.01 -0.02 -0.01 -0.01 -0.01 -0.01 -0.01 -0.01 -0.00 -0.01 -0.02 -0.01 -0.01 -0.01 -0.01 -0.01 -0.01
 -0.01 -0.01 -0.01 0.00 -0.01 -0.01 -0.00 -0.00 -0.00 -0.00 -0.00 -0.01 -0.01 -0.00 -0.00 0.00 0.00 -0.01 -0.01 -0.01 -0.01 -0.00 -0.00 -0.00 -0.00 -0.00 -0.00

Frame 30

 -0.00 -0.00 0.00 -0.00 -0.00 -0.00 -0.00 -0.00 -0.00 -0.00 -0.00 -0.00 -0.00 -0.00 -0.00 -0.01 -0.00 -0.00 -0.00 -0.00 -0.00 -0.01 -0.00 -0.00 -0.01 -0.00 -0.00
 -0.01 -0.01 -0.01 -0.01 -0.01 -0.02 -0.01 -0.01 -0.02 -0.00 -0.01 -0.02 -0.01 -0.01 -0.02 -0.01 -0.01 -0.02 -0.01 -0.01 -0.01 -0.01 -0.01 -0.01 -0.01 -0.02 -0.01
 -0.01 -0.01 -0.01 0.00 -0.01 -0.01 0.01 0.01 -0.00 -0.00 -0.00 -0.00 -0.00 -0.00 -0.00 0.01 -0.00 -0.00 -0.00 -0.00 -0.00 -0.00 -0.00 -0.00 0.00 0.00 0.00

Frame 31

 -0.00 -0.00 -0.00 -0.00 -0.00 -0.00 0.00 0.00 0.00 0.00 0.00 0.00 -0.00 -0.01 0.00 -0.00 -0.00 -0.00 -0.00 -0.00 -0.00 0.00 -0.00 -0.00 -0.01 0.00 0.00
 0.00 -0.01 -0.00 0.00 -0.01 -0.00 0.00 0.00 -0.01 -0.00 -0.00 0.00 -0.00 -0.00 0.00 -0.00 -0.00 -0.00 0.00 0.00 -0.00 0.00 0.00 -0.01 0.00 0.00 0.00
 0.00 -0.00 0.00 0.00 0.01 0.00 0.00 0.01 0.00 0.01 0.00 -0.00 0.01 0.00 -0.00 0.01 0.00 0.01 -0.00 0.01 0.00 -0.00 0.01 0.00 0.00 0.01 0.00

Frame 32

 -0.00 0.00 -0.01 -0.01 -0.00 -0.01 -0.01 -0.01 -0.01 0.00 -0.00 0.00 -0.00 -0.01 -0.00 -0.01 -0.01 -0.01 -0.00 0.00 -0.00 -0.01 -0.00 -0.01 -0.01 -0.01 -0.01
 0.00 0.00 0.01 -0.00 0.00 -0.00 -0.00 0.00 0.00 0.01 0.00 0.01 -0.00 0.01 0.00 0.00 0.01 0.00 0.01 0.01 0.01 0.00 0.01 0.01 0.00 0.01 0.01
 -0.00 -0.00 -0.00 0.00 -0.00 -0.00 -0.01 -0.01 -0.01 0.00 0.00 0.00 0.01 -0.01 -0.01 -0.00 -0.00 -0.00 0.01 0.01 0.01 -0.00 -0.00 -0.00 0.00 0.00 0.00

Frame 33

 0.00 0.00 0.00 0.01 0.01 0.01 0.00 0.00 0.00 0.01 0.01 0.01 0.00 0.00 0.00 -0.00 -0.00 -0.00 0.00 0.00 0.00 0.00 -0.00 0.01 0.01 0.01 0.01
 0.01 0.01 0.01 0.01 0.01 0.01 0.01 0.01 0.01 0.01 0.01 0.01 0.01 0.01 0.01 0.01 0.01 0.01 0.01 0.01 0.02 0.01 0.01 0.01 0.01 0.01 0.01
 -0.01 -0.00 -0.01 -0.01 -0.01 -0.01 -0.01 -0.01 -0.01 -0.01 -0.00 -0.01 -0.01 -0.00 -0.01 -0.01 -0.01 -0.01 -0.00 -0.01 -0.01 -0.01 -0.01 -0.01 -0.01 -0.01 -0.01

Frame 34

 0.00 -0.00 0.01 0.01 0.00 0.00 0.01 0.01 0.00 0.00 0.00 0.01 0.01 0.00 0.00 0.01 0.01 0.00 0.00 0.00 0.01 0.01 0.00 0.00 0.01 0.01 0.00
 0.00 -0.00 0.01 -0.00 -0.00 0.00 -0.00 0.00 0.00 -0.00 0.00 0.00 -0.00 0.00 -0.00 0.00 0.00 -0.00 0.00 0.00 -0.00 0.00 -0.00 -0.00 0.00 -0.00 0.00
 -0.01 -0.01 -0.00 -0.00 -0.01 -0.01 -0.01 -0.01 -0.00 -0.01 -0.01 -0.00 -0.01 -0.01 -0.01 -0.01 -0.01 -0.01 -0.01 -0.01 -0.01 -0.01 -0.00 -0.01 -0.01 -0.01 -0.01

Frame 35

 0.01 0.00 -0.00 0.01 0.00 0.00 0.01 0.00 0.00 -0.00 0.01 0.00 -0.00 0.01 0.00 0.00 0.01 0.00 0.00 -0.00 0.01 0.00 -0.00 0.01 0.00 -0.00 0.01
 0.01 0.00 0.00 0.00 0.00 -0.00 0.00 -0.00 0.01 0.01 0.01 0.00 0.01 0.00 -0.00 0.00 -0.00 0.01 0.01 0.01 0.00 0.01 0.00 0.00 0.00 0.00 0.01
 -0.01 -0.01 -0.01 0.00 0.00 -0.01 -0.00 -0.00 -0.00 -0.01 -0.01 -0.01 -0.01 -0.01 -0.01 0.00 -0.00 -0.00 -0.00 -0.00 -0.00 -0.01 -0.01 -0.01 -0.01 -0.01 -0.01

Frame 36

 0.00 -0.00 0.00 -0.00 0.00 0.00 0.00 0.00 0.01 0.01 0.00 0.01 0.00 0.01 0.00 0.01 0.00 -0.00 0.01 0.00 0.01 0.00 0.01 0.01 0.01 0.01 0.00
 0.00 -0.01 -0.00 0.01 -0.00 0.00 0.00 0.00 -0.00 0.00 -0.01 -0.00 0.01 -0.00 0.00 0.00 0.00 -0.00 0.00 0.00 -0.00 0.00 -0.00 0.00 -0.00 0.00 0.01
 0.01 0.01 0.01 0.01 0.01 0.01 0.01 0.01 0.02 0.00 0.01 0.01 0.01 0.01 0.01 0.01 0.01 0.01 0.01 0.01 0.01 0.01 0.01 0.01 0.01 0.01 0.01

Frame 37

 -0.00 -0.00 -0.01 0.00 -0.01 -0.01 -0.00 -0.00 0.00 -0.00 -0.01 -0.01 -0.01 -0.00 -0.00 0.00 -0.01 -0.01 -0.01 -0.01 -0.00 -0.00 -0.01 -0.01 -0.01 -0.00 -0.00
 -0.00 -0.01 -0.01 -0.01 -0.01 -0.01 -0.01 -0.01 -0.01 -0.00 -0.01 -0.01 -0.00 -0.01 -0.01 -0.01 -0.01 -0.01 -0.01 -0.01 -0.02 -0.00 -0.01 -0.02 -0.00 -0.01 -0.01
 0.00 0.00 0.01 0.00 0.00 0.01 0.01 0.01 0.01 0.00 0.00 0.01 0.01 0.01 0.01 0.01 0.01 0.01 0.00 0.00 0.01 0.01 0.01 0.01 0.01 0.02 0.01

Frame 38

 -0.00 -0.00 -0.01 0.00 -0.00 -0.00 -0.01 0.00 -0.00 0.00 0.00 -0.00 -0.01 0.00 0.00 -0.00 -0.01 0.00 -0.00 0.01 0.00 -0.00 -0.00 0.01 0.00 -0.00 -0.00
 0.01 -0.00 0.00 0.00 0.00 0.00 0.00 0.01 0.01 0.01 -0.00 0.00 0.01 0.00 0.00 0.00 0.01 0.01 0.01 0.01 -0.00 0.01 0.00 0.00 0.00 0.01 0.01
 0.00 0.01 0.01 0.00 0.00 0.01 0.00 0.00 0.01 0.01 0.01 0.01 0.01 0.01 0.01 0.01 0.01 0.01 0.00 0.01 0.01 0.00 0.00 0.01 0.00 0.00 0.01

Frame 39

 -0.00 0.01 0.00 0.00 0.00 -0.00 -0.00 -0.00 0.01 0.00 0.00 0.00 0.00 -0.00 -0.00 0.01 0.00 0.00 0.00 -0.00 -0.00 -0.00 0.01 0.00 0.00 0.00 0.00
 0.00 0.00 -0.00 0.00 0.01 0.00 0.01 0.00 0.00 0.01 0.01 0.00 0.01 0.00 -0.00 0.00 -0.00 0.01 0.00 0.00 -0.00 0.00 -0.00 0.01 0.01 0.00 0.00
 0.00 -0.00 -0.00 0.00 0.00 -0.00 0.00 0.00 -0.00 0.00 0.00 0.00 0.00 0.00 0.00 0.00 0.00 0.00 -0.00 0.00 0.00 0.01 0.00 0.00 0.01 0.01 0.00

Frame 40

 -0.00 0.00 -0.00 -0.00 0.00 -0.00 -0.01 -0.00 -0.00 -0.00 0.00 -0.00 -0.00 0.00 -0.00 -0.01 -0.00 -0.01 -0.00 0.00 -0.00 -0.01 -0.00 -0.01 -0.01 -0.00 -0.01
 0.01 0.00 0.00 0.01 0.01 0.00 -0.00 0.01 0.00 0.00 0.01 0.00 0.00 0.01 0.01 0.00 0.01 0.01 0.00 0.01 0.01 0.01 0.00 0.01 0.01 0.00 0.01
 -0.00 -0.01 -0.01 -0.01 -0.01 -0.01 -0.01 -0.01 -0.01 -0.01 -0.01 -0.01 -0.01 -0.01 -0.01 -0.01 -0.01 -0.00 -0.01 -0.01 -0.01 -0.01 -0.01 -0.00 -0.01 -0.01 -0.01

Frame 41

 -0.00 -0.00 -0.01 -0.01 -0.01 -0.01 -0.02 -0.01 -0.01 -0.01 -0.01 -0.01 -0.01 -0.02 -0.01 -0.01 -0.01 -0.01 -0.01 -0.01 -0.01 -0.01 -0.01 -0.01 -0.01 -0.02 -0.02
 0.00 0.01 -0.00 0.00 0.00 0.01 0.01 0.00 0.00 0.01 0.01 0.01 0.01 0.00 0.01 0.01 0.01 0.00 0.01 0.00 0.01 0.01 0.01 0.00 0.01 0.01 0.00
 0.01 0.01 0.02 0.01 0.01 0.02 0.01 0.02 0.02 0.01 0.01 0.01 0.01 0.01 0.02 0.01 0.02 0.02 0.01 0.01 0.01 0.01 0.01 0.01 0.01 0.01 0.02

Frame 42

 -0.00 -0.00 0.00 -0.01 -0.00 -0.00 -0.00 -0.01 0.00 0.00 -0.00 -0.00 -0.01 0.00 -0.00 -0.00 -0.00 -0.01 -0.01 0.00 -0.00 -0.00 -0.00 0.00 -0.01 -0.00 -0.00
 0.01 0.00 0.01 0.00 0.01 0.00 0.01 0.00 0.01 0.01 0.01 0.01 0.01 0.01 0.01 0.01 0.01 0.01 0.00 0.01 0.01 0.01 0.00 0.01 0.00 0.01 0.00
 -0.00 -0.00 -0.01 -0.00 -0.00 -0.00 -0.01 -0.00 -0.00 -0.01 -0.00 -0.00 -0.01 -0.01 -0.00 -0.00 -0.01 -0.01 -0.01 -0.01 -0.01 -0.00 -0.01 -0.01 -0.01 -0.00 -0.01

Frame 43

 -0.00 -0.01 0.00 -0.00 -0.00 -0.00 -0.01 -0.01 0.00 -0.01 -0.01 -0.00 -0.00 -0.00 -0.01 -0.01 -0.01 -0.00 -0.01 -0.01 -0.00 -0.01 -0.01 -0.01 -0.01 -0.01 -0.00
 -0.01 0.00 -0.00 -0.01 -0.00 -0.00 -0.01 -0.01 -0.00 0.00 0.00 -0.00 -0.01 -0.00 -0.00 -0.01 -0.00 -0.00 0.00 -0.00 -0.00 -0.01 -0.00 -0.00 -0.01 -0.00 -0.00
 -0.01 -0.02 -0.02 -0.02 -0.02 -0.02 -0.02 -0.02 -0.02 -0.02 -0.02 -0.02 -0.02 -0.02 -0.02 -0.02 -0.02 -0.02 -0.02 -0.02 -0.02 -0.02 -0.02 -0.02 -0.02 -0.02 -0.02

Frame 44

 0.00 0.00 0.00 0.00 0.00 -0.00 -0.00 -0.00 -0.00 0.00 0.00 0.00 0.00 0.00 -0.00 -0.00 -0.00 -0.00 -0.01 -0.01 0.00 0.00 0.00 -0.00 -0.00 -0.00 -0.00
 0.01 0.00 0.01 0.01 0.01 0.00 0.00 0.00 0.01 0.01 0.01 0.01 0.01 0.00 0.01 0.01 0.01 0.00 0.01 0.01 0.01 0.00 0.01 0.01 0.01 0.00 0.01
 -0.01 -0.02 -0.01 -0.01 -0.01 -0.02 -0.02 -0.01 -0.01 -0.01 -0.02 -0.01 -0.01 -0.01 -0.02 -0.02 -0.01 -0.01 -0.01 -0.02 -0.01 -0.01 -0.01 -0.02 -0.02 -0.01 -0.01

Frame 45

 0.00 0.01 0.01 0.01 0.01 0.00 0.01 0.01 0.00 0.01 0.01 0.00 0.01 0.00 0.00 0.00 0.00 0.01 -0.00 0.00 0.00 0.00 0.00 0.01 0.01 0.01 0.00
 -0.00 -0.01 0.00 -0.00 -0.00 -0.00 0.00 0.00 -0.00 -0.01 0.00 -0.00 -0.00 -0.01 -0.01 -0.00 -0.00 -0.00 -0.00 -0.00 -0.00 -0.01 0.00 -0.00 -0.00 -0.01 -0.01
 -0.00 -0.00 0.00 0.01 -0.00 0.00 0.01 -0.00 0.00 -0.00 0.00 0.00 -0.00 0.00 0.00 -0.00 0.00 0.00 -0.00 0.00 -0.00 -0.00 0.00 -0.00 -0.00 0.00 0.00

Frame 46

 -0.00 -0.00 0.00 -0.01 0.00 -0.00 -0.01 -0.00 -0.01 -0.00 0.00 0.00 0.00 -0.00 -0.00 -0.00 -0.01 -0.01 0.00 0.00 0.00 -0.00 -0.00 -0.00 -0.01 -0.01 0.00
 0.00 0.01 -0.00 0.01 0.00 0.01 0.00 0.01 0.00 0.00 0.01 0.00 0.01 0.00 0.01 0.00 0.01 0.01 0.00 0.01 0.01 0.01 0.01 0.01 0.01 0.01 0.01
 0.00 0.00 -0.00 -0.00 -0.00 0.00 0.00 -0.00 -0.00 -0.00 0.00 0.00 0.00 -0.00 -0.00 -0.00 0.00 -0.00 -0.00 -0.00 0.00 -0.01 0.00 -0.00 -0.00 -0.00 0.00

Frame 47

 0.00 -0.00 0.00 0.00 -0.01 -0.00 -0.00 0.00 -0.01 0.00 -0.00 0.00 -0.00 0.00 -0.00 0.01 -0.00 -0.01 0.00 0.01 0.00 -0.00 0.00 -0.00 0.00 -0.00 0.00
 0.00 -0.00 0.00 0.01 0.00 0.01 -0.00 0.01 0.00 0.01 0.00 0.01 0.00 0.01 0.00 0.00 0.01 0.00 0.00 0.01 0.00 0.00 0.01 0.01 0.01 0.00 0.01
 -0.00 0.00 0.01 0.00 0.01 -0.00 0.00 -0.00 0.00 0.00 0.00 0.01 0.00 -0.00 0.00 -0.00 0.00 0.01 0.00 0.01 0.00 0.01 0.00 0.01 0.00 0.00 0.01

Frame 48

 -0.00 0.00 -0.00 0.01 -0.00 0.00 0.00 0.00 -0.00 0.00 -0.00 0.00 -0.00 0.00 -0.00 0.01 -0.00 0.00 -0.00 0.00 -0.01 0.00 -0.00 0.00 -0.00 0.00 -0.00
 -0.00 -0.01 -0.01 -0.00 -0.00 -0.01 -0.00 -0.00 -0.00 -0.01 -0.01 -0.01 -0.01 -0.01 -0.01 -0.01 -0.01 -0.01 -0.00 -0.01 -0.01 -0.01 -0.01 -0.01 -0.01 -0.01 -0.01
 0.01 0.01 0.01 0.00 0.00 0.00 0.01 0.01 0.01 0.00 0.00 0.00 0.01 0.01 0.01 0.01 0.01 0.00 0.01 0.01 0.01 0.01 0.01 0.00 0.01 0.01 0.01

Frame 49

 -0.00 0.00 0.01 0.00 0.00 -0.00 0.00 -0.00 0.00 0.00 -0.00 0.00 -0.01 -0.00 0.00 -0.00 -0.00 0.00 -0.00 -0.00 0.00 -0.00 0.00 -0.00 -0.00 -0.01 -0.00
 -0.00 -0.00 0.00 -0.01 -0.00 0.01 -0.01 0.00 -0.00 -0.00 0.00 0.00 -0.00 -0.00 0.00 -0.01 -0.00 -0.00 -0.01 0.00 -0.00 -0.00 0.00 0.00 -0.00 -0.00 0.00
 -0.01 -0.01 -0.01 -0.01 -0.02 -0.02 -0.01 -0.01 -0.01 -0.01 -0.01 -0.01 -0.02 -0.02 -0.02 -0.01 -0.01 -0.02 -0.01 -0.01 -0.01 -0.02 -0.02 -0.02 -0.01 -0.02 -0.02

Frame 50

 0.01 0.01 0.01 0.01 0.01 0.01 0.01 0.01 0.02 0.00 0.01 0.01 0.01 0.01 0.01 0.01 0.01 0.01 0.01 0.01 0.01 0.00 0.01 0.01 0.01 0.01 0.01
 -0.02 -0.02 -0.02 -0.01 -0.02 -0.03 -0.02 -0.02 -0.02 -0.02 -0.02 -0.02 -0.01 -0.03 -0.03 -0.02 -0.02 -0.02 -0.02 -0.02 -0.02 -0.02 -0.02 -0.03 -0.02 -0.02 -0.02
 0.01 0.01 0.01 0.01 0.02 0.01 0.01 0.01 0.02 0.01 0.00 0.00 0.01 0.01 0.01 0.01 0.01 0.01 0.01 0.01 0.01 0.01 0.01 0.01 0.02 0.02 0.01

Frame 51

 -0.00 -0.01 -0.00 -0.01 -0.00 -0.01 -0.01 -0.01 -0.00 -0.01 -0.01 -0.00 -0.02 -0.01 -0.01 -0.01 -0.02 -0.01 -0.01 -0.01 -0.01 -0.02 -0.01 -0.01 -0.02 -0.01 -0.01
 0.00 -0.00 0.01 0.00 -0.00 -0.01 0.00 -0.00 -0.01 0.00 0.00 0.01 0.00 -0.00 -0.00 -0.01 -0.00 -0.01 0.00 0.00 -0.00 0.00 0.00 -0.00 -0.01 -0.00 -0.00
 0.00 0.00 -0.00 -0.00 0.00 -0.00 0.01 0.00 -0.01 0.00 -0.00 -0.00 0.00 -0.00 -0.00 0.00 0.00 -0.00 -0.00 -0.00 -0.01 -0.01 -0.00 -0.01 0.00 -0.00 -0.01

Frame 52

 -0.00 0.00 -0.00 0.00 -0.00 -0.00 0.00 -0.00 0.00 0.00 -0.00 -0.00 0.00 -0.00 0.00 -0.00 0.01 0.00 0.00 -0.00 0.00 -0.00 0.01 0.00 0.01 0.00 -0.00
 0.00 0.00 -0.00 0.01 0.00 -0.00 0.01 0.00 0.00 0.00 -0.00 0.01 0.00 -0.00 0.01 0.00 0.00 0.01 -0.00 -0.00 0.00 0.00 -0.00 0.00 0.00 -0.00 0.00
 0.01 0.00 0.01 0.01 0.00 0.01 0.01 0.01 0.01 0.01 0.01 0.01 0.01 0.01 0.01 0.00 0.01 0.00 0.00 0.01 0.01 0.01 0.01 0.01 0.01 0.01 0.01

Frame 53

 -0.00 -0.01 -0.01 -0.00 0.00 0.00 0.00 0.00 0.00 0.00 -0.00 -0.00 0.00 -0.00 -0.00 0.00 -0.00 0.01 -0.00 -0.00 -0.01 0.01 0.00 0.00 0.01 0.00 0.00
 -0.00 -0.00 -0.00 -0.00 -0.00 -0.00 -0.00 -0.00 -0.00 -0.01 -0.00 -0.00 -0.00 -0.00 -0.00 -0.00 -0.00 -0.00 -0.01 -0.01 -0.01 -0.01 -0.01 -0.01 -0.01 -0.01 -0.01
 -0.00 0.00 0.01 -0.01 -0.00 0.00 -0.01 -0.00 0.00 -0.00 0.00 -0.00 -0.00 -0.00 0.00 -0.01 -0.00 0.00 -0.00 0.00 -0.00 -0.00 0.00 -0.00 -0.01 -0.00 -0.01

Frame 54

 0.01 0.01 0.01 0.01 0.01 0.01 0.01 0.01 0.01 0.01 0.01 0.01 0.01 0.01 0.01 0.01 0.01 0.01 0.01 0.01 0.02 0.00 0.01 0.01 0.00 0.01 0.01
 -0.00 -0.01 -0.01 -0.01 -0.01 -0.01 -0.01 -0.01 -0.00 -0.00 -0.00 0.00 -0.00 0.00 -0.01 0.00 -0.01 -0.01 -0.00 -0.00 -0.00 -0.00 -0.00 0.00 -0.00 0.00 0.00
 -0.01 -0.01 -0.01 -0.01 -0.01 -0.01 -0.01 -0.01 -0.01 -0.01 -0.01 -0.01 -0.01 -0.01 -0.01 -0.01 -0.01 -0.01 -0.01 -0.01 -0.01 -0.01 -0.01 -0.01 -0.01 -0.01 -0.01

Frame 55

 -0.00 -0.00 -0.00 -0.00 -0.00 -0.00 -0.00 -0.01 0.00 0.00 0.00 0.00 0.00 0.00 -0.00 -0.00 -0.00 -0.00 -0.00 -0.00 0.01 -0.00 0.00 0.00 0.00 0.00 0.00
 -0.01 -0.01 -0.01 -0.01 -0.01 -0.01 -0.01 -0.01 -0.01 -0.01 -0.01 -0.01 -0.00 -0.01 -0.01 -0.01 -0.01 -0.01 -0.01 -0.01 -0.01 -0.01 -0.01 -0.01 -0.00 -0.00 -0.01
 -0.00 0.00 0.00 0.01 0.01 0.01 0.00 0.01 0.01 0.00 0.01 0.01 0.00 0.00 0.01 0.01 0.00 0.00 -0.00 0.00 0.00 0.01 0.01 0.00 0.00 0.01 0.01

Frame 56

 0.00 -0.00 -0.00 0.00 -0.00 -0.00 0.00 -0.00 -0.00 0.00 -0.01 -0.00 0.00 -0.01 -0.00 0.00 -0.00 -0.00 0.00 -0.01 -0.00 0.00 -0.01 -0.00 0.00 -0.01 -0.00
 0.00 0.00 0.00 0.01 0.01 0.01 0.00 0.01 0.01 0.00 0.01 0.01 0.00 0.00 0.00 0.01 0.01 0.01 0.01 0.01 0.01 0.00 0.00 0.01 0.00 0.00 0.00
 -0.01 -0.01 -0.01 -0.01 -0.01 -0.01 -0.01 -0.01 -0.01 -0.01 -0.00 -0.00 -0.00 -0.01 -0.01 -0.01 -0.01 -0.01 -0.00 -0.01 -0.01 -0.01 -0.01 -0.01 -0.01 -0.01 -0.01

Frame 57

 -0.00 0.00 0.00 -0.01 -0.00 0.00 -0.01 -0.00 -0.00 0.00 0.00 0.01 -0.00 0.00 0.00 -0.01 -0.00 0.00 0.00 0.01 -0.00 0.00 0.00 -0.00 -0.00 0.00 -0.01
 0.01 0.01 0.01 0.01 0.01 0.01 0.01 0.01 0.01 0.01 0.02 0.02 0.01 0.02 0.02 0.01 0.02 0.02 0.01 0.01 0.02 0.01 0.01 0.02 0.01 0.01 0.02
 -0.00 -0.01 -0.00 -0.00 -0.01 -0.01 -0.01 -0.01 -0.01 -0.00 -0.01 -0.01 -0.01 -0.01 -0.01 -0.01 -0.02 -0.01 -0.01 -0.01 -0.01 -0.01 -0.01 -0.01 -0.01 -0.02 -0.01

Frame 58

 0.01 0.00 -0.00 0.00 -0.00 -0.01 -0.00 0.00 0.00 0.00 -0.00 0.01 -0.00 0.00 0.00 0.00 0.00 -0.00 -0.00 0.01 0.00 0.01 0.00 -0.00 0.00 -0.00 0.00
 0.01 -0.00 -0.00 0.00 0.00 0.00 -0.00 0.00 0.00 0.00 0.00 0.00 -0.00 -0.00 0.00 0.01 0.01 0.01 -0.00 -0.00 -0.00 0.00 0.00 0.01 0.00 0.00 0.00
 0.01 0.01 0.00 0.00 0.00 0.01 0.00 0.01 0.00 0.00 0.01 0.01 0.01 0.00 0.01 0.00 0.01 0.01 0.00 0.01 0.01 0.01 0.01 0.00 0.00 0.00 0.01

Frame 59

 -0.01 -0.01 -0.01 -0.01 -0.01 -0.02 -0.01 -0.01 -0.01 -0.00 -0.01 -0.01 -0.01 -0.01 -0.01 -0.01 -0.01 -0.02 -0.00 -0.01 -0.01 -0.00 -0.01 -0.01 -0.01 -0.01 -0.01
 0.00 0.01 0.00 0.01 0.00 0.01 0.00 0.01 0.00 0.00 0.01 0.00 0.01 0.00 0.01 0.00 0.01 0.00 0.01 0.01 0.01 0.01 0.01 0.01 0.01 0.01 0.01
 -0.00 0.01 0.00 -0.00 0.01 0.00 0.01 0.00 0.00 0.01 0.01 0.00 0.01 0.01 0.00 0.01 0.00 0.00 0.01 0.01 0.00 0.01 0.01 0.00 0.01 0.00 0.01

Frame 60

 0.01 0.01 0.01 0.00 0.01 0.01 0.00 0.00 0.00 0.01 0.01 0.01 0.00 0.00 0.00 0.00 0.00 0.00 0.00 0.00 0.01 0.00 0.00 0.00 0.01 0.01 0.01
 -0.00 -0.01 -0.01 -0.01 -0.00 -0.01 -0.01 -0.01 -0.01 -0.01 -0.00 -0.01 -0.01 -0.01 -0.01 -0.00 -0.01 -0.01 -0.01 -0.01 -0.01 -0.00 -0.01 -0.01 -0.00 -0.00 -0.01
 0.00 0.01 0.01 0.01 0.00 0.01 0.01 0.01 0.01 0.01 0.00 0.01 0.01 0.01 0.00 0.00 0.01 0.01 0.00 -0.00 0.00 0.00 0.01 0.01 0.01 0.01 0.01

Frame 61

 0.01 0.00 -0.00 0.00 -0.00 0.00 0.01 0.00 -0.00 0.00 0.01 -0.00 0.01 0.00 -0.01 0.00 0.01 0.00 0.00 -0.00 0.00 0.01 0.00 -0.00 0.01 0.00 0.00
 -0.00 -0.01 -0.01 -0.00 -0.00 -0.00 0.00 0.00 0.00 -0.00 -0.01 -0.01 0.00 -0.00 -0.00 -0.01 -0.01 0.00 -0.00 -0.00 -0.01 -0.01 -0.00 -0.00 -0.00 -0.01 -0.01
 0.01 0.00 0.01 0.01 0.01 0.01 0.01 0.01 0.01 0.01 0.01 0.01 0.01 0.01 0.01 0.01 0.02 0.01 0.02 0.01 0.02 0.02 0.01 0.02 0.01 0.02 0.01

Frame 62

 0.00 0.00 -0.00 0.00 0.00 -0.00 0.00 0.00 -0.00 0.00 0.00 0.01 0.00 0.00 0.00 0.00 0.00 0.00 0.00 0.00 0.00 0.00 0.00 0.00 0.00 0.00 0.00
 0.01 0.01 0.01 0.01 0.01 0.01 0.01 0.01 0.01 0.01 0.01 0.01 0.01 0.01 0.01 0.01 0.01 0.01 0.01 0.01 0.01 0.01 0.01 0.01 0.01 0.01 0.01
 -0.00 0.00 0.00 -0.01 -0.00 -0.00 -0.00 0.00 0.00 -0.00 0.00 0.00 -0.01 -0.00 -0.00 -0.00 0.00 0.00 -0.00 0.00 0.00 -0.01 -0.00 -0.00 0.00 0.00 0.01

Frame 63

 0.00 -0.00 -0.00 -0.00 0.00 0.00 -0.01 -0.00 -0.00 -0.01 -0.00 -0.00 -0.00 0.00 -0.01 -0.01 -0.00 -0.00 -0.00 -0.00 0.00 0.00 -0.01 -0.00 -0.00 -0.00 0.00
 -0.00 0.00 -0.00 -0.00 0.00 -0.00 0.00 0.00 -0.00 0.00 -0.00 0.00 0.00 -0.00 0.00 0.01 -0.00 0.00 0.01 0.00 0.01 0.01 0.00 -0.00 0.01 0.00 -0.00
 0.01 0.01 0.01 0.00 0.00 0.00 0.01 0.01 0.01 0.00 0.00 0.00 0.01 0.01 0.01 0.01 0.01 0.01 0.00 -0.00 -0.00 0.01 0.01 0.01 0.00 0.00 0.00

Frame 64

 -0.00 0.01 0.00 0.00 0.00 0.01 0.01 0.01 0.00 -0.00 0.01 0.00 0.00 0.00 -0.00 0.01 0.01 0.01 0.00 -0.00 0.01 0.01 0.00 0.00 0.00 0.01 0.01
 -0.00 -0.00 -0.00 -0.00 -0.00 -0.00 -0.01 -0.00 -0.00 -0.00 -0.00 -0.00 -0.01 -0.00 -0.00 -0.01 -0.01 -0.00 -0.00 -0.00 -0.00 -0.01 -0.01 -0.00 -0.01 -0.01 -0.01
 -0.00 -0.00 0.00 -0.00 0.00 0.00 -0.00 0.00 0.00 -0.00 0.00 0.00 0.00 0.00 -0.00 0.00 0.00 -0.00 0.00 0.00 -0.00 0.00 0.00 -0.00 0.00 -0.00 -0.00

Frame 65

 0.01 0.00 0.01 0.01 0.00 0.01 0.01 0.01 0.01 0.01 0.00 0.01 0.01 0.00 0.01 0.01 0.01 0.01 0.01 0.00 0.01 0.01 0.01 0.01 0.01 0.01 0.01
 -0.00 -0.01 -0.01 -0.00 -0.00 -0.00 -0.01 -0.01 -0.00 -0.01 -0.00 -0.00 -0.01 -0.01 -0.01 -0.00 -0.00 -0.01 -0.01 -0.01 -0.01 -0.00 -0.01 -0.01 -0.01 -0.01 -0.01
 0.01 0.01 0.01 0.01 0.01 0.01 0.01 0.01 0.01 0.01 0.01 0.01 0.01 0.01 0.02 0.01 0.02 0.02 0.01 0.01 0.02 0.01 0.02 0.02 0.02 0.02 0.01

Frame 66

 -0.00 -0.00 -0.01 -0.00 -0.00 -0.00 -0.00 -0.00 -0.00 -0.00 -0.00 -0.01 -0.00 -0.00 -0.00 -0.00 -0.00 -0.00 -0.00 -0.00 -0.01 -0.00 -0.00 -0.01 -0.00 -0.00 -0.00
 -0.00 -0.01 0.00 -0.01 -0.00 -0.00 -0.00 -0.01 -0.01 -0.00 -0.00 -0.01 -0.01 -0.01 -0.00 -0.01 -0.00 -0.01 -0.01 -0.00 -0.01 -0.00 -0.01 0.00 -0.01 -0.00 -0.00
 -0.01 -0.00 -0.01 -0.00 -0.01 -0.01 -0.01 -0.00 -0.01 -0.01 -0.01 -0.00 -0.00 -0.01 -0.01 -0.01 -0.01 -0.00 -0.00 -0.01 -0.00 -0.01 -0.00 -0.01 -0.00 -0.01 -0.00

Frame 67

 -0.00 -0.00 -0.01 0.00 0.00 0.00 0.00 0.00 -0.00 0.00 0.00 0.00 0.00 -0.00 -0.00 0.01 0.01 0.01 -0.00 -0.00 -0.00 0.01 0.01 0.00 0.00 0.00 0.00
 -0.00 -0.00 -0.00 0.00 0.00 0.00 0.00 0.00 0.00 0.00 0.00 -0.01 -0.00 -0.00 -0.00 -0.00 0.00 0.00 -0.00 0.00 0.00 0.00 0.00 -0.01 0.01 -0.00 -0.00
 0.01 0.00 0.00 0.01 0.00 0.01 0.00 0.01 0.01 0.00 0.01 0.01 0.00 0.01 0.00 0.01 0.01 0.01 0.01 0.00 0.01 0.01 0.00 0.01 0.00 0.01 0.01

Frame 68

 -0.01 -0.01 -0.02 -0.01 -0.01 -0.02 -0.00 -0.01 -0.01 -0.00 -0.01 -0.01 -0.00 -0.00 -0.01 -0.00 -0.00 -0.01 0.00 -0.01 -0.01 0.00 -0.01 -0.01 0.00 -0.01 -0.01
 0.00 0.00 0.00 -0.00 -0.00 -0.00 0.00 0.00 0.00 -0.00 -0.00 0.00 -0.01 -0.01 -0.00 -0.00 0.00 0.00 -0.00 -0.00 -0.00 -0.01 -0.01 -0.01 -0.00 -0.00 -0.00
 0.01 0.01 0.00 0.01 0.01 0.01 0.01 0.01 0.01 0.01 0.01 0.01 0.01 0.01 0.01 0.01 0.01 0.01 0.02 0.01 0.01 0.02 0.02 0.01 0.02 0.02 0.02

Frame 69

 -0.00 -0.01 -0.01 -0.02 -0.01 -0.01 -0.02 -0.01 -0.01 -0.01 -0.01 -0.01 -0.01 -0.01 -0.01 -0.01 -0.02 -0.02 -0.01 -0.01 -0.01 -0.01 -0.01 -0.01 -0.01 -0.01 -0.01
 0.01 0.01 0.01 0.00 0.00 0.01 0.01 0.01 0.01 0.01 0.01 0.01 0.01 0.01 0.01 0.01 0.01 0.01 0.02 0.01 0.01 0.01 0.01 0.02 0.01 0.01 0.01
 -0.01 -0.00 -0.01 -0.01 -0.00 -0.00 -0.01 -0.01 -0.00 -0.00 -0.00 -0.01 -0.01 -0.00 -0.01 -0.01 -0.01 -0.00 -0.00 -0.01 -0.01 -0.01 -0.00 -0.01 -0.01 -0.00 -0.01

Frame 70

 0.01 -0.00 -0.00 0.00 0.00 0.00 0.01 0.01 0.01 -0.00 -0.00 -0.00 0.00 0.00 0.00 0.00 -0.00 -0.00 0.00 0.00 0.00 0.01 0.01 0.01 0.00 0.00 0.00
 0.00 0.00 -0.00 -0.00 0.00 -0.00 -0.00 -0.01 0.00 -0.00 -0.00 -0.01 0.00 -0.00 -0.00 -0.01 0.00 -0.00 -0.00 -0.01 -0.01 -0.00 -0.01 -0.01 -0.00 -0.00 -0.01
 -0.00 -0.00 -0.00 0.01 0.01 0.01 0.01 0.01 0.01 0.01 0.01 0.01 0.01 0.01 0.01 0.01 0.01 0.01 0.01 0.01 0.01 0.01 0.01 0.01 0.01 0.01 0.01

Frame 71

 -0.01 -0.01 -0.01 -0.02 -0.01 -0.02 -0.02 -0.01 -0.02 -0.01 -0.02 -0.01 -0.02 -0.02 -0.02 -0.02 -0.02 -0.02 -0.02 -0.02 -0.02 -0.02 -0.02 -0.02 -0.02 -0.02 -0.02
 -0.01 -0.01 -0.01 -0.02 -0.01 -0.01 -0.01 -0.02 -0.01 -0.01 -0.01 -0.01 -0.01 -0.01 -0.01 -0.02 -0.01 -0.01 -0.01 -0.01 -0.00 -0.01 -0.01 -0.01 -0.01 -0.01 -0.01
 0.00 -0.00 -0.00 -0.00 -0.00 -0.01 -0.00 -0.01 -0.01 -0.01 -0.01 -0.01 -0.01 -0.00 -0.01 -0.00 -0.01 -0.01 -0.01 -0.01 -0.02 -0.01 -0.01 -0.02 -0.01 -0.02 -0.02

Frame 72

 0.01 0.00 0.01 0.01 0.01 0.00 0.01 0.00 0.01 0.01 0.01 0.00 0.01 0.01 0.01 0.01 0.01 0.00 0.01 0.01 0.01 0.01 0.01 0.01 0.01 0.02 0.01
 0.00 0.01 0.00 0.01 0.01 0.00 0.01 0.00 0.01 0.01 -0.00 0.00 0.01 0.00 0.01 0.01 0.01 0.01 0.01 0.00 0.01 0.00 0.01 0.01 0.00 0.01 0.00
 -0.00 -0.00 0.00 -0.00 -0.00 -0.00 0.00 -0.00 -0.00 -0.01 0.00 0.00 -0.01 0.00 0.00 -0.00 -0.00 0.00 -0.00 -0.00 -0.00 -0.00 -0.00 -0.00 0.00 0.00 -0.00

Frame 73

 0.00 0.00 0.00 0.01 0.01 0.01 0.02 0.02 0.02 0.01 0.01 0.01 0.01 0.01 0.01 0.02 0.02 0.02 0.01 0.02 0.02 0.01 0.01 0.01 0.02 0.02 0.02
 0.01 0.01 0.01 0.01 0.02 0.02 0.01 0.01 0.01 0.00 0.01 0.01 0.01 0.01 0.01 0.01 0.02 0.02 -0.00 -0.00 0.00 0.00 0.00 0.01 0.01 0.01 0.01
 -0.01 -0.01 -0.00 -0.01 -0.01 -0.00 -0.01 -0.01 -0.00 -0.01 -0.01 -0.00 -0.01 -0.01 -0.00 -0.01 -0.01 -0.01 -0.01 -0.00 -0.00 -0.01 -0.01 -0.00 -0.01 -0.01 -0.01

Frame 74

 0.02 0.02 0.02 0.02 0.02 0.02 0.02 0.02 0.03 0.02 0.02 0.03 0.02 0.03 0.03 0.02 0.02 0.02 0.02 0.02 0.02 0.02 0.02 0.02 0.02 0.02 0.03
 0.00 0.00 0.01 -0.00 -0.00 0.00 0.00 0.01 0.01 -0.01 -0.00 -0.00 -0.00 0.00 0.00 0.01 0.01 0.01 -0.00 -0.00 -0.00 0.00 0.00 0.01 -0.00 -0.00 0.00
 -0.00 -0.00 -0.00 -0.01 -0.01 0.00 -0.01 -0.01 -0.01 -0.01 -0.01 -0.01 -0.01 -0.00 -0.00 -0.01 -0.01 -0.01 -0.01 -0.01 -0.01 -0.01 -0.01 -0.01 -0.02 -0.02 -0.01

Frame 75

 0.01 0.01 0.01 0.02 0.01 0.02 0.01 0.02 0.01 0.01 0.01 0.01 0.01 0.02 0.01 0.02 0.01 0.02 0.01 0.01 0.01 0.02 0.01 0.02 0.01 0.02 0.01
 -0.01 -0.01 -0.02 -0.02 -0.02 -0.02 -0.01 -0.02 -0.02 -0.02 -0.02 -0.02 -0.01 -0.02 -0.02 -0.02 -0.02 -0.03 -0.02 -0.02 -0.02 -0.02 -0.02 -0.03 -0.02 -0.02 -0.02
 0.01 0.01 0.01 0.02 0.01 0.01 0.01 0.02 0.02 0.01 0.01 0.01 0.01 0.01 0.01 0.02 0.02 0.01 0.02 0.01 0.01 0.01 0.02 0.02 0.01 0.01 0.02

Frame 76

 0.00 0.01 0.00 0.00 0.01 0.00 0.00 0.01 0.01 0.00 0.01 0.01 0.00 0.01 0.01 0.00 0.01 0.01 0.00 0.01 0.01 0.00 0.00 0.01 -0.00 0.00 0.01
 0.00 0.01 -0.00 0.00 0.01 -0.00 0.00 0.01 -0.00 -0.00 -0.00 0.00 -0.00 0.00 0.00 -0.00 0.00 0.00 0.00 0.00 -0.00 0.00 0.00 -0.00 0.00 0.00 -0.00
 -0.01 -0.00 -0.00 -0.01 -0.01 -0.00 -0.01 -0.01 -0.01 -0.01 -0.01 -0.01 -0.01 -0.01 -0.01 -0.01 -0.01 -0.01 -0.01 -0.01 -0.01 -0.01 -0.01 -0.01 -0.01 -0.01 -0.01

Frame 77

 -0.00 0.00 -0.01 -0.01 -0.00 0.00 0.00 -0.01 -0.00 0.00 -0.01 -0.00 -0.00 0.00 -0.01 -0.01 -0.00 -0.01 -0.01 -0.00 -0.00 0.00 -0.01 -0.00 -0.00 -0.01 -0.01
 -0.01 -0.01 -0.00 -0.00 -0.01 -0.01 -0.01 -0.01 -0.01 -0.00 -0.01 -0.01 -0.01 -0.00 -0.01 -0.00 -0.01 -0.01 -0.00 -0.00 -0.01 0.00 -0.01 -0.00 -0.00 -0.01 -0.01
 0.00 -0.00 -0.01 0.00 0.00 -0.00 0.01 0.00 -0.00 -0.00 0.00 -0.00 -0.00 0.01 0.00 0.00 -0.00 0.00 0.00 -0.00 0.00 0.00 0.00 -0.00 0.01 0.00 -0.00

Frame 78

 -0.00 -0.00 -0.00 -0.00 -0.00 0.00 -0.01 -0.01 -0.01 -0.00 -0.00 0.00 -0.01 -0.01 -0.01 -0.01 -0.01 -0.01 -0.00 0.00 0.00 -0.01 -0.01 -0.01 -0.01 -0.01 -0.01
 0.01 0.01 0.01 0.00 0.00 0.01 0.01 0.01 0.01 0.01 0.01 0.01 0.01 0.02 0.02 0.01 0.01 0.01 0.01 0.01 0.01 0.02 0.02 0.02 0.01 0.01 0.01
 0.00 -0.00 -0.00 0.00 0.00 0.00 -0.01 -0.01 -0.01 -0.00 -0.00 -0.01 -0.00 -0.00 -0.00 0.00 -0.00 -0.00 0.00 0.00 0.00 -0.00 -0.01 -0.01 -0.00 -0.00 -0.00

Frame 79

 -0.00 0.00 0.00 0.00 0.00 -0.01 0.00 -0.00 -0.00 0.00 -0.00 -0.00 -0.00 -0.00 0.00 -0.00 0.00 0.00 -0.00 0.00 -0.01 0.00 -0.01 -0.00 -0.01 -0.00 -0.00
 -0.01 -0.01 -0.00 -0.00 -0.00 -0.00 -0.00 -0.00 -0.01 -0.00 -0.00 -0.00 -0.00 -0.01 -0.01 -0.01 -0.01 -0.01 -0.00 -0.01 -0.01 -0.01 -0.01 -0.01 -0.01 -0.00 -0.00
 0.01 0.00 -0.00 0.00 0.01 0.00 0.01 0.00 0.01 0.00 0.00 0.01 -0.00 0.01 0.00 0.00 0.00 0.01 0.00 -0.00 0.01 0.01 0.00 0.00 0.00 -0.00 0.01

Frame 80

 -0.00 -0.01 -0.01 -0.01 -0.01 -0.00 -0.00 -0.01 -0.01 -0.01 -0.01 -0.01 -0.01 -0.00 -0.01 -0.01 -0.01 -0.01 -0.01 -0.01 -0.00 -0.00 -0.00 -0.01 -0.01 -0.01 -0.00
 0.00 0.00 0.00 0.00 0.00 0.00 0.00 0.00 0.00 0.00 0.00 0.00 -0.00 0.00 0.00 -0.00 -0.00 -0.00 -0.00 -0.00 -0.00 -0.00 -0.00 -0.00 -0.00 -0.00 -0.00
 0.00 -0.00 -0.00 -0.00 0.00 0.00 0.00 -0.00 0.00 0.00 -0.00 0.00 -0.00 0.00 -0.00 0.00 -0.00 0.00 -0.01 -0.00 0.00 -0.00 0.00 -0.00 -0.00 -0.00 0.00

Frame 81

 -0.00 -0.00 -0.00 -0.00 -0.00 0.00 -0.01 -0.01 -0.01 -0.00 -0.00 -0.00 -0.01 -0.01 -0.01 -0.00 -0.00 -0.00 -0.00 -0.00 -0.00 -0.01 -0.01 -0.01 -0.00 -0.00 -0.00
 -0.01 -0.00 -0.01 -0.01 -0.00 -0.01 -0.01 -0.00 -0.01 -0.00 -0.01 -0.00 -0.00 -0.01 -0.00 -0.00 -0.01 -0.00 -0.01 -0.00 -0.01 -0.01 -0.00 -0.01 -0.01 -0.00 -0.01
 0.01 0.00 -0.00 -0.00 0.01 0.00 0.00 -0.00 0.01 0.00 -0.00 0.00 0.00 0.00 -0.00 0.01 0.00 0.00 0.01 0.00 -0.00 -0.00 0.01 0.00 0.00 -0.00 0.01

Frame 82

 -0.00 -0.01 -0.01 -0.00 -0.00 -0.00 0.00 -0.00 -0.00 -0.01 -0.01 -0.01 -0.01 -0.01 -0.01 -0.00 -0.00 -0.00 -0.00 -0.00 -0.01 0.00 -0.01 -0.01 -0.01 -0.01 -0.01
 -0.01 -0.01 -0.01 -0.00 -0.00 -0.01 -0.00 -0.00 -0.00 -0.00 -0.00 -0.00 -0.00 -0.00 -0.00 -0.01 -0.01 -0.01 -0.01 -0.01 -0.00 -0.01 -0.01 -0.01 -0.00 -0.01 -0.01
 0.00 0.01 0.00 0.01 0.00 0.01 0.00 0.01 0.00 0.01 0.00 0.01 0.00 0.01 0.00 0.01 0.01 0.01 0.00 0.01 0.00 0.01 0.01 0.01 0.01 0.01 0.01

Frame 83

 -0.01 -0.00 -0.00 -0.01 -0.01 -0.01 -0.01 -0.01 -0.01 -0.01 -0.01 -0.00 -0.01 -0.01 -0.01 -0.02 -0.01 -0.01 -0.01 -0.01 -0.01 -0.01 -0.02 -0.01 -0.02 -0.02 -0.01
 -0.00 -0.00 -0.01 -0.00 -0.01 -0.00 -0.01 -0.00 -0.00 -0.00 0.00 -0.00 0.00 -0.01 -0.00 -0.01 -0.00 0.00 0.00 0.00 0.01 0.00 -0.00 0.00 -0.00 -0.00 0.00
 0.01 0.01 0.01 0.01 0.01 0.00 0.01 0.00 0.00 0.01 0.01 0.00 0.01 0.00 0.01 0.01 0.01 0.01 0.01 0.01 0.01 0.01 0.01 0.01 0.01 0.01 0.01

Frame 84

 -0.00 0.00 -0.01 -0.00 -0.00 -0.00 -0.01 -0.01 -0.01 -0.00 0.00 -0.01 -0.00 -0.00 -0.00 -0.01 -0.01 -0.01 0.00 0.00 -0.01 -0.00 -0.00 -0.00 -0.01 -0.01 -0.01
 0.00 0.00 0.00 0.01 0.01 0.00 0.01 0.01 0.01 0.01 0.01 0.00 0.01 0.01 0.01 0.01 0.01 0.01 0.01 0.01 0.01 0.01 0.01 0.01 0.01 0.01 0.01
 0.01 0.01 0.00 0.01 0.01 0.01 0.01 0.01 0.01 0.01 0.00 0.01 0.01 0.00 0.01 0.01 0.00 0.01 0.00 0.01 0.00 0.00 0.01 0.01 0.01 0.01 0.01

Frame 85

 0.01 0.01 0.00 0.01 0.01 0.01 0.01 0.01 0.01 0.00 0.00 0.00 0.01 0.00 0.00 0.01 0.01 0.02 0.00 0.00 0.01 0.00 0.00 0.01 0.00 0.00 0.01
 -0.01 -0.01 -0.01 -0.01 -0.01 -0.02 -0.01 -0.01 -0.02 -0.01 -0.01 -0.02 -0.01 -0.01 -0.02 -0.01 -0.01 -0.02 -0.02 -0.01 -0.02 -0.02 -0.01 -0.02 -0.02 -0.01 -0.01
 0.00 0.00 -0.00 -0.00 -0.00 0.00 0.00 0.00 0.00 0.00 -0.00 -0.00 -0.00 -0.01 0.00 0.00 -0.00 -0.00 -0.00 -0.00 -0.01 -0.01 0.00 -0.00 -0.00 -0.00 -0.01

Frame 86

 -0.00 0.00 -0.00 -0.00 -0.01 0.00 -0.01 -0.00 -0.01 -0.00 -0.01 0.00 -0.01 -0.00 -0.01 -0.00 -0.01 -0.00 0.00 -0.00 0.00 -0.00 0.00 -0.00 -0.00 -0.00 0.00
 -0.01 -0.00 -0.00 -0.00 -0.00 0.00 0.00 0.00 0.00 -0.00 -0.00 0.00 0.00 0.00 0.00 0.01 0.01 0.01 0.00 0.00 0.00 0.01 0.01 0.01 -0.00 0.00 0.01
 -0.00 -0.00 -0.01 -0.00 -0.01 -0.01 -0.01 -0.01 -0.00 -0.01 -0.00 -0.00 -0.01 -0.00 -0.01 -0.01 -0.01 -0.01 -0.01 -0.01 -0.00 -0.01 -0.01 -0.00 -0.01 -0.01 -0.01

Frame 87

 0.01 0.00 -0.00 0.01 0.00 0.01 0.01 0.00 0.01 0.00 0.01 0.00 0.00 0.01 0.00 0.01 0.01 0.00 0.01 0.00 0.01 0.01 0.00 0.01 0.01 0.01 0.01
 -0.00 -0.00 -0.01 -0.00 -0.00 0.00 -0.00 0.00 0.00 -0.00 -0.01 0.00 -0.00 0.00 0.00 0.00 0.00 -0.00 -0.01 0.00 -0.00 0.00 -0.00 -0.00 0.00 -0.00 -0.00
 0.01 -0.00 0.00 0.01 -0.00 0.00 0.01 0.00 0.00 0.00 0.01 0.01 0.00 0.01 0.01 0.00 0.01 0.01 0.01 0.00 0.01 0.01 0.00 0.01 0.01 0.00 0.01

Frame 88

 0.00 0.00 -0.00 0.00 0.00 0.01 0.01 0.00 0.01 0.00 0.00 -0.00 -0.00 0.00 0.01 0.01 0.00 0.01 -0.00 0.00 -0.00 0.01 0.00 0.01 0.01 0.00 0.01
 0.00 0.01 0.02 0.01 0.01 0.01 -0.00 0.01 0.01 0.00 0.00 0.00 -0.01 0.00 0.00 -0.01 0.00 0.00 -0.01 0.00 0.00 -0.01 0.00 0.00 -0.01 0.00 0.00
 -0.01 -0.01 -0.02 -0.02 -0.02 -0.02 -0.03 -0.03 -0.03 -0.01 -0.01 -0.02 -0.02 -0.02 -0.02 -0.03 -0.03 -0.03 -0.01 -0.01 -0.01 -0.02 -0.02 -0.02 -0.02 -0.03 -0.03

Frame 89

 0.00 0.00 0.00 0.00 0.00 0.00 0.00 0.00 0.00 0.01 0.01 0.01 -0.00 0.01 0.01 -0.00 0.01 0.01 0.01 0.01 0.01 0.01 0.01 0.01 0.01 0.01 0.01
 -0.00 0.00 0.00 0.00 0.00 0.01 0.01 0.01 -0.00 -0.00 0.00 0.00 0.00 0.00 0.01 0.01 0.01 -0.00 -0.00 0.00 0.00 0.00 0.00 0.01 0.01 0.01 0.01
 -0.00 0.00 -0.00 -0.00 -0.01 -0.00 -0.00 -0.01 0.00 0.00 -0.00 0.00 0.00 -0.00 0.00 -0.01 -0.00 0.00 -0.01 -0.00 -0.00 -0.00 0.00 -0.00 -0.00 0.00 -0.00

Frame 90

 -0.00 0.00 -0.00 -0.00 0.00 0.00 -0.00 -0.00 0.00 -0.00 0.00 0.00 -0.00 -0.00 0.00 -0.01 -0.00 0.00 -0.00 -0.00 0.00 -0.01 -0.00 0.00 -0.01 -0.00 -0.00
 0.01 0.01 0.01 0.01 0.01 0.01 0.01 0.01 0.01 0.00 0.00 0.00 0.00 0.00 0.00 0.01 0.01 0.01 0.01 0.01 0.01 0.01 0.01 0.01 0.00 0.00 0.00
 -0.01 -0.01 -0.01 -0.01 -0.01 -0.01 -0.01 -0.01 -0.02 -0.01 -0.01 -0.02 -0.01 -0.01 -0.01 -0.01 -0.01 -0.01 -0.01 -0.01 -0.01 -0.01 -0.01 -0.01 -0.01 -0.01 -0.01

Frame 91

 -0.00 -0.00 -0.01 -0.01 -0.00 -0.01 -0.01 -0.01 -0.01 -0.00 0.00 -0.00 -0.00 0.00 -0.01 -0.01 -0.01 -0.01 -0.00 0.00 -0.00 -0.00 0.00 -0.00 -0.00 -0.01 -0.01
 -0.00 -0.00 -0.01 -0.00 -0.01 0.00 -0.01 0.00 -0.00 -0.01 -0.00 -0.00 -0.00 -0.00 0.00 -0.00 -0.01 0.00 -0.00 0.00 -0.00 0.00 -0.00 0.01 0.00 -0.00 0.00
 0.00 0.00 0.01 0.00 0.00 0.01 0.00 0.00 0.01 0.00 0.01 0.01 0.00 0.01 0.01 0.00 0.01 0.00 0.01 0.01 0.01 0.01 0.01 0.00 0.01 0.00 0.00

Frame 92

 0.00 0.01 0.00 0.01 0.01 0.00 0.01 0.00 0.01 0.00 0.01 0.00 0.01 0.01 0.01 0.01 0.00 0.01 0.00 0.01 0.01 0.01 0.01 0.01 0.01 0.01 0.01
 0.00 0.00 0.00 0.01 0.01 0.01 0.02 0.01 0.01 0.01 0.01 0.01 0.01 0.01 0.00 0.01 0.01 0.01 0.01 0.01 0.01 0.01 0.01 0.01 0.01 0.01 0.01
 0.01 0.01 0.01 0.01 0.01 0.01 0.01 0.01 0.01 -0.00 0.01 0.01 0.00 0.01 0.01 0.00 0.01 0.01 0.00 -0.00 0.01 0.00 0.01 0.01 0.00 0.01 0.01

Frame 93

 -0.01 -0.01 -0.01 -0.01 -0.01 -0.01 -0.01 -0.01 -0.01 -0.01 -0.01 -0.01 -0.00 -0.01 -0.01 -0.01 -0.01 -0.01 -0.01 -0.01 -0.01 -0.01 -0.01 -0.02 -0.01 -0.01 -0.02
 -0.01 -0.01 -0.01 0.00 -0.01 -0.01 -0.00 0.00 0.00 -0.00 -0.00 -0.00 -0.00 -0.00 -0.00 -0.01 -0.01 -0.00 0.00 0.00 -0.01 0.00 0.00 0.00 -0.00 -0.00 -0.00
 0.00 -0.00 0.00 0.00 -0.00 0.00 0.01 -0.00 0.00 0.00 0.01 0.00 0.00 -0.00 0.00 0.00 -0.00 0.00 0.00 0.00 -0.00 0.00 0.01 0.00 0.00 0.01 0.00

Frame 94

 0.00 -0.00 -0.00 0.01 0.01 0.01 0.01 0.01 0.01 0.00 0.00 0.00 0.00 0.00 0.00 0.00 0.00 0.00 0.01 0.01 0.01 0.01 0.01 0.00 0.00 0.00 0.00
 0.00 0.01 0.00 0.01 0.00 0.01 0.01 0.01 0.01 0.00 0.00 0.01 0.01 0.00 0.01 0.01 0.01 0.00 0.01 0.00 0.01 0.00 0.01 0.00 0.00 0.01 0.01
 0.00 0.00 0.01 0.00 0.00 0.01 0.00 -0.00 0.01 0.00 0.01 0.01 0.00 0.01 0.01 -0.00 0.01 0.01 0.01 0.01 0.01 0.01 0.01 0.01 0.01 0.01 0.00

Frame 95

 0.00 0.00 0.01 0.00 0.00 0.00 -0.00 0.00 0.00 0.01 0.00 0.00 -0.00 0.00 0.00 -0.00 -0.00 0.00 -0.00 0.01 0.00 -0.00 -0.00 0.00 -0.00 -0.00 -0.00
 0.00 -0.00 -0.00 -0.00 -0.00 0.00 0.00 0.00 -0.00 0.00 -0.00 -0.00 -0.00 0.00 0.00 0.00 0.00 -0.00 0.00 0.01 -0.00 0.01 0.00 0.00 0.00 0.00 0.01
 -0.01 -0.00 -0.01 -0.00 -0.01 -0.00 -0.00 -0.00 0.00 -0.00 -0.01 -0.00 -0.00 -0.00 -0.01 -0.01 -0.00 -0.00 -0.01 -0.00 -0.01 -0.01 -0.01 -0.00 -0.00 -0.01 -0.01

Frame 96

 0.02 0.01 0.01 0.02 0.02 0.02 0.02 0.03 0.02 0.01 0.01 0.02 0.01 0.02 0.02 0.02 0.02 0.02 0.02 0.01 0.01 0.02 0.01 0.02 0.02 0.02 0.02
 -0.02 -0.01 -0.01 -0.02 -0.02 -0.01 -0.02 -0.02 -0.02 -0.02 -0.02 -0.01 -0.02 -0.02 -0.02 -0.03 -0.02 -0.02 -0.02 -0.02 -0.02 -0.03 -0.02 -0.02 -0.03 -0.03 -0.02
 -0.01 -0.01 -0.00 -0.01 -0.01 -0.01 -0.01 -0.01 -0.01 -0.00 -0.01 -0.01 -0.01 -0.02 -0.01 -0.02 -0.02 -0.02 -0.01 -0.01 -0.01 -0.01 -0.01 -0.01 -0.02 -0.01 -0.01

Frame 97

 0.00 -0.00 -0.00 -0.00 0.00 0.00 0.00 -0.00 -0.00 0.00 -0.00 -0.00 -0.00 0.00 0.00 0.00 -0.00 -0.01 0.00 -0.00 -0.01 -0.00 0.00 -0.00 0.00 -0.00 -0.01
 -0.00 -0.01 0.00 -0.00 0.00 -0.00 0.00 -0.00 -0.01 -0.00 0.00 -0.00 0.00 -0.00 -0.00 0.00 -0.00 0.00 -0.00 0.00 -0.00 0.00 -0.00 -0.01 -0.00 -0.01 0.00
 -0.00 -0.01 -0.00 0.00 -0.00 -0.01 -0.01 0.00 -0.00 -0.00 -0.00 0.00 0.00 -0.00 -0.00 -0.00 0.00 -0.00 0.00 -0.00 0.00 0.00 0.00 -0.00 -0.00 0.00 0.00

Frame 98

 0.02 0.02 0.02 0.02 0.02 0.02 0.02 0.03 0.02 0.01 0.02 0.02 0.02 0.02 0.02 0.02 0.02 0.03 0.02 0.01 0.02 0.02 0.02 0.02 0.02 0.02 0.02
 -0.02 -0.01 -0.01 -0.01 -0.02 -0.02 -0.01 -0.01 -0.02 -0.01 -0.01 -0.02 -0.02 -0.02 -0.02 -0.01 -0.02 -0.02 -0.01 -0.02 -0.02 -0.02 -0.02 -0.03 -0.02 -0.02 -0.02
 -0.01 -0.01 -0.01 -0.01 -0.01 -0.00 -0.00 -0.01 -0.00 -0.01 -0.01 -0.01 -0.01 -0.01 -0.01 -0.01 -0.01 -0.01 -0.01 -0.01 -0.01 -0.01 -0.01 -0.01 -0.01 -0.01 -0.01

Frame 99

 -0.00 -0.00 -0.00 -0.01 0.00 0.00 -0.00 -0.00 -0.00 0.00 0.00 0.00 -0.00 -0.00 -0.00 -0.00 -0.01 -0.01 0.00 -0.00 -0.00 -0.00 -0.00 0.00 -0.01 0.00 0.00
 -0.00 -0.01 -0.01 0.00 -0.00 -0.01 -0.00 -0.01 -0.01 -0.00 -0.01 -0.01 0.00 -0.00 -0.01 -0.00 -0.01 -0.00 -0.00 -0.00 -0.01 0.00 -0.00 -0.00 0.01 0.00 -0.00
 0.01 0.01 0.01 0.01 0.01 0.02 0.01 0.02 0.02 0.01 0.01 0.01 0.02 0.01 0.01 0.02 0.02 0.02 0.01 0.01 0.01 0.01 0.01 0.01 0.02 0.01 0.01

Frame 100

 0.00 0.00 0.00 0.01 0.01 0.01 0.01 0.01 0.01 0.01 0.01 0.01 0.01 0.01 0.01 0.00 0.00 0.00 0.01 0.01 0.01 0.00 0.00 0.00 0.01 0.01 0.01
 0.01 0.00 0.01 0.01 0.01 0.01 0.01 0.01 0.02 0.01 0.01 0.00 0.01 0.01 0.01 0.01 0.01 0.01 0.01 0.01 0.01 0.01 0.01 0.01 0.02 0.01 0.01
 -0.00 0.00 0.01 0.00 0.01 0.00 -0.00 0.00 0.01 0.00 0.01 0.00 0.01 0.00 0.01 0.00 0.01 0.00 0.00 -0.00 0.00 -0.00 0.00 0.01 0.00 0.01 0.00

Frame 101

 0.02 0.01 0.01 0.01 0.02 0.01 0.01 0.02 0.01 0.02 0.01 0.01 0.02 0.02 0.01 0.02 0.02 0.01 0.02 0.01 0.01 0.02 0.01 0.01 0.02 0.02 0.01
 0.00 0.00 -0.00 0.00 -0.00 -0.00 0.01 0.00 0.00 0.00 0.00 -0.00 -0.00 -0.00 0.00 0.01 0.00 0.00 0.00 -0.00 -0.00 -0.00 0.01 0.00 0.00 0.00 -0.00
 0.00 0.01 0.00 0.00 0.00 0.01 0.01 0.01 0.01 0.00 0.01 0.01 -0.00 0.00 0.01 0.01 0.01 0.01 0.00 0.01 0.01 -0.00 0.00 0.00 0.00 0.01 0.01

Frame 102

 0.01 0.01 0.00 0.01 0.01 0.01 0.00 0.00 0.00 0.01 0.01 0.01 0.01 0.01 0.01 0.00 0.00 0.00 0.01 0.01 0.01 0.01 0.01 0.01 0.00 0.00 0.00
 0.01 0.01 0.01 0.01 0.01 0.01 0.02 0.02 0.01 0.01 0.01 0.01 0.02 0.01 0.01 0.02 0.02 0.02 0.01 0.01 0.01 0.02 0.02 0.01 0.02 0.02 0.02
 0.01 0.01 0.01 0.01 0.01 0.01 0.01 0.01 0.01 0.01 0.01 0.01 0.00 0.01 0.01 0.01 0.02 0.01 0.01 0.01 0.01 0.01 0.01 0.01 0.01 0.01 0.02

Frame 103

 0.00 0.01 0.01 0.01 0.01 0.01 0.01 0.01 0.01 0.01 0.01 0.01 0.01 0.01 0.01 0.01 0.01 0.01 0.01 0.01 0.01 0.01 0.01 0.02 0.02 0.01 0.02
 -0.00 -0.00 -0.01 0.00 -0.00 -0.01 0.00 0.00 -0.00 -0.00 -0.01 -0.01 -0.00 -0.00 -0.01 0.00 -0.00 -0.00 -0.00 -0.01 -0.01 -0.00 -0.00 -0.01 0.00 -0.00 -0.01
 0.00 0.00 0.00 -0.00 -0.00 0.01 0.00 0.00 0.00 -0.01 0.00 0.00 -0.00 -0.00 -0.00 -0.01 0.00 0.00 -0.01 -0.01 0.00 -0.00 -0.00 -0.00 -0.00 -0.00 0.01

Frame 104

 -0.01 -0.01 -0.01 -0.01 -0.01 -0.01 -0.01 -0.01 -0.01 -0.01 -0.01 -0.01 -0.01 -0.01 -0.01 -0.01 -0.01 -0.01 -0.01 -0.01 -0.01 -0.01 -0.01 -0.01 -0.01 -0.01 -0.01
 0.00 0.00 0.00 0.01 0.01 0.01 0.01 0.01 0.01 0.00 0.00 0.00 0.01 0.01 0.01 0.01 0.01 0.01 -0.00 0.00 0.00 0.01 0.01 0.01 0.00 0.01 0.01
 0.01 0.01 0.01 0.01 0.01 0.00 -0.00 -0.00 -0.00 0.01 0.01 0.00 0.00 0.00 0.00 -0.00 0.00 0.00 0.00 0.01 0.01 0.00 0.00 0.01 0.00 0.00 0.00

Frame 105

 0.00 -0.01 -0.01 0.00 0.00 -0.00 -0.00 -0.00 -0.00 0.00 -0.01 -0.01 0.00 -0.00 -0.00 -0.00 -0.00 -0.00 0.00 -0.01 -0.01 -0.00 -0.00 -0.00 -0.00 -0.00 -0.01
 -0.00 -0.01 -0.00 -0.01 -0.00 -0.01 -0.00 -0.01 -0.00 -0.01 -0.01 -0.01 -0.01 -0.01 -0.01 -0.01 -0.01 -0.01 -0.01 -0.00 -0.01 -0.01 -0.01 -0.01 -0.01 -0.01 -0.01
 0.01 0.00 0.00 0.00 0.01 -0.00 0.01 -0.00 0.00 0.01 0.00 0.01 0.00 0.01 -0.00 0.01 0.00 0.00 0.01 0.01 0.01 0.01 0.01 0.01 0.01 0.01 0.00

Frame 106

 -0.01 -0.00 -0.01 -0.00 -0.01 -0.01 0.00 -0.01 -0.01 -0.00 -0.01 -0.01 0.00 -0.01 -0.01 -0.00 -0.00 -0.01 0.00 -0.01 -0.01 -0.01 -0.00 -0.01 -0.00 -0.01 -0.01
 -0.00 -0.01 -0.01 -0.01 -0.01 -0.01 -0.01 -0.01 -0.02 -0.00 -0.01 -0.01 -0.01 -0.01 -0.01 -0.00 -0.00 -0.01 -0.01 -0.01 -0.01 -0.00 -0.00 -0.02 -0.00 -0.01 -0.01
 0.02 0.02 0.02 0.03 0.03 0.03 0.03 0.03 0.03 0.03 0.03 0.02 0.03 0.03 0.03 0.03 0.03 0.04 0.03 0.03 0.03 0.04 0.04 0.04 0.04 0.03 0.03

Frame 107

 0.00 -0.00 0.00 0.01 0.00 0.00 0.01 0.00 0.01 0.00 0.01 0.00 0.01 0.01 0.00 0.01 0.01 0.01 0.00 0.01 0.00 0.01 0.01 0.00 0.01 0.01 0.01
 -0.02 -0.02 -0.02 -0.01 -0.01 -0.01 -0.01 -0.01 -0.01 -0.02 -0.02 -0.02 -0.02 -0.01 -0.01 -0.01 -0.01 -0.01 -0.02 -0.02 -0.02 -0.02 -0.02 -0.02 -0.01 -0.01 -0.01
 0.01 0.01 0.01 0.01 0.01 0.01 0.00 0.01 0.01 0.00 0.01 0.01 0.01 0.01 0.01 0.01 0.01 0.01 0.01 0.01 0.01 0.00 0.01 0.02 0.01 0.01 0.01

Frame 108

 -0.01 -0.01 -0.01 -0.00 -0.01 -0.01 -0.00 0.00 -0.01 -0.00 -0.01 -0.01 -0.00 -0.00 -0.01 -0.00 -0.00 -0.01 -0.01 -0.00 -0.01 -0.01 -0.00 -0.01 -0.01 -0.00 -0.00
 -0.00 -0.01 0.00 -0.00 -0.01 -0.00 -0.01 -0.01 -0.00 -0.01 -0.00 -0.01 -0.01 -0.01 -0.01 -0.00 -0.01 -0.01 -0.01 -0.00 -0.01 -0.01 -0.01 -0.01 -0.01 -0.01 -0.01
 -0.00 -0.01 -0.01 -0.00 -0.00 -0.01 -0.01 -0.01 -0.01 -0.00 -0.01 -0.01 -0.01 -0.00 -0.00 -0.00 -0.01 -0.01 -0.00 -0.01 -0.01 -0.01 -0.01 -0.00 -0.00 -0.01 -0.01

Frame 109

 -0.01 -0.01 -0.01 -0.01 -0.00 -0.01 -0.01 -0.01 -0.01 -0.01 -0.01 -0.01 -0.01 -0.01 -0.01 -0.01 -0.01 -0.01 -0.01 -0.01 -0.02 -0.02 -0.01 -0.01 -0.01 -0.01 -0.01
 -0.00 -0.01 -0.01 -0.00 -0.01 -0.01 -0.00 -0.01 -0.01 -0.01 -0.01 -0.02 -0.01 -0.01 -0.02 -0.01 -0.01 -0.02 -0.00 -0.01 -0.01 -0.00 -0.01 -0.01 -0.00 -0.01 -0.01
 -0.00 -0.00 -0.00 0.00 0.00 -0.00 0.00 0.00 0.00 -0.00 -0.00 -0.00 0.00 0.00 0.00 0.00 0.00 0.00 0.00 -0.01 -0.01 0.00 0.00 0.00 0.00 0.00 0.00

Frame 110

 -0.00 -0.00 -0.01 0.00 -0.01 -0.00 -0.00 -0.00 -0.01 -0.00 -0.01 -0.00 -0.01 -0.00 -0.01 -0.00 -0.01 -0.00 -0.01 -0.00 -0.01 -0.00 -0.01 -0.01 -0.01 -0.00 -0.01
 -0.00 -0.00 -0.01 -0.01 -0.01 -0.01 -0.01 -0.02 -0.02 -0.00 -0.00 -0.01 -0.01 -0.01 -0.01 -0.01 -0.02 -0.02 -0.00 -0.01 -0.01 -0.01 -0.01 -0.01 -0.01 -0.02 -0.02
 0.00 -0.01 -0.00 0.00 -0.01 -0.00 0.00 -0.00 -0.00 -0.00 -0.01 -0.00 0.00 0.00 -0.00 0.00 0.01 -0.00 -0.00 0.00 -0.01 0.00 0.00 -0.00 0.00 0.01 -0.00

Frame 111

 0.00 -0.00 0.00 0.01 0.00 0.01 0.00 0.01 0.00 0.00 0.01 0.00 0.00 -0.00 0.00 -0.00 0.00 0.01 -0.00 0.00 -0.00 0.00 0.01 0.00 0.01 0.00 0.01
 0.01 0.00 -0.00 0.01 0.00 0.00 0.01 0.01 0.00 -0.00 0.01 0.00 0.00 -0.00 -0.01 0.00 -0.00 -0.00 0.00 -0.00 -0.00 0.00 0.00 -0.00 0.01 0.00 -0.00
 0.00 0.01 0.01 0.01 0.00 0.00 0.00 0.01 0.01 0.01 0.01 0.00 0.01 0.00 0.01 0.01 0.01 0.01 0.01 -0.00 0.00 0.00 0.01 0.01 0.01 0.01 0.00

Frame 112

 -0.00 0.00 -0.00 -0.00 0.00 -0.00 -0.01 0.00 -0.00 -0.01 0.00 -0.00 0.00 -0.00 -0.01 0.00 -0.00 0.00 0.00 -0.00 0.00 0.00 -0.00 0.00 0.00 -0.00 0.00
 0.00 0.01 0.00 0.01 0.01 0.01 0.01 0.00 0.01 0.00 0.01 0.00 0.01 0.01 0.00 0.01 0.01 0.01 0.00 0.01 0.00 0.01 0.01 0.00 0.01 0.01 0.01
 -0.00 -0.00 -0.01 -0.00 -0.01 0.00 -0.01 0.00 -0.00 -0.01 0.00 -0.00 -0.01 -0.00 -0.00 -0.00 -0.00 0.00 -0.00 -0.00 -0.01 -0.00 -0.01 0.00 -0.01 0.00 -0.00

Frame 113

 0.01 0.01 0.01 0.00 0.00 0.01 0.01 0.01 0.01 0.01 0.01 0.01 0.00 0.01 0.01 0.01 0.01 0.00 0.01 0.01 0.01 0.01 0.01 0.01 0.01 0.01 0.01
 -0.00 0.00 -0.00 0.01 0.00 -0.00 0.01 0.00 -0.00 0.00 -0.00 0.00 0.00 -0.00 0.00 0.00 -0.00 0.00 -0.00 0.00 -0.00 -0.00 0.00 -0.00 -0.00 0.00 -0.00
 0.00 -0.00 0.01 0.01 0.00 0.00 0.00 0.00 0.01 -0.00 -0.00 0.00 0.00 0.00 0.00 0.00 -0.00 0.01 -0.00 0.00 0.00 0.00 0.00 -0.00 -0.00 -0.00 0.01

Frame 114

 0.01 0.01 0.02 0.01 0.01 0.02 0.01 0.01 0.01 0.01 0.01 0.02 0.01 0.01 0.02 0.01 0.01 0.02 0.01 0.01 0.01 0.01 0.01 0.01 0.01 0.01 0.02
 -0.00 -0.00 -0.00 -0.01 0.00 0.00 -0.00 -0.00 -0.00 -0.00 -0.00 -0.00 -0.01 0.00 0.00 -0.00 -0.00 -0.00 -0.00 -0.00 -0.00 0.00 0.00 0.00 -0.00 -0.00 -0.00
 -0.01 -0.01 -0.01 -0.01 -0.01 -0.01 -0.02 -0.01 -0.01 -0.02 -0.01 -0.01 -0.02 -0.02 -0.01 -0.02 -0.02 -0.01 -0.02 -0.02 -0.01 -0.02 -0.02 -0.02 -0.02 -0.02 -0.02

Frame 115

 0.02 0.02 0.02 0.01 0.02 0.02 0.01 0.01 0.02 0.01 0.01 0.02 0.02 0.02 0.02 0.01 0.02 0.02 0.02 0.02 0.02 0.01 0.02 0.02 0.02 0.02 0.01
 0.02 0.02 0.02 0.02 0.02 0.02 0.02 0.02 0.02 0.02 0.01 0.01 0.02 0.01 0.01 0.02 0.01 0.01 0.01 0.01 0.01 0.01 0.01 0.01 0.01 0.01 0.02
 -0.00 0.00 -0.01 -0.00 -0.00 0.00 -0.01 -0.00 -0.00 -0.00 -0.00 -0.00 -0.01 -0.01 -0.00 -0.01 -0.01 -0.01 -0.01 -0.01 -0.00 -0.01 -0.01 -0.01 -0.01 -0.01 -0.01

Frame 116

 0.00 0.00 -0.00 0.01 0.00 0.00 0.01 -0.00 0.00 0.01 -0.00 0.00 0.00 0.01 0.00 0.00 0.00 0.01 0.00 0.00 0.01 0.01 0.00 0.01 0.01 0.01 0.00
 0.00 0.00 0.00 0.01 0.00 0.00 0.01 0.01 0.01 -0.00 0.01 0.01 0.01 0.01 0.01 0.01 0.01 0.01 0.00 0.00 0.00 0.00 0.00 0.01 0.00 0.00 0.01
 0.01 0.00 0.01 0.00 0.01 0.01 0.00 0.01 0.01 0.01 0.00 0.01 0.00 0.01 0.01 0.00 0.01 0.01 0.01 0.01 0.01 0.01 0.00 0.01 0.00 0.01 0.01

Frame 117

 0.02 0.01 0.01 0.01 0.02 0.01 0.02 0.01 0.02 0.02 0.01 0.02 0.02 0.02 0.01 0.02 0.02 0.02 0.02 0.01 0.02 0.02 0.02 0.02 0.02 0.02 0.02
 0.00 -0.00 -0.00 -0.00 0.01 0.00 0.01 0.00 0.00 -0.00 -0.00 0.00 -0.00 0.00 0.00 0.00 0.00 -0.00 -0.01 -0.01 -0.00 0.00 -0.00 -0.00 0.00 -0.00 0.00
 0.00 0.01 0.01 0.01 0.01 0.01 -0.00 0.00 0.01 0.00 0.01 0.01 0.01 0.01 0.01 0.01 0.00 0.01 0.00 0.01 0.01 0.01 0.01 0.01 0.01 0.01 0.01

Frame 118

 -0.00 -0.01 -0.00 -0.00 -0.01 -0.00 -0.00 0.00 -0.00 -0.00 -0.01 -0.01 -0.00 -0.01 -0.00 -0.00 -0.01 -0.00 -0.01 -0.01 -0.01 -0.00 -0.01 -0.01 -0.00 -0.01 -0.00
 0.00 0.00 -0.00 -0.00 -0.00 -0.00 -0.01 -0.01 -0.01 -0.01 -0.01 -0.01 -0.01 -0.01 -0.00 -0.01 -0.01 -0.01 -0.01 -0.01 -0.01 -0.01 -0.01 -0.01 -0.02 -0.02 -0.02
 -0.00 -0.01 -0.01 0.00 -0.00 -0.00 -0.01 -0.01 -0.01 0.00 0.00 -0.00 -0.00 -0.01 -0.01 0.00 -0.00 -0.00 -0.00 -0.00 -0.01 0.00 0.00 -0.00 -0.00 -0.01 -0.01

Frame 119

 -0.00 0.00 -0.01 0.01 -0.00 0.00 0.00 0.01 -0.00 -0.00 -0.00 0.00 0.00 -0.00 -0.00 0.00 0.00 0.01 0.00 -0.00 -0.00 0.00 0.00 -0.00 0.01 0.00 0.00
 0.00 0.00 0.00 0.00 0.00 0.00 0.00 0.00 0.00 0.00 0.00 0.00 0.00 0.00 0.00 0.00 0.00 0.00 0.00 0.00 0.01 0.00 0.00 0.01 0.00 0.00 0.00
 -0.00 -0.00 0.00 -0.00 0.00 0.00 0.00 0.00 -0.01 0.00 0.01 -0.00 0.01 -0.00 -0.00 -0.00 -0.00 0.00 0.00 0.00 0.00 0.00 0.00 0.01 0.00 -0.00 -0.00

Frame 120

 0.01 0.02 0.01 0.00 0.01 0.02 0.01 0.01 0.01 0.01 0.01 0.01 0.00 0.01 0.01 0.01 0.01 0.01 0.01 0.01 0.01 0.00 0.01 0.01 0.01 0.01 0.01
 0.01 0.01 0.01 0.00 0.02 0.02 0.01 0.01 0.01 0.01 0.01 0.01 0.01 0.01 0.01 0.00 0.01 0.02 0.01 0.01 0.01 0.01 0.01 0.01 0.01 0.01 0.01
 -0.02 -0.01 -0.02 -0.02 -0.02 -0.02 -0.02 -0.02 -0.02 -0.02 -0.02 -0.02 -0.02 -0.02 -0.02 -0.02 -0.03 -0.02 -0.02 -0.02 -0.03 -0.03 -0.02 -0.03 -0.03 -0.02 -0.03

Frame 121

 0.00 -0.01 -0.01 -0.00 -0.00 -0.00 0.00 0.00 -0.01 -0.00 -0.00 -0.01 -0.01 -0.01 -0.00 -0.00 -0.00 0.00 -0.00 -0.00 -0.00 -0.01 -0.01 -0.01 -0.00 -0.00 -0.00
 0.01 0.00 0.00 0.00 0.00 0.00 0.00 0.00 -0.00 -0.00 0.01 0.00 0.01 0.00 0.00 0.00 0.00 0.00 0.00 -0.00 -0.00 -0.00 -0.00 0.01 -0.00 0.00 0.00
 -0.01 -0.01 -0.00 -0.00 -0.01 -0.00 -0.00 -0.01 -0.01 -0.01 -0.01 -0.00 -0.01 -0.01 -0.00 -0.00 -0.01 -0.00 -0.01 -0.00 -0.00 -0.01 -0.01 -0.00 -0.00 -0.01 -0.00

Frame 122

 0.00 0.00 -0.00 0.00 0.00 -0.00 -0.01 -0.01 -0.00 -0.00 -0.00 -0.00 0.00 -0.00 -0.00 0.00 -0.00 -0.00 -0.00 -0.00 -0.00 -0.00 -0.00 -0.00 -0.00 -0.00 -0.00
 0.01 0.01 0.01 0.01 0.01 0.01 0.02 0.01 0.01 0.02 0.01 0.01 0.02 0.01 0.01 0.02 0.01 0.01 0.02 0.02 0.01 0.01 0.02 0.01 0.01 0.02 0.01
 0.01 0.01 0.01 0.00 0.01 0.01 0.01 0.00 0.00 0.01 0.01 0.00 0.01 0.01 0.01 0.00 0.00 0.01 0.01 0.00 0.00 0.01 0.01 0.01 0.00 0.01 0.01

Frame 123

 0.00 0.00 0.00 0.00 0.00 0.00 0.01 0.01 0.01 0.01 0.01 0.01 0.01 0.01 0.01 0.00 0.00 0.00 0.00 0.00 0.00 0.01 0.01 0.01 0.01 0.01 0.01
 0.00 0.00 0.00 0.01 0.01 0.00 0.01 0.01 0.01 0.01 0.01 0.01 0.01 0.01 0.01 0.01 0.01 0.01 0.01 0.01 0.01 0.02 0.01 0.01 0.01 0.02 0.01
 0.00 0.01 0.01 0.00 0.01 0.00 0.01 0.01 0.01 0.01 0.01 0.01 0.01 0.00 0.01 0.00 0.01 0.01 0.00 0.01 0.01 0.00 0.01 0.00 0.01 0.01 0.01

Frame 124

 -0.00 -0.00 -0.00 -0.00 -0.00 -0.00 -0.00 -0.00 -0.00 -0.00 -0.00 -0.01 0.00 0.00 -0.01 0.00 -0.01 -0.01 0.00 -0.01 -0.01 -0.01 -0.01 -0.01 -0.00 -0.00 -0.00
 -0.01 -0.01 -0.02 -0.01 -0.01 -0.01 -0.01 -0.02 -0.02 -0.01 -0.02 -0.02 -0.01 -0.01 -0.01 -0.01 -0.02 -0.02 -0.02 -0.02 -0.02 -0.01 -0.01 -0.02 -0.02 -0.02 -0.02
 0.01 0.01 0.02 0.02 0.01 0.01 0.02 0.02 0.02 0.02 0.02 0.01 0.02 0.02 0.02 0.02 0.02 0.02 0.02 0.02 0.02 0.02 0.02 0.02 0.02 0.02 0.02

Frame 125

 -0.01 -0.01 -0.01 -0.01 -0.01 -0.01 -0.01 -0.01 -0.01 -0.01 -0.01 -0.01 -0.01 -0.01 -0.01 -0.01 -0.01 -0.00 -0.01 -0.01 -0.00 -0.01 -0.01 -0.00 -0.01 -0.00 -0.00
 -0.00 -0.01 -0.00 -0.01 -0.00 -0.01 -0.00 -0.01 0.00 -0.01 -0.00 -0.01 -0.00 -0.01 -0.00 -0.01 -0.00 -0.01 -0.01 0.00 -0.00 -0.01 -0.00 -0.01 -0.01 -0.01 -0.00
 0.00 -0.00 -0.01 -0.00 -0.00 -0.01 -0.00 -0.01 -0.01 -0.00 -0.01 0.00 -0.00 -0.01 -0.00 -0.01 0.00 -0.00 -0.01 0.00 -0.00 -0.01 -0.00 -0.00 0.00 -0.00 -0.01

EM post vector after distortion correction for dataset d

 201.28
 203.24
 191.91

Difference between undistorted and distorted EM post vectors for dataset d

 0.00
 -0.00
 -0.00

